# Exported graph model [Bed2] by TopoBlender

# Starting mesh LowBoardSheet
v -1.02279 0.502584 0.444748
v -1.02279 -0.509648 0.444748
v 1.02374 -0.509648 0.444748
v 1.02374 0.502584 0.444748
v -1.02279 0.517332 0.440767
v -1.03021 0.51534 0.440767
v -1.03564 0.509913 0.440767
v -1.03754 0.502584 0.440767
v -1.03754 -0.509648 0.440767
v -1.03564 -0.516975 0.440767
v -1.03021 -0.522404 0.440767
v -1.02279 -0.524394 0.440767
v 1.02374 -0.524394 0.440767
v 1.03116 -0.522404 0.440767
v 1.03659 -0.516975 0.440767
v 1.03858 -0.509648 0.440767
v 1.03858 0.502584 0.440767
v 1.03659 0.509913 0.440767
v 1.03116 0.51534 0.440767
v 1.02374 0.517332 0.440767
v -1.02279 0.528188 0.43
v -1.03564 0.524751 0.43
v -1.04496 0.51534 0.43
v -1.0484 0.502584 0.43
v -1.0484 -0.509648 0.43
v -1.04496 -0.522404 0.43
v -1.03564 -0.531723 0.43
v -1.02279 -0.535161 0.43
v 1.02374 -0.535161 0.43
v 1.03659 -0.531723 0.43
v 1.04591 -0.522404 0.43
v 1.04935 -0.509648 0.43
v 1.04935 0.502584 0.43
v 1.04591 0.51534 0.43
v 1.03659 0.524751 0.43
v 1.02374 0.528188 0.43
v -1.02279 0.532078 0.415252
v -1.03754 0.528188 0.415252
v -1.0484 0.517332 0.415252
v -1.05238 0.502584 0.415252
v -1.05238 -0.509648 0.415252
v -1.0484 -0.524394 0.415252
v -1.03754 -0.535161 0.415252
v -1.02279 -0.539142 0.415252
v 1.02374 -0.539142 0.415252
v 1.03858 -0.535161 0.415252
v 1.04935 -0.524394 0.415252
v 1.05333 -0.509648 0.415252
v 1.05333 0.502584 0.415252
v 1.04935 0.517332 0.415252
v 1.03858 0.528188 0.415252
v 1.02374 0.532078 0.415252
v -1.02279 0.532078 0.300169
v -1.03754 0.528188 0.300169
v -1.0484 0.517332 0.300169
v -1.05238 0.502584 0.300169
v -1.05238 -0.509648 0.300169
v -1.0484 -0.524394 0.300169
v -1.03754 -0.535161 0.300169
v -1.02279 -0.539142 0.300169
v 1.02374 -0.539142 0.300169
v 1.03858 -0.535161 0.300169
v 1.04935 -0.524394 0.300169
v 1.05333 -0.509648 0.300169
v 1.05333 0.502584 0.300169
v 1.04935 0.517332 0.300169
v 1.03858 0.528188 0.300169
v 1.02374 0.532078 0.300169
v -1.02279 0.528188 0.285331
v -1.03564 0.524751 0.285331
v -1.04496 0.51534 0.285331
v -1.0484 0.502584 0.285331
v -1.0484 -0.509648 0.285331
v -1.04496 -0.522404 0.285331
v -1.03564 -0.531723 0.285331
v -1.02279 -0.535161 0.285331
v 1.02374 -0.535161 0.285331
v 1.03659 -0.531723 0.285331
v 1.04591 -0.522404 0.285331
v 1.04935 -0.509648 0.285331
v 1.04935 0.502584 0.285331
v 1.04591 0.51534 0.285331
v 1.03659 0.524751 0.285331
v 1.02374 0.528188 0.285331
v -1.02279 0.517332 0.274564
v -1.03021 0.51534 0.274564
v -1.03564 0.509913 0.274564
v -1.03754 0.502584 0.274564
v -1.03754 -0.509648 0.274564
v -1.03564 -0.516975 0.274564
v -1.03021 -0.522404 0.274564
v -1.02279 -0.524394 0.274564
v 1.02374 -0.524394 0.274564
v 1.03116 -0.522404 0.274564
v 1.03659 -0.516975 0.274564
v 1.03858 -0.509648 0.274564
v 1.03858 0.502584 0.274564
v 1.03659 0.509913 0.274564
v 1.03116 0.51534 0.274564
v 1.02374 0.517332 0.274564
v -1.02279 0.502584 0.270583
v -1.02279 -0.509648 0.270583
v 1.02374 -0.509648 0.270583
v 1.02374 0.502584 0.270583
g LowBoardSheet
f 1 2 3 
f 1 3 4 
f 1 5 6 
f 1 6 7 
f 1 7 8 
f 1 8 9 
f 1 9 2 
f 2 9 10 
f 2 10 11 
f 2 11 12 
f 2 12 13 
f 2 13 3 
f 3 13 14 
f 3 14 15 
f 3 15 16 
f 3 16 17 
f 3 17 4 
f 4 17 18 
f 4 18 19 
f 4 19 20 
f 4 20 5 
f 4 5 1 
f 5 21 22 
f 5 22 6 
f 6 22 23 
f 6 23 7 
f 7 23 24 
f 7 24 8 
f 8 24 25 
f 8 25 9 
f 9 25 26 
f 9 26 10 
f 10 26 27 
f 10 27 11 
f 11 27 28 
f 11 28 12 
f 12 28 29 
f 12 29 13 
f 13 29 30 
f 13 30 14 
f 14 30 31 
f 14 31 15 
f 15 31 32 
f 15 32 16 
f 16 32 33 
f 16 33 17 
f 17 33 34 
f 17 34 18 
f 18 34 35 
f 18 35 19 
f 19 35 36 
f 19 36 20 
f 20 36 21 
f 20 21 5 
f 21 37 38 
f 21 38 22 
f 22 38 39 
f 22 39 23 
f 23 39 40 
f 23 40 24 
f 24 40 41 
f 24 41 25 
f 25 41 42 
f 25 42 26 
f 26 42 43 
f 26 43 27 
f 27 43 44 
f 27 44 28 
f 28 44 45 
f 28 45 29 
f 29 45 46 
f 29 46 30 
f 30 46 47 
f 30 47 31 
f 31 47 48 
f 31 48 32 
f 32 48 49 
f 32 49 33 
f 33 49 50 
f 33 50 34 
f 34 50 51 
f 34 51 35 
f 35 51 52 
f 35 52 36 
f 36 52 37 
f 36 37 21 
f 37 53 54 
f 37 54 38 
f 38 54 55 
f 38 55 39 
f 39 55 56 
f 39 56 40 
f 40 56 57 
f 40 57 41 
f 41 57 58 
f 41 58 42 
f 42 58 59 
f 42 59 43 
f 43 59 60 
f 43 60 44 
f 44 60 61 
f 44 61 45 
f 45 61 62 
f 45 62 46 
f 46 62 63 
f 46 63 47 
f 47 63 64 
f 47 64 48 
f 48 64 65 
f 48 65 49 
f 49 65 66 
f 49 66 50 
f 50 66 67 
f 50 67 51 
f 51 67 68 
f 51 68 52 
f 52 68 53 
f 52 53 37 
f 53 69 70 
f 53 70 54 
f 54 70 71 
f 54 71 55 
f 55 71 72 
f 55 72 56 
f 56 72 73 
f 56 73 57 
f 57 73 74 
f 57 74 58 
f 58 74 75 
f 58 75 59 
f 59 75 76 
f 59 76 60 
f 60 76 77 
f 60 77 61 
f 61 77 78 
f 61 78 62 
f 62 78 79 
f 62 79 63 
f 63 79 80 
f 63 80 64 
f 64 80 81 
f 64 81 65 
f 65 81 82 
f 65 82 66 
f 66 82 83 
f 66 83 67 
f 67 83 84 
f 67 84 68 
f 68 84 69 
f 68 69 53 
f 69 85 86 
f 69 86 70 
f 70 86 87 
f 70 87 71 
f 71 87 88 
f 71 88 72 
f 72 88 89 
f 72 89 73 
f 73 89 90 
f 73 90 74 
f 74 90 91 
f 74 91 75 
f 75 91 92 
f 75 92 76 
f 76 92 93 
f 76 93 77 
f 77 93 94 
f 77 94 78 
f 78 94 95 
f 78 95 79 
f 79 95 96 
f 79 96 80 
f 80 96 97 
f 80 97 81 
f 81 97 98 
f 81 98 82 
f 82 98 99 
f 82 99 83 
f 83 99 100 
f 83 100 84 
f 84 100 85 
f 84 85 69 
f 85 101 86 
f 86 101 87 
f 87 101 88 
f 88 101 102 
f 88 102 89 
f 89 102 90 
f 90 102 91 
f 91 102 92 
f 92 102 103 
f 92 103 93 
f 93 103 94 
f 94 103 95 
f 95 103 96 
f 96 103 104 
f 96 104 97 
f 97 104 98 
f 98 104 99 
f 99 104 100 
f 100 104 101 
f 100 101 85 
f 104 103 102 
f 104 102 101 
# End of mesh LowBoardSheet

# Starting mesh LeftFrontLeg
v -1.10332 -0.475448 -0.0602826
v -1.10332 -0.475448 2.00498
v -1.02189 -0.475448 2.00498
v -1.02189 -0.475448 -0.0602826
v -1.10332 -0.531542 -0.0602826
v -1.02189 -0.531542 -0.0602826
v -1.02189 -0.531542 2.00498
v -1.10332 -0.531542 2.00498
g LeftFrontLeg
f 105 106 107 
f 107 108 105 
f 109 110 111 
f 111 112 109 
f 105 108 110 
f 110 109 105 
f 108 107 111 
f 111 110 108 
f 107 106 112 
f 112 111 107 
f 106 105 109 
f 109 112 106 
# End of mesh LeftFrontLeg

# Starting mesh LeftBackLeg
v -1.10332 0.528459 -0.0602826
v -1.10332 0.528459 2.00498
v -1.02189 0.528459 2.00498
v -1.02189 0.528459 -0.0602826
v -1.10332 0.472365 -0.0602826
v -1.02189 0.472365 -0.0602826
v -1.02189 0.472365 2.00498
v -1.10332 0.472365 2.00498
g LeftBackLeg
f 113 114 115 
f 115 116 113 
f 117 118 119 
f 119 120 117 
f 113 116 118 
f 118 117 113 
f 116 115 119 
f 119 118 116 
f 115 114 120 
f 120 119 115 
f 114 113 117 
f 117 120 114 
# End of mesh LeftBackLeg

# Starting mesh RightFrontLeg
v 1.02266 -0.476533 -0.0602826
v 1.02266 -0.476533 2.00498
v 1.10408 -0.476533 2.00498
v 1.10408 -0.476533 -0.0602826
v 1.02266 -0.532627 -0.0602826
v 1.10408 -0.532627 -0.0602826
v 1.10408 -0.532627 2.00498
v 1.02266 -0.532627 2.00498
g RightFrontLeg
f 121 122 123 
f 123 124 121 
f 125 126 127 
f 127 128 125 
f 121 124 126 
f 126 125 121 
f 124 123 127 
f 127 126 124 
f 123 122 128 
f 128 127 123 
f 122 121 125 
f 125 128 122 
# End of mesh RightFrontLeg

# Starting mesh RightBackLeg
v 1.02266 0.528459 -0.0602826
v 1.02266 0.528459 2.00498
v 1.10408 0.528459 2.00498
v 1.10408 0.528459 -0.0602826
v 1.02266 0.472365 -0.0602826
v 1.10408 0.472365 -0.0602826
v 1.10408 0.472365 2.00498
v 1.02266 0.472365 2.00498
g RightBackLeg
f 129 130 131 
f 131 132 129 
f 133 134 135 
f 135 136 133 
f 129 132 134 
f 134 133 129 
f 132 131 135 
f 135 134 132 
f 131 130 136 
f 136 135 131 
f 130 129 133 
f 133 136 130 
# End of mesh RightBackLeg

# Starting mesh LowLeftUpBar
v -1.05193 0.512717 0.778146
v -1.05193 0.512717 0.859573
v -1.05193 -0.517246 0.859573
v -1.05193 -0.517246 0.778146
v -1.07237 0.512717 0.778146
v -1.07237 -0.517246 0.778146
v -1.07237 -0.517246 0.859573
v -1.07237 0.512717 0.859573
g LowLeftUpBar
f 137 138 139 
f 139 140 137 
f 141 142 143 
f 143 144 141 
f 137 140 142 
f 142 141 137 
f 140 139 143 
f 143 142 140 
f 139 138 144 
f 144 143 139 
f 138 137 141 
f 141 144 138 
# End of mesh LowLeftUpBar

# Starting mesh LowLeftDownBar
v -1.05175 0.512717 0.554583
v -1.05175 0.512717 0.636011
v -1.05175 -0.517246 0.636011
v -1.05175 -0.517246 0.554583
v -1.07228 0.512717 0.554583
v -1.07228 -0.517246 0.554583
v -1.07228 -0.517246 0.636011
v -1.07228 0.512717 0.636011
g LowLeftDownBar
f 145 146 147 
f 147 148 145 
f 149 150 151 
f 151 152 149 
f 145 148 150 
f 150 149 145 
f 148 147 151 
f 151 150 148 
f 147 146 152 
f 152 151 147 
f 146 145 149 
f 149 152 146 
# End of mesh LowLeftDownBar

# Starting mesh LowRightUpBar
v 1.07179 0.514255 0.778146
v 1.07179 0.514255 0.859573
v 1.07179 -0.5158 0.859573
v 1.07179 -0.5158 0.778146
v 1.05125 0.514255 0.778146
v 1.05125 -0.5158 0.778146
v 1.05125 -0.5158 0.859573
v 1.05125 0.514255 0.859573
g LowRightUpBar
f 153 154 155 
f 155 156 153 
f 157 158 159 
f 159 160 157 
f 153 156 158 
f 158 157 153 
f 156 155 159 
f 159 158 156 
f 155 154 160 
f 160 159 155 
f 154 153 157 
f 157 160 154 
# End of mesh LowRightUpBar

# Starting mesh UpRightDownBar
v 1.07179 0.512717 1.58599
v 1.07179 0.512717 1.66751
v 1.07179 -0.517246 1.66751
v 1.07179 -0.517246 1.58599
v 1.05125 0.512717 1.58599
v 1.05125 -0.517246 1.58599
v 1.05125 -0.517246 1.66751
v 1.05125 0.512717 1.66751
g UpRightDownBar
f 161 162 163 
f 163 164 161 
f 165 166 167 
f 167 168 165 
f 161 164 166 
f 166 165 161 
f 164 163 167 
f 167 166 164 
f 163 162 168 
f 168 167 163 
f 162 161 165 
f 165 168 162 
# End of mesh UpRightDownBar

# Starting mesh UpBoardSheet
v -1.01764 0.502584 1.47914
v -1.01764 -0.509648 1.47914
v 1.0289 -0.509648 1.47914
v 1.0289 0.502584 1.47914
v -1.01764 0.517332 1.47516
v -1.02506 0.51534 1.47516
v -1.03048 0.509913 1.47516
v -1.03238 0.502584 1.47516
v -1.03238 -0.509648 1.47516
v -1.03048 -0.516975 1.47516
v -1.02506 -0.522404 1.47516
v -1.01764 -0.524394 1.47516
v 1.0289 -0.524394 1.47516
v 1.03632 -0.522404 1.47516
v 1.04175 -0.516975 1.47516
v 1.04374 -0.509648 1.47516
v 1.04374 0.502584 1.47516
v 1.04175 0.509913 1.47516
v 1.03632 0.51534 1.47516
v 1.0289 0.517332 1.47516
v -1.01764 0.528188 1.4644
v -1.03048 0.524751 1.4644
v -1.0398 0.51534 1.4644
v -1.04324 0.502584 1.4644
v -1.04324 -0.509648 1.4644
v -1.0398 -0.522404 1.4644
v -1.03048 -0.531723 1.4644
v -1.01764 -0.535161 1.4644
v 1.0289 -0.535161 1.4644
v 1.04175 -0.531723 1.4644
v 1.05107 -0.522404 1.4644
v 1.05451 -0.509648 1.4644
v 1.05451 0.502584 1.4644
v 1.05107 0.51534 1.4644
v 1.04175 0.524751 1.4644
v 1.0289 0.528188 1.4644
v -1.01764 0.532078 1.44965
v -1.03238 0.528188 1.44965
v -1.04324 0.517332 1.44965
v -1.04722 0.502584 1.44965
v -1.04722 -0.509648 1.44965
v -1.04324 -0.524394 1.44965
v -1.03238 -0.535161 1.44965
v -1.01764 -0.539142 1.44965
v 1.0289 -0.539142 1.44965
v 1.04374 -0.535161 1.44965
v 1.05451 -0.524394 1.44965
v 1.05849 -0.509648 1.44965
v 1.05849 0.502584 1.44965
v 1.05451 0.517332 1.44965
v 1.04374 0.528188 1.44965
v 1.0289 0.532078 1.44965
v -1.01764 0.532078 1.33457
v -1.03238 0.528188 1.33457
v -1.04324 0.517332 1.33457
v -1.04722 0.502584 1.33457
v -1.04722 -0.509648 1.33457
v -1.04324 -0.524394 1.33457
v -1.03238 -0.535161 1.33457
v -1.01764 -0.539142 1.33457
v 1.0289 -0.539142 1.33457
v 1.04374 -0.535161 1.33457
v 1.05451 -0.524394 1.33457
v 1.05849 -0.509648 1.33457
v 1.05849 0.502584 1.33457
v 1.05451 0.517332 1.33457
v 1.04374 0.528188 1.33457
v 1.0289 0.532078 1.33457
v -1.01764 0.528188 1.31973
v -1.03048 0.524751 1.31973
v -1.0398 0.51534 1.31973
v -1.04324 0.502584 1.31973
v -1.04324 -0.509648 1.31973
v -1.0398 -0.522404 1.31973
v -1.03048 -0.531723 1.31973
v -1.01764 -0.535161 1.31973
v 1.0289 -0.535161 1.31973
v 1.04175 -0.531723 1.31973
v 1.05107 -0.522404 1.31973
v 1.05451 -0.509648 1.31973
v 1.05451 0.502584 1.31973
v 1.05107 0.51534 1.31973
v 1.04175 0.524751 1.31973
v 1.0289 0.528188 1.31973
v -1.01764 0.517332 1.30896
v -1.02506 0.51534 1.30896
v -1.03048 0.509913 1.30896
v -1.03238 0.502584 1.30896
v -1.03238 -0.509648 1.30896
v -1.03048 -0.516975 1.30896
v -1.02506 -0.522404 1.30896
v -1.01764 -0.524394 1.30896
v 1.0289 -0.524394 1.30896
v 1.03632 -0.522404 1.30896
v 1.04175 -0.516975 1.30896
v 1.04374 -0.509648 1.30896
v 1.04374 0.502584 1.30896
v 1.04175 0.509913 1.30896
v 1.03632 0.51534 1.30896
v 1.0289 0.517332 1.30896
v -1.01764 0.502584 1.30498
v -1.01764 -0.509648 1.30498
v 1.0289 -0.509648 1.30498
v 1.0289 0.502584 1.30498
g UpBoardSheet
f 169 170 171 
f 169 171 172 
f 169 173 174 
f 169 174 175 
f 169 175 176 
f 169 176 177 
f 169 177 170 
f 170 177 178 
f 170 178 179 
f 170 179 180 
f 170 180 181 
f 170 181 171 
f 171 181 182 
f 171 182 183 
f 171 183 184 
f 171 184 185 
f 171 185 172 
f 172 185 186 
f 172 186 187 
f 172 187 188 
f 172 188 173 
f 172 173 169 
f 173 189 190 
f 173 190 174 
f 174 190 191 
f 174 191 175 
f 175 191 192 
f 175 192 176 
f 176 192 193 
f 176 193 177 
f 177 193 194 
f 177 194 178 
f 178 194 195 
f 178 195 179 
f 179 195 196 
f 179 196 180 
f 180 196 197 
f 180 197 181 
f 181 197 198 
f 181 198 182 
f 182 198 199 
f 182 199 183 
f 183 199 200 
f 183 200 184 
f 184 200 201 
f 184 201 185 
f 185 201 202 
f 185 202 186 
f 186 202 203 
f 186 203 187 
f 187 203 204 
f 187 204 188 
f 188 204 189 
f 188 189 173 
f 189 205 206 
f 189 206 190 
f 190 206 207 
f 190 207 191 
f 191 207 208 
f 191 208 192 
f 192 208 209 
f 192 209 193 
f 193 209 210 
f 193 210 194 
f 194 210 211 
f 194 211 195 
f 195 211 212 
f 195 212 196 
f 196 212 213 
f 196 213 197 
f 197 213 214 
f 197 214 198 
f 198 214 215 
f 198 215 199 
f 199 215 216 
f 199 216 200 
f 200 216 217 
f 200 217 201 
f 201 217 218 
f 201 218 202 
f 202 218 219 
f 202 219 203 
f 203 219 220 
f 203 220 204 
f 204 220 205 
f 204 205 189 
f 205 221 222 
f 205 222 206 
f 206 222 223 
f 206 223 207 
f 207 223 224 
f 207 224 208 
f 208 224 225 
f 208 225 209 
f 209 225 226 
f 209 226 210 
f 210 226 227 
f 210 227 211 
f 211 227 228 
f 211 228 212 
f 212 228 229 
f 212 229 213 
f 213 229 230 
f 213 230 214 
f 214 230 231 
f 214 231 215 
f 215 231 232 
f 215 232 216 
f 216 232 233 
f 216 233 217 
f 217 233 234 
f 217 234 218 
f 218 234 235 
f 218 235 219 
f 219 235 236 
f 219 236 220 
f 220 236 221 
f 220 221 205 
f 221 237 238 
f 221 238 222 
f 222 238 239 
f 222 239 223 
f 223 239 240 
f 223 240 224 
f 224 240 241 
f 224 241 225 
f 225 241 242 
f 225 242 226 
f 226 242 243 
f 226 243 227 
f 227 243 244 
f 227 244 228 
f 228 244 245 
f 228 245 229 
f 229 245 246 
f 229 246 230 
f 230 246 247 
f 230 247 231 
f 231 247 248 
f 231 248 232 
f 232 248 249 
f 232 249 233 
f 233 249 250 
f 233 250 234 
f 234 250 251 
f 234 251 235 
f 235 251 252 
f 235 252 236 
f 236 252 237 
f 236 237 221 
f 237 253 254 
f 237 254 238 
f 238 254 255 
f 238 255 239 
f 239 255 256 
f 239 256 240 
f 240 256 257 
f 240 257 241 
f 241 257 258 
f 241 258 242 
f 242 258 259 
f 242 259 243 
f 243 259 260 
f 243 260 244 
f 244 260 261 
f 244 261 245 
f 245 261 262 
f 245 262 246 
f 246 262 263 
f 246 263 247 
f 247 263 264 
f 247 264 248 
f 248 264 265 
f 248 265 249 
f 249 265 266 
f 249 266 250 
f 250 266 267 
f 250 267 251 
f 251 267 268 
f 251 268 252 
f 252 268 253 
f 252 253 237 
f 253 269 254 
f 254 269 255 
f 255 269 256 
f 256 269 270 
f 256 270 257 
f 257 270 258 
f 258 270 259 
f 259 270 260 
f 260 270 271 
f 260 271 261 
f 261 271 262 
f 262 271 263 
f 263 271 264 
f 264 271 272 
f 264 272 265 
f 265 272 266 
f 266 272 267 
f 267 272 268 
f 268 272 269 
f 268 269 253 
f 272 271 270 
f 272 270 269 
# End of mesh UpBoardSheet

# Starting mesh UpLeftUpBar
v -1.05193 0.512717 1.80956
v -1.05193 0.512717 1.89098
v -1.05193 -0.517246 1.89098
v -1.05193 -0.517246 1.80956
v -1.07237 0.512717 1.80956
v -1.07237 -0.517246 1.80956
v -1.07237 -0.517246 1.89098
v -1.07237 0.512717 1.89098
g UpLeftUpBar
f 273 274 275 
f 275 276 273 
f 277 278 279 
f 279 280 277 
f 273 276 278 
f 278 277 273 
f 276 275 279 
f 279 278 276 
f 275 274 280 
f 280 279 275 
f 274 273 277 
f 277 280 274 
# End of mesh UpLeftUpBar

# Starting mesh UpLeftDownBar
v -1.05175 0.512717 1.58599
v -1.05175 0.512717 1.66751
v -1.05175 -0.517246 1.66751
v -1.05175 -0.517246 1.58599
v -1.07228 0.512717 1.58599
v -1.07228 -0.517246 1.58599
v -1.07228 -0.517246 1.66751
v -1.07228 0.512717 1.66751
g UpLeftDownBar
f 281 282 283 
f 283 284 281 
f 285 286 287 
f 287 288 285 
f 281 284 286 
f 286 285 281 
f 284 283 287 
f 287 286 284 
f 283 282 288 
f 288 287 283 
f 282 281 285 
f 285 288 282 
# End of mesh UpLeftDownBar

# Starting mesh UpRightUpBar
v 1.07161 0.512717 1.80956
v 1.07161 0.512717 1.89098
v 1.07161 -0.517246 1.89098
v 1.07161 -0.517246 1.80956
v 1.05116 0.512717 1.80956
v 1.05116 -0.517246 1.80956
v 1.05116 -0.517246 1.89098
v 1.05116 0.512717 1.89098
g UpRightUpBar
f 289 290 291 
f 291 292 289 
f 293 294 295 
f 295 296 293 
f 289 292 294 
f 294 293 289 
f 292 291 295 
f 295 294 292 
f 291 290 296 
f 296 295 291 
f 290 289 293 
f 293 296 290 
# End of mesh UpRightUpBar

# Starting mesh LowRightDownBar
v 1.07188 0.514255 0.554583
v 1.07188 0.514255 0.636011
v 1.07188 -0.5158 0.636011
v 1.07188 -0.5158 0.554583
v 1.05143 0.514255 0.554583
v 1.05143 -0.5158 0.554583
v 1.05143 -0.5158 0.636011
v 1.05143 0.514255 0.636011
g LowRightDownBar
f 297 298 299 
f 299 300 297 
f 301 302 303 
f 303 304 301 
f 297 300 302 
f 302 301 297 
f 300 299 303 
f 303 302 300 
f 299 298 304 
f 304 303 299 
f 298 297 301 
f 301 304 298 
# End of mesh LowRightDownBar

