# NV = 8 NF = 12
v -19.3031 6 19.9473
v -19.7729 6 19.7763
v -23.4073 6 31.2237
v -23.8772 6 31.0527
v -19.3031 -6 19.9473
v -19.7729 -6 19.7763
v -23.4073 -6 31.2237
v -23.8772 -6 31.0526
f 4 3 1 
f 1 2 4 
f 8 6 5 
f 5 7 8 
f 6 2 1 
f 1 5 6 
f 8 4 2 
f 2 6 8 
f 7 3 4 
f 4 8 7 
f 5 1 3 
f 3 7 5 
