# NV = 8 NF = 12
v -8.7954 2.9832 48.9273
v -8.7954 18.9832 48.9273
v 10.2046 2.9832 49.9273
v 10.2046 18.9832 49.9273
v -8.7954 2.9832 49.9273
v -8.7954 18.9832 49.9273
v 10.2046 2.9832 48.9273
v 10.2046 18.9832 48.9273
f 7 1 2 
f 2 8 7 
f 3 4 6 
f 6 5 3 
f 7 8 4 
f 4 3 7 
f 8 2 6 
f 6 4 8 
f 2 1 5 
f 5 6 2 
f 1 7 3 
f 3 5 1 
