# NV = 20 NF = 36
v -0.213138 0.275159 1.13895
v -0.249411 0.174199 0.491025
v -0.249411 0.210472 0.491025
v -0.213138 0.174199 0.491025
v -0.213138 0.210472 0.491025
v -0.213138 0.229361 1.04419
v -0.247985 0.238042 1.13122
v -0.249411 0.237329 1.12408
v -0.213138 0.239188 1.14273
v -0.243922 0.238644 1.13727
v -0.230671 0.239188 1.14273
v -0.237841 0.239046 1.14131
v -0.249411 0.229361 1.04419
v -0.249411 0.273297 1.12031
v -0.249411 0.265698 1.04419
v -0.243922 0.274615 1.13349
v -0.237841 0.275017 1.13753
v -0.230671 0.275159 1.13895
v -0.247985 0.274011 1.12744
v -0.213138 0.265698 1.04419
f 2 3 4 
f 5 4 3 
f 6 7 8 
f 9 7 6 
f 10 7 9 
f 11 10 9 
f 12 10 11 
f 13 6 8 
f 8 14 13 
f 15 13 14 
f 16 17 18 
f 15 16 18 
f 19 16 15 
f 14 19 15 
f 20 15 18 
f 1 20 18 
f 18 11 1 
f 9 1 11 
f 8 7 14 
f 19 14 7 
f 7 10 19 
f 16 19 10 
f 10 12 16 
f 17 16 12 
f 12 11 17 
f 18 17 11 
f 4 5 6 
f 20 6 5 
f 9 6 1 
f 20 1 6 
f 13 2 6 
f 4 6 2 
f 2 13 3 
f 15 3 13 
f 15 20 3 
f 5 3 20 
