# NV = 8 NF = 12
v 0.255388 0.308712 -0.0167974
v 0.219115 0.174199 0.491025
v 0.255388 0.174199 0.491025
v 0.219115 0.210472 0.491025
v 0.255388 0.210472 0.491025
v 0.219115 0.308712 -0.0167974
v 0.219115 0.344985 -0.0167974
v 0.255388 0.344985 -0.0167974
f 2 3 4 
f 5 4 3 
f 2 4 6 
f 7 6 4 
f 8 1 7 
f 6 7 1 
f 1 3 6 
f 2 6 3 
f 5 8 4 
f 7 4 8 
f 3 1 5 
f 8 5 1 
