# NV = 104 NF = 204
v 0.984559 0.776003 0.355184
v 0.988137 0.762659 0.355184
v 0.988137 -0.764018 0.355184
v 0.984559 -0.777362 0.355184
v 0.974793 -0.787132 0.355184
v 0.961445 -0.79071 0.355184
v -0.960246 -0.79071 0.355184
v -0.97359 -0.787132 0.355184
v -0.983361 -0.777362 0.355184
v -0.983361 -0.764018 0.368528
v -0.983361 0.762659 0.368528
v -0.980263 0.774217 0.368528
v -0.971802 0.782676 0.368528
v -0.960246 0.785773 0.368528
v 0.961445 0.785773 0.368528
v 0.973003 0.782676 0.368528
v 0.981464 0.774217 0.368528
v 0.984559 0.762659 0.368528
v 0.984559 -0.764018 0.368528
v 0.981464 -0.775574 0.368528
v 0.973003 -0.784035 0.368528
v 0.961445 -0.787132 0.368528
v -0.960246 -0.787132 0.368528
v -0.971802 -0.784035 0.368528
v -0.980263 -0.775574 0.368528
v -0.97359 -0.764018 0.378298
v -0.97359 0.762659 0.378298
v -0.971802 0.769332 0.378298
v -0.966917 0.774217 0.378298
v -0.960246 0.776003 0.378298
v 0.961445 0.776003 0.378298
v 0.968118 0.774217 0.378298
v 0.973003 0.769332 0.378298
v 0.974793 0.762659 0.378298
v 0.974793 -0.764018 0.378298
v 0.973003 -0.770691 0.378298
v 0.968118 -0.775574 0.378298
v 0.961445 -0.777362 0.378298
v -0.960246 -0.777362 0.378298
v -0.966917 -0.775574 0.378298
v -0.971802 -0.770691 0.378298
v -0.960246 -0.764018 0.381876
v -0.960246 0.762659 0.381876
v 0.961445 0.762659 0.381876
v 0.961445 -0.764018 0.381876
v 0.961445 -0.764018 0.134991
v -0.960246 -0.764018 0.134991
v -0.960246 0.762659 0.134991
v 0.961445 0.762659 0.134991
v -0.97359 -0.764018 0.138566
v -0.97359 0.762659 0.138566
v -0.971802 0.769332 0.138566
v -0.966917 0.774217 0.138566
v -0.960246 0.776003 0.138566
v 0.961445 0.776003 0.138566
v 0.968118 0.774217 0.138566
v 0.973003 0.769332 0.138566
v 0.974793 0.762659 0.138566
v 0.974793 -0.764018 0.138566
v 0.973003 -0.770691 0.138566
v 0.968118 -0.775574 0.138566
v 0.961445 -0.777362 0.138566
v -0.960246 -0.777362 0.138566
v -0.966917 -0.775574 0.138566
v -0.971802 -0.770691 0.138566
v -0.983361 -0.764018 0.148336
v -0.983361 0.762659 0.148336
v -0.980263 0.774217 0.148336
v -0.971802 0.782676 0.148336
v -0.960246 0.785773 0.148336
v 0.961445 0.785773 0.148336
v 0.973003 0.782676 0.148336
v 0.981464 0.774217 0.148336
v 0.984559 0.762659 0.148336
v 0.984559 -0.764018 0.148336
v 0.981464 -0.775574 0.148336
v 0.973003 -0.784035 0.148336
v 0.961445 -0.787132 0.148336
v -0.960246 -0.787132 0.148336
v -0.971802 -0.784035 0.148336
v -0.980263 -0.775574 0.148336
v -0.986938 -0.764018 0.161683
v -0.986938 0.762659 0.161683
v -0.983361 0.776003 0.161683
v -0.97359 0.785773 0.161683
v -0.960246 0.789351 0.161683
v 0.961445 0.789351 0.161683
v 0.974793 0.785773 0.161683
v 0.984559 0.776003 0.161683
v 0.988137 0.762659 0.161683
v 0.988137 -0.764018 0.161683
v 0.984559 -0.777362 0.161683
v 0.974793 -0.787132 0.161683
v 0.961445 -0.79071 0.161683
v -0.960246 -0.79071 0.161683
v -0.97359 -0.787132 0.161683
v -0.983361 -0.777362 0.161683
v -0.986938 -0.764018 0.355184
v -0.986938 0.762659 0.355184
v -0.983361 0.776003 0.355184
v -0.97359 0.785773 0.355184
v -0.960246 0.789351 0.355184
v 0.961445 0.789351 0.355184
v 0.974793 0.785773 0.355184
f 46 47 48 
f 49 46 48 
f 47 50 51 
f 48 47 51 
f 48 51 52 
f 48 52 53 
f 48 53 54 
f 48 54 55 
f 49 48 55 
f 49 55 56 
f 49 56 57 
f 49 57 58 
f 49 58 59 
f 46 49 59 
f 46 59 60 
f 46 60 61 
f 46 61 62 
f 46 62 63 
f 47 46 63 
f 47 63 64 
f 47 64 65 
f 47 65 50 
f 50 66 67 
f 51 50 67 
f 51 67 68 
f 52 51 68 
f 52 68 69 
f 53 52 69 
f 53 69 70 
f 54 53 70 
f 54 70 71 
f 55 54 71 
f 55 71 72 
f 56 55 72 
f 56 72 73 
f 57 56 73 
f 57 73 74 
f 58 57 74 
f 58 74 75 
f 59 58 75 
f 59 75 76 
f 60 59 76 
f 60 76 77 
f 61 60 77 
f 61 77 78 
f 62 61 78 
f 62 78 79 
f 63 62 79 
f 63 79 80 
f 64 63 80 
f 64 80 81 
f 65 64 81 
f 65 81 66 
f 50 65 66 
f 66 82 83 
f 67 66 83 
f 67 83 84 
f 68 67 84 
f 68 84 85 
f 69 68 85 
f 69 85 86 
f 70 69 86 
f 70 86 87 
f 71 70 87 
f 71 87 88 
f 72 71 88 
f 72 88 89 
f 73 72 89 
f 73 89 90 
f 74 73 90 
f 74 90 91 
f 75 74 91 
f 75 91 92 
f 76 75 92 
f 76 92 93 
f 77 76 93 
f 77 93 94 
f 78 77 94 
f 78 94 95 
f 79 78 95 
f 79 95 96 
f 80 79 96 
f 80 96 97 
f 81 80 97 
f 81 97 82 
f 66 81 82 
f 82 98 99 
f 83 82 99 
f 83 99 100 
f 84 83 100 
f 84 100 101 
f 85 84 101 
f 85 101 102 
f 86 85 102 
f 86 102 103 
f 87 86 103 
f 87 103 104 
f 88 87 104 
f 88 104 1 
f 89 88 1 
f 89 1 2 
f 90 89 2 
f 90 2 3 
f 91 90 3 
f 91 3 4 
f 92 91 4 
f 92 4 5 
f 93 92 5 
f 93 5 6 
f 94 93 6 
f 94 6 7 
f 95 94 7 
f 95 7 8 
f 96 95 8 
f 96 8 9 
f 97 96 9 
f 97 9 98 
f 82 97 98 
f 98 10 11 
f 99 98 11 
f 99 11 12 
f 100 99 12 
f 100 12 13 
f 101 100 13 
f 101 13 14 
f 102 101 14 
f 102 14 15 
f 103 102 15 
f 103 15 16 
f 104 103 16 
f 104 16 17 
f 1 104 17 
f 1 17 18 
f 2 1 18 
f 2 18 19 
f 3 2 19 
f 3 19 20 
f 4 3 20 
f 4 20 21 
f 5 4 21 
f 5 21 22 
f 6 5 22 
f 6 22 23 
f 7 6 23 
f 7 23 24 
f 8 7 24 
f 8 24 25 
f 9 8 25 
f 9 25 10 
f 98 9 10 
f 10 26 27 
f 11 10 27 
f 11 27 28 
f 12 11 28 
f 12 28 29 
f 13 12 29 
f 13 29 30 
f 14 13 30 
f 14 30 31 
f 15 14 31 
f 15 31 32 
f 16 15 32 
f 16 32 33 
f 17 16 33 
f 17 33 34 
f 18 17 34 
f 18 34 35 
f 19 18 35 
f 19 35 36 
f 20 19 36 
f 20 36 37 
f 21 20 37 
f 21 37 38 
f 22 21 38 
f 22 38 39 
f 23 22 39 
f 23 39 40 
f 24 23 40 
f 24 40 41 
f 25 24 41 
f 25 41 26 
f 10 25 26 
f 26 42 43 
f 27 26 43 
f 28 27 43 
f 29 28 43 
f 30 29 43 
f 30 43 44 
f 31 30 44 
f 32 31 44 
f 33 32 44 
f 34 33 44 
f 34 44 45 
f 35 34 45 
f 36 35 45 
f 37 36 45 
f 38 37 45 
f 38 45 42 
f 39 38 42 
f 40 39 42 
f 41 40 42 
f 26 41 42 
f 44 43 42 
f 45 44 42 
