# NV = 161 NF = 318
v 1.03688 0.80656 -0.062972
v 1.03688 0.810849 2.1032
v 1.03505 0.801535 2.10322
v 1.03395 0.798504 -0.062972
v 1.02983 0.793591 2.10327
v 1.02844 0.791936 -0.062972
v 1.02195 0.788191 2.10335
v 1.02101 0.787649 -0.062972
v 1.00412 0.787649 -0.062972
v 1.01257 0.786159 -0.062972
v 0.9967 0.791936 -0.062972
v 0.991187 0.798504 -0.062972
v 0.995309 0.793589 2.10327
v 0.988254 0.80656 -0.062972
v 0.990085 0.801535 2.10322
v 0.988254 0.810849 2.1032
v 0.988254 0.815136 -0.062972
v 0.991187 0.823192 -0.062972
v 0.995309 0.828107 2.10327
v 0.9967 0.82976 -0.062972
v 1.00318 0.833504 2.10335
v 1.00412 0.834049 -0.062972
v 0.996775 0.848979 2.12336
v 1.01257 0.852119 2.12336
v 1.04175 0.781664 2.12336
v 0.974439 0.795055 2.12336
v 0.971299 0.810849 2.12336
v 0.980979 0.842435 2.14117
v 0.995474 0.852119 2.14117
v 0.996775 0.848979 2.15898
v 0.990233 0.833183 2.17407
v 1.00048 0.840032 2.17407
v 1.01257 0.852119 2.15898
v 1.00048 0.822937 2.18417
v 1.00602 0.826641 2.18417
v 1.01257 0.842435 2.17407
v 1.01257 0.810849 2.1877
v 1.01257 0.827944 2.18417
v 1.02466 0.840032 2.17407
v 1.01911 0.826641 2.18417
v 1.0349 0.833183 2.17407
v 1.02466 0.822937 2.18417
v 1.02836 0.817391 2.18417
v 1.02966 0.810849 2.18417
v 1.02836 0.804304 2.18417
v 1.0349 0.788513 2.17407
v 1.02466 0.798759 2.18417
v 1.02466 0.781664 2.17407
v 1.01911 0.795055 2.18417
v 1.00602 0.795055 2.18417
v 1.00048 0.798759 2.18417
v 0.983386 0.798759 2.17407
v 0.996775 0.804304 2.18417
v 0.995474 0.810849 2.18417
v 0.971299 0.810849 2.15898
v 0.967897 0.810849 2.14117
v 0.974439 0.795055 2.15898
v 0.971299 0.793751 2.14117
v 1.04175 0.781664 2.15898
v 1.05724 0.810849 2.14117
v 1.05384 0.827944 2.14117
v 1.04416 0.842435 2.14117
v 1.02836 0.848979 2.15898
v 0.980979 0.779261 2.14117
v 1.00048 0.840032 2.10826
v 1.00611 0.834398 2.10356
v 1.00412 0.834049 2.10359
v 0.983386 0.840032 2.12336
v 0.974439 0.826641 2.12336
v 0.971299 0.827944 2.14117
v 0.974439 0.826641 2.15898
v 0.983386 0.840032 2.15898
v 1.04175 0.840032 2.12336
v 1.0507 0.826641 2.12336
v 1.04175 0.822937 2.10826
v 1.05384 0.810849 2.12336
v 1.04416 0.810849 2.10826
v 1.0507 0.795055 2.12336
v 1.04175 0.798759 2.10826
v 0.996775 0.772721 2.12336
v 0.983386 0.781664 2.12336
v 0.990233 0.788513 2.10826
v 0.995474 0.769576 2.14117
v 0.996775 0.772721 2.15898
v 0.983386 0.781664 2.15898
v 1.01257 0.766179 2.14117
v 1.01257 0.769576 2.15898
v 1.01257 0.769576 2.12336
v 1.02966 0.769576 2.14117
v 1.02836 0.772721 2.15898
v 1.02836 0.772721 2.12336
v 1.04416 0.779261 2.14117
v 1.05384 0.793751 2.14117
v 1.0507 0.795055 2.15898
v 1.01257 0.855519 2.14117
v 1.02966 0.852119 2.14117
v 1.02836 0.848979 2.12336
v 1.04175 0.822937 2.17407
v 1.0507 0.826641 2.15898
v 1.04175 0.840032 2.15898
v 1.04416 0.810849 2.17407
v 1.05384 0.810849 2.15898
v 1.04175 0.798759 2.17407
v 1.00048 0.781664 2.17407
v 1.01257 0.779261 2.17407
v 1.01257 0.793751 2.18417
v 0.990233 0.788513 2.17407
v 0.996775 0.817391 2.18417
v 0.983386 0.822937 2.17407
v 0.980979 0.810849 2.17407
v 0.99745 0.830193 2.10365
v 0.990233 0.833183 2.10826
v 0.9967 0.82976 2.10369
v 0.991187 0.823192 2.10376
v 0.991093 0.822937 2.10371
v 0.983386 0.822937 2.10826
v 0.980979 0.810849 2.10826
v 0.990085 0.820161 2.10322
v 0.988254 0.815136 2.10379
v 0.988254 0.80656 2.10379
v 0.989037 0.804412 2.10355
v 0.983386 0.798759 2.10826
v 0.991187 0.798504 2.10376
v 0.993318 0.795964 2.1035
v 0.9967 0.791936 2.10369
v 1.00048 0.789752 2.10349
v 1.00048 0.781664 2.10826
v 1.00412 0.787649 2.10359
v 1.01257 0.786159 2.10346
v 1.01257 0.779261 2.10826
v 1.00318 0.788191 2.10335
v 1.01902 0.787297 2.10356
v 1.02466 0.781664 2.10827
v 1.02101 0.787649 2.1036
v 1.02769 0.791503 2.10365
v 1.0349 0.788513 2.10826
v 1.02844 0.791936 2.10369
v 1.03395 0.798504 2.10376
v 1.03404 0.798759 2.10372
v 1.03688 0.80656 2.10379
v 1.03688 0.807835 2.10362
v 1.03688 0.815136 2.10379
v 1.0361 0.817284 2.10355
v 1.03395 0.823192 2.10376
v 1.03182 0.825734 2.1035
v 1.0349 0.833183 2.10826
v 1.02844 0.82976 2.1037
v 1.02466 0.831944 2.10349
v 1.02466 0.840032 2.10827
v 1.02101 0.834049 2.1036
v 1.01565 0.834992 2.10351
v 1.01257 0.842435 2.10826
v 1.02101 0.834049 -0.062972
v 1.01257 0.835537 -0.062972
v 1.01257 0.835537 2.10346
v 1.02844 0.82976 -0.062972
v 1.02195 0.833504 2.10335
v 1.03395 0.823192 -0.062972
v 1.02983 0.828107 2.10327
v 1.03688 0.815136 -0.062972
v 1.03505 0.820161 2.10322
f 65 66 67 
f 68 69 70 
f 70 71 72 
f 73 74 75 
f 74 76 77 
f 78 79 77 
f 80 81 82 
f 83 84 85 
f 81 80 83 
f 86 87 84 
f 80 88 86 
f 86 89 90 
f 91 89 86 
f 92 93 94 
f 78 93 92 
f 95 96 97 
f 98 99 100 
f 101 102 99 
f 101 103 94 
f 104 105 106 
f 107 85 84 
f 108 109 110 
f 111 112 65 
f 112 111 113 
f 114 115 112 
f 115 116 112 
f 117 118 119 
f 117 116 118 
f 120 121 117 
f 121 122 117 
f 123 124 122 
f 124 82 122 
f 125 126 82 
f 126 127 82 
f 128 129 130 
f 127 131 128 
f 132 133 130 
f 133 132 134 
f 135 136 133 
f 136 135 137 
f 138 139 136 
f 139 79 136 
f 140 141 79 
f 141 77 79 
f 142 143 77 
f 143 75 77 
f 144 145 75 
f 145 146 75 
f 147 148 146 
f 148 149 146 
f 150 151 149 
f 151 152 149 
f 66 65 152 
f 153 154 155 
f 151 150 153 
f 156 153 157 
f 148 147 156 
f 153 150 157 
f 158 156 159 
f 145 144 158 
f 156 147 159 
f 160 158 161 
f 143 142 160 
f 158 144 161 
f 1 160 2 
f 141 140 1 
f 160 142 2 
f 3 4 1 
f 3 139 4 
f 139 138 4 
f 5 6 4 
f 5 137 6 
f 6 135 7 
f 6 137 135 
f 7 134 8 
f 8 132 129 
f 8 134 132 
f 9 10 129 
f 11 9 131 
f 126 125 11 
f 9 128 131 
f 12 11 13 
f 124 123 12 
f 11 125 13 
f 14 12 15 
f 121 120 14 
f 12 123 15 
f 16 17 14 
f 16 119 17 
f 118 18 17 
f 118 115 18 
f 115 114 18 
f 19 20 18 
f 19 113 20 
f 20 111 21 
f 20 113 111 
f 21 67 22 
f 22 66 155 
f 22 67 66 
f 154 18 20 
f 154 17 18 
f 154 14 17 
f 154 12 14 
f 154 153 12 
f 153 156 12 
f 156 158 12 
f 158 160 12 
f 160 11 12 
f 160 9 11 
f 160 10 9 
f 160 8 10 
f 160 1 8 
f 1 4 8 
f 4 6 8 
f 67 21 65 
f 65 23 152 
f 152 24 149 
f 149 97 146 
f 79 78 136 
f 136 25 133 
f 133 91 130 
f 130 88 127 
f 82 81 122 
f 122 26 117 
f 117 27 116 
f 116 69 112 
f 112 69 68 
f 70 28 68 
f 152 23 24 
f 23 29 24 
f 29 30 95 
f 72 109 31 
f 30 32 33 
f 31 108 34 
f 32 35 36 
f 108 37 34 
f 36 35 38 
f 39 38 40 
f 41 40 42 
f 98 42 43 
f 101 43 44 
f 103 44 45 
f 46 45 47 
f 48 47 49 
f 105 49 106 
f 107 50 51 
f 52 51 53 
f 110 53 54 
f 109 108 31 
f 71 109 72 
f 72 28 70 
f 70 55 71 
f 56 57 55 
f 58 85 57 
f 89 59 90 
f 93 102 94 
f 60 99 102 
f 61 100 99 
f 62 63 100 
f 96 63 62 
f 146 97 73 
f 75 146 73 
f 77 75 74 
f 77 76 78 
f 136 78 25 
f 133 25 91 
f 130 91 88 
f 127 88 80 
f 82 127 80 
f 122 81 26 
f 117 26 27 
f 116 27 69 
f 56 55 70 
f 69 56 70 
f 27 56 69 
f 58 57 56 
f 27 58 56 
f 26 58 27 
f 64 85 58 
f 26 64 58 
f 81 64 26 
f 85 64 83 
f 83 64 81 
f 84 83 86 
f 86 83 80 
f 90 87 86 
f 86 88 91 
f 92 59 89 
f 91 92 89 
f 25 92 91 
f 94 59 92 
f 92 25 78 
f 60 102 93 
f 78 60 93 
f 76 60 78 
f 61 99 60 
f 76 61 60 
f 74 61 76 
f 62 100 61 
f 74 62 61 
f 73 62 74 
f 73 96 62 
f 97 96 73 
f 149 24 97 
f 24 29 95 
f 97 24 95 
f 95 30 33 
f 95 33 96 
f 96 33 63 
f 33 32 36 
f 33 36 63 
f 36 38 39 
f 63 36 39 
f 63 39 100 
f 39 40 41 
f 100 39 41 
f 100 41 98 
f 41 42 98 
f 99 98 101 
f 98 43 101 
f 94 102 101 
f 101 44 103 
f 94 103 59 
f 103 45 46 
f 59 103 46 
f 59 46 90 
f 46 47 48 
f 90 46 48 
f 90 48 87 
f 48 49 105 
f 87 48 105 
f 87 105 84 
f 106 50 104 
f 84 105 104 
f 84 104 107 
f 104 50 107 
f 85 107 57 
f 107 51 52 
f 57 107 52 
f 57 52 55 
f 52 53 110 
f 55 52 110 
f 55 110 71 
f 71 110 109 
f 110 54 108 
f 54 37 108 
f 53 37 54 
f 51 37 53 
f 50 37 51 
f 106 37 50 
f 49 37 106 
f 47 37 49 
f 45 37 47 
f 44 37 45 
f 43 37 44 
f 42 37 43 
f 40 37 42 
f 38 37 40 
f 35 37 38 
f 34 37 35 
f 32 34 35 
f 31 34 32 
f 30 31 32 
f 72 31 30 
f 29 72 30 
f 28 72 29 
f 23 28 29 
f 68 28 23 
f 65 68 23 
f 112 68 65 
f 65 21 111 
f 113 19 112 
f 112 19 114 
f 118 116 115 
f 119 16 117 
f 117 16 120 
f 15 122 121 
f 122 15 123 
f 13 82 124 
f 82 13 125 
f 131 127 126 
f 130 127 128 
f 130 129 132 
f 134 7 133 
f 133 7 135 
f 137 5 136 
f 136 5 138 
f 3 79 139 
f 79 3 140 
f 2 77 141 
f 77 2 142 
f 161 75 143 
f 75 161 144 
f 159 146 145 
f 146 159 147 
f 157 149 148 
f 149 157 150 
f 155 152 151 
f 152 155 66 
f 155 151 153 
f 157 148 156 
f 159 145 158 
f 161 143 160 
f 2 141 1 
f 1 140 3 
f 4 138 5 
f 7 8 6 
f 129 10 8 
f 129 128 9 
f 131 126 11 
f 13 124 12 
f 15 121 14 
f 14 120 16 
f 17 119 118 
f 18 114 19 
f 21 22 20 
f 155 154 22 
f 20 22 154 
