# NV = 110 NF = 216
v -0.0127048 -0.489066 0.0906464
v -0.00584445 -0.489066 0.0906464
v 0.000599487 -0.489066 0.0929917
v 0.00585446 -0.489066 0.0974015
v 0.00928337 -0.489066 0.103341
v 0.0104748 -0.814952 0.110096
v 0.00928337 -0.814952 0.116851
v 0.00585446 -0.814952 0.122791
v 0.000599487 -0.814952 0.127201
v -0.00584445 -0.814952 0.129546
v -0.0127048 -0.814952 0.129546
v -0.0191512 -0.814952 0.127201
v -0.0244063 -0.814952 0.122791
v -0.0278351 -0.814952 0.116851
v -0.0290266 -0.814952 0.110096
v -0.0278351 -0.814952 0.103341
v -0.0244063 -0.814952 0.0974015
v -0.0191512 -0.814952 0.0929917
v -0.0127048 -0.814952 0.0906464
v -0.00584445 -0.814952 0.0906464
v 0.000599487 -0.814952 0.0929917
v 0.00585446 -0.814952 0.0974015
v 0.00928337 -0.814952 0.103341
v -0.00927585 -0.814952 0.110096
v 0.00928337 0.81448 0.116851
v 0.0104748 0.81448 0.110096
v -0.00927585 0.81448 0.110096
v 0.00585446 0.81448 0.122791
v 0.000599487 0.81448 0.127201
v -0.00584445 0.81448 0.129546
v -0.0127048 0.81448 0.129546
v -0.0191512 0.81448 0.127201
v -0.0244063 0.81448 0.122791
v -0.0278351 0.81448 0.116851
v -0.0290266 0.81448 0.110096
v -0.0278351 0.81448 0.103341
v -0.0244063 0.81448 0.0974015
v -0.0191512 0.81448 0.0929917
v -0.0127048 0.81448 0.0906464
v -0.00584445 0.81448 0.0906464
v 0.000599487 0.81448 0.0929917
v 0.00585446 0.81448 0.0974015
v 0.00928337 0.81448 0.103341
v 0.0104748 0.488595 0.110096
v 0.00928337 0.488595 0.116851
v 0.00585446 0.488595 0.122791
v 0.000599487 0.488595 0.127201
v -0.00584445 0.488595 0.129546
v -0.0127048 0.488595 0.129546
v -0.0191512 0.488595 0.127201
v -0.0244063 0.488595 0.122791
v -0.0278351 0.488595 0.116851
v -0.0290266 0.488595 0.110096
v -0.0278351 0.488595 0.103341
v -0.0244063 0.488595 0.0974015
v -0.0191512 0.488595 0.0929917
v -0.0127048 0.488595 0.0906464
v -0.00584445 0.488595 0.0906464
v 0.000599487 0.488595 0.0929917
v 0.00585446 0.488595 0.0974015
v 0.00928337 0.488595 0.103341
v 0.0104748 0.162709 0.110096
v 0.00928337 0.162709 0.116851
v 0.00585446 0.162709 0.122791
v 0.000599487 0.162709 0.127201
v -0.00584445 0.162709 0.129546
v -0.0127048 0.162709 0.129546
v -0.0191512 0.162709 0.127201
v -0.0244063 0.162709 0.122791
v -0.0278351 0.162709 0.116851
v -0.0290266 0.162709 0.110096
v -0.0278351 0.162709 0.103341
v -0.0244063 0.162709 0.0974015
v -0.0191512 0.162709 0.0929917
v -0.0127048 0.162709 0.0906464
v -0.00584445 0.162709 0.0906464
v 0.000599487 0.162709 0.0929917
v 0.00585446 0.162709 0.0974015
v 0.00928337 0.162709 0.103341
v 0.0104748 -0.163178 0.110096
v 0.00928337 -0.163178 0.116851
v 0.00585446 -0.163178 0.122791
v 0.000599487 -0.163178 0.127201
v -0.00584445 -0.163178 0.129546
v -0.0127048 -0.163178 0.129546
v -0.0191512 -0.163178 0.127201
v -0.0244063 -0.163178 0.122791
v -0.0278351 -0.163178 0.116851
v -0.0290266 -0.163178 0.110096
v -0.0278351 -0.163178 0.103341
v -0.0244063 -0.163178 0.0974015
v -0.0191512 -0.163178 0.0929917
v -0.0127048 -0.163178 0.0906464
v -0.00584445 -0.163178 0.0906464
v 0.000599487 -0.163178 0.0929917
v 0.00585446 -0.163178 0.0974015
v 0.00928337 -0.163178 0.103341
v 0.0104748 -0.489066 0.110096
v 0.00928337 -0.489066 0.116851
v 0.00585446 -0.489066 0.122791
v 0.000599487 -0.489066 0.127201
v -0.00584445 -0.489066 0.129546
v -0.0127048 -0.489066 0.129546
v -0.0191512 -0.489066 0.127201
v -0.0244063 -0.489066 0.122791
v -0.0278351 -0.489066 0.116851
v -0.0290266 -0.489066 0.110096
v -0.0278351 -0.489066 0.103341
v -0.0244063 -0.489066 0.0974015
v -0.0191512 -0.489066 0.0929917
f 25 26 27 
f 28 25 27 
f 29 28 27 
f 30 29 27 
f 31 30 27 
f 32 31 27 
f 33 32 27 
f 34 33 27 
f 35 34 27 
f 36 35 27 
f 37 36 27 
f 38 37 27 
f 39 38 27 
f 40 39 27 
f 41 40 27 
f 42 41 27 
f 43 42 27 
f 26 43 27 
f 44 26 45 
f 26 25 45 
f 45 25 46 
f 25 28 46 
f 46 28 47 
f 28 29 47 
f 47 29 48 
f 29 30 48 
f 48 30 49 
f 30 31 49 
f 49 31 50 
f 31 32 50 
f 50 32 51 
f 32 33 51 
f 51 33 52 
f 33 34 52 
f 52 34 53 
f 34 35 53 
f 53 35 54 
f 35 36 54 
f 54 36 55 
f 36 37 55 
f 55 37 56 
f 37 38 56 
f 56 38 57 
f 38 39 57 
f 57 39 58 
f 39 40 58 
f 58 40 59 
f 40 41 59 
f 59 41 60 
f 41 42 60 
f 60 42 61 
f 42 43 61 
f 61 43 44 
f 43 26 44 
f 62 44 63 
f 44 45 63 
f 63 45 64 
f 45 46 64 
f 64 46 65 
f 46 47 65 
f 65 47 66 
f 47 48 66 
f 66 48 67 
f 48 49 67 
f 67 49 68 
f 49 50 68 
f 68 50 69 
f 50 51 69 
f 69 51 70 
f 51 52 70 
f 70 52 71 
f 52 53 71 
f 71 53 72 
f 53 54 72 
f 72 54 73 
f 54 55 73 
f 73 55 74 
f 55 56 74 
f 74 56 75 
f 56 57 75 
f 75 57 76 
f 57 58 76 
f 76 58 77 
f 58 59 77 
f 77 59 78 
f 59 60 78 
f 78 60 79 
f 60 61 79 
f 79 61 62 
f 61 44 62 
f 80 62 81 
f 62 63 81 
f 81 63 82 
f 63 64 82 
f 82 64 83 
f 64 65 83 
f 83 65 84 
f 65 66 84 
f 84 66 85 
f 66 67 85 
f 85 67 86 
f 67 68 86 
f 86 68 87 
f 68 69 87 
f 87 69 88 
f 69 70 88 
f 88 70 89 
f 70 71 89 
f 89 71 90 
f 71 72 90 
f 90 72 91 
f 72 73 91 
f 91 73 92 
f 73 74 92 
f 92 74 93 
f 74 75 93 
f 93 75 94 
f 75 76 94 
f 94 76 95 
f 76 77 95 
f 95 77 96 
f 77 78 96 
f 96 78 97 
f 78 79 97 
f 97 79 80 
f 79 62 80 
f 98 80 99 
f 80 81 99 
f 99 81 100 
f 81 82 100 
f 100 82 101 
f 82 83 101 
f 101 83 102 
f 83 84 102 
f 102 84 103 
f 84 85 103 
f 103 85 104 
f 85 86 104 
f 104 86 105 
f 86 87 105 
f 105 87 106 
f 87 88 106 
f 106 88 107 
f 88 89 107 
f 107 89 108 
f 89 90 108 
f 108 90 109 
f 90 91 109 
f 109 91 110 
f 91 92 110 
f 110 92 1 
f 92 93 1 
f 1 93 2 
f 93 94 2 
f 2 94 3 
f 94 95 3 
f 3 95 4 
f 95 96 4 
f 4 96 5 
f 96 97 5 
f 5 97 98 
f 97 80 98 
f 6 98 7 
f 98 99 7 
f 7 99 8 
f 99 100 8 
f 8 100 9 
f 100 101 9 
f 9 101 10 
f 101 102 10 
f 10 102 11 
f 102 103 11 
f 11 103 12 
f 103 104 12 
f 12 104 13 
f 104 105 13 
f 13 105 14 
f 105 106 14 
f 14 106 15 
f 106 107 15 
f 15 107 16 
f 107 108 16 
f 16 108 17 
f 108 109 17 
f 17 109 18 
f 109 110 18 
f 18 110 19 
f 110 1 19 
f 19 1 20 
f 1 2 20 
f 20 2 21 
f 2 3 21 
f 21 3 22 
f 3 4 22 
f 22 4 23 
f 4 5 23 
f 23 5 6 
f 5 98 6 
f 6 7 24 
f 7 8 24 
f 8 9 24 
f 9 10 24 
f 10 11 24 
f 11 12 24 
f 12 13 24 
f 13 14 24 
f 14 15 24 
f 15 16 24 
f 16 17 24 
f 17 18 24 
f 18 19 24 
f 19 20 24 
f 20 21 24 
f 21 22 24 
f 22 23 24 
f 23 6 24 
