# NV = 110 NF = 216
v 0.469365 0.162709 0.0974015
v 0.474618 0.162709 0.0929917
v 0.481062 0.162709 0.0906464
v 0.487924 0.162709 0.0906464
v 0.494369 0.162709 0.0929917
v 0.499623 0.162709 0.0974015
v 0.503053 0.162709 0.103341
v 0.504245 -0.163178 0.110096
v 0.503053 -0.163178 0.116851
v 0.499623 -0.163178 0.122791
v 0.494369 -0.163178 0.127201
v 0.487924 -0.163178 0.129546
v 0.481062 -0.163178 0.129546
v 0.474618 -0.163178 0.127201
v 0.469365 -0.163178 0.122791
v 0.465935 -0.163178 0.116851
v 0.464743 -0.163178 0.110096
v 0.465935 -0.163178 0.103341
v 0.469365 -0.163178 0.0974015
v 0.474618 -0.163178 0.0929917
v 0.481062 -0.163178 0.0906464
v 0.487924 -0.163178 0.0906464
v 0.494369 -0.163178 0.0929917
v 0.499623 -0.163178 0.0974015
v 0.503053 -0.163178 0.103341
v 0.504245 -0.489066 0.110096
v 0.503053 -0.489066 0.116851
v 0.499621 -0.489066 0.122791
v 0.494369 -0.489066 0.127201
v 0.487924 -0.489066 0.129546
v 0.481062 -0.489066 0.129546
v 0.474618 -0.489066 0.127201
v 0.469365 -0.489066 0.122791
v 0.465935 -0.489066 0.116851
v 0.464743 -0.489066 0.110096
v 0.465935 -0.489066 0.103341
v 0.469365 -0.489066 0.0974015
v 0.474618 -0.489066 0.0929917
v 0.481062 -0.489066 0.0906464
v 0.487924 -0.489066 0.0906464
v 0.494369 -0.489066 0.0929917
v 0.499621 -0.489066 0.0974015
v 0.503053 -0.489066 0.103341
v 0.504245 -0.814952 0.110096
v 0.503053 -0.814952 0.116851
v 0.499621 -0.814952 0.122791
v 0.494369 -0.814952 0.127201
v 0.487924 -0.814952 0.129546
v 0.481062 -0.814952 0.129546
v 0.474618 -0.814952 0.127201
v 0.469365 -0.814952 0.122791
v 0.465935 -0.814952 0.116851
v 0.464743 -0.814952 0.110096
v 0.465935 -0.814952 0.103341
v 0.469365 -0.814952 0.0974015
v 0.474618 -0.814952 0.0929917
v 0.481062 -0.814952 0.0906464
v 0.487924 -0.814952 0.0906464
v 0.494369 -0.814952 0.0929917
v 0.499621 -0.814952 0.0974015
v 0.503053 -0.814952 0.103341
v 0.484494 -0.814952 0.110096
v 0.503053 0.81448 0.116851
v 0.504245 0.81448 0.110096
v 0.484494 0.81448 0.110096
v 0.499623 0.81448 0.122791
v 0.494369 0.81448 0.127201
v 0.487924 0.81448 0.129546
v 0.481062 0.81448 0.129546
v 0.474618 0.81448 0.127201
v 0.469365 0.81448 0.122791
v 0.465935 0.81448 0.116851
v 0.464743 0.81448 0.110096
v 0.465935 0.81448 0.103341
v 0.469365 0.81448 0.0974015
v 0.474618 0.81448 0.0929917
v 0.481062 0.81448 0.0906464
v 0.487924 0.81448 0.0906464
v 0.494369 0.81448 0.0929917
v 0.499623 0.81448 0.0974015
v 0.503053 0.81448 0.103341
v 0.504245 0.488595 0.110096
v 0.503053 0.488595 0.116851
v 0.499623 0.488595 0.122791
v 0.494369 0.488595 0.127201
v 0.487924 0.488595 0.129546
v 0.481062 0.488595 0.129546
v 0.474618 0.488595 0.127201
v 0.469365 0.488595 0.122791
v 0.465935 0.488595 0.116851
v 0.464743 0.488595 0.110096
v 0.465935 0.488595 0.103341
v 0.469365 0.488595 0.0974015
v 0.474618 0.488595 0.0929917
v 0.481062 0.488595 0.0906464
v 0.487924 0.488595 0.0906464
v 0.494369 0.488595 0.0929917
v 0.499623 0.488595 0.0974015
v 0.503053 0.488595 0.103341
v 0.504245 0.162709 0.110096
v 0.503053 0.162709 0.116851
v 0.499623 0.162709 0.122791
v 0.494369 0.162709 0.127201
v 0.487924 0.162709 0.129546
v 0.481062 0.162709 0.129546
v 0.474618 0.162709 0.127201
v 0.469365 0.162709 0.122791
v 0.465935 0.162709 0.116851
v 0.464743 0.162709 0.110096
v 0.465935 0.162709 0.103341
f 63 64 65 
f 66 63 65 
f 67 66 65 
f 68 67 65 
f 69 68 65 
f 70 69 65 
f 71 70 65 
f 72 71 65 
f 73 72 65 
f 74 73 65 
f 75 74 65 
f 76 75 65 
f 77 76 65 
f 78 77 65 
f 79 78 65 
f 80 79 65 
f 81 80 65 
f 64 81 65 
f 82 64 83 
f 64 63 83 
f 83 63 84 
f 63 66 84 
f 84 66 85 
f 66 67 85 
f 85 67 86 
f 67 68 86 
f 86 68 87 
f 68 69 87 
f 87 69 88 
f 69 70 88 
f 88 70 89 
f 70 71 89 
f 89 71 90 
f 71 72 90 
f 90 72 91 
f 72 73 91 
f 91 73 92 
f 73 74 92 
f 92 74 93 
f 74 75 93 
f 93 75 94 
f 75 76 94 
f 94 76 95 
f 76 77 95 
f 95 77 96 
f 77 78 96 
f 96 78 97 
f 78 79 97 
f 97 79 98 
f 79 80 98 
f 98 80 99 
f 80 81 99 
f 99 81 82 
f 81 64 82 
f 100 82 101 
f 82 83 101 
f 101 83 102 
f 83 84 102 
f 102 84 103 
f 84 85 103 
f 103 85 104 
f 85 86 104 
f 104 86 105 
f 86 87 105 
f 105 87 106 
f 87 88 106 
f 106 88 107 
f 88 89 107 
f 107 89 108 
f 89 90 108 
f 108 90 109 
f 90 91 109 
f 109 91 110 
f 91 92 110 
f 110 92 1 
f 92 93 1 
f 1 93 2 
f 93 94 2 
f 2 94 3 
f 94 95 3 
f 3 95 4 
f 95 96 4 
f 4 96 5 
f 96 97 5 
f 5 97 6 
f 97 98 6 
f 6 98 7 
f 98 99 7 
f 7 99 100 
f 99 82 100 
f 8 100 9 
f 100 101 9 
f 9 101 10 
f 101 102 10 
f 10 102 11 
f 102 103 11 
f 11 103 12 
f 103 104 12 
f 12 104 13 
f 104 105 13 
f 13 105 14 
f 105 106 14 
f 14 106 15 
f 106 107 15 
f 15 107 16 
f 107 108 16 
f 16 108 17 
f 108 109 17 
f 17 109 18 
f 109 110 18 
f 18 110 19 
f 110 1 19 
f 19 1 20 
f 1 2 20 
f 20 2 21 
f 2 3 21 
f 21 3 22 
f 3 4 22 
f 22 4 23 
f 4 5 23 
f 23 5 24 
f 5 6 24 
f 24 6 25 
f 6 7 25 
f 25 7 8 
f 7 100 8 
f 26 8 27 
f 8 9 27 
f 27 9 28 
f 9 10 28 
f 28 10 29 
f 10 11 29 
f 29 11 30 
f 11 12 30 
f 30 12 31 
f 12 13 31 
f 31 13 32 
f 13 14 32 
f 32 14 33 
f 14 15 33 
f 33 15 34 
f 15 16 34 
f 34 16 35 
f 16 17 35 
f 35 17 36 
f 17 18 36 
f 36 18 37 
f 18 19 37 
f 37 19 38 
f 19 20 38 
f 38 20 39 
f 20 21 39 
f 39 21 40 
f 21 22 40 
f 40 22 41 
f 22 23 41 
f 41 23 42 
f 23 24 42 
f 42 24 43 
f 24 25 43 
f 43 25 26 
f 25 8 26 
f 44 26 45 
f 26 27 45 
f 45 27 46 
f 27 28 46 
f 46 28 47 
f 28 29 47 
f 47 29 48 
f 29 30 48 
f 48 30 49 
f 30 31 49 
f 49 31 50 
f 31 32 50 
f 50 32 51 
f 32 33 51 
f 51 33 52 
f 33 34 52 
f 52 34 53 
f 34 35 53 
f 53 35 54 
f 35 36 54 
f 54 36 55 
f 36 37 55 
f 55 37 56 
f 37 38 56 
f 56 38 57 
f 38 39 57 
f 57 39 58 
f 39 40 58 
f 58 40 59 
f 40 41 59 
f 59 41 60 
f 41 42 60 
f 60 42 61 
f 42 43 61 
f 61 43 44 
f 43 26 44 
f 44 45 62 
f 45 46 62 
f 46 47 62 
f 47 48 62 
f 48 49 62 
f 49 50 62 
f 50 51 62 
f 51 52 62 
f 52 53 62 
f 53 54 62 
f 54 55 62 
f 55 56 62 
f 56 57 62 
f 57 58 62 
f 58 59 62 
f 59 60 62 
f 60 61 62 
f 61 44 62 
