# NV = 110 NF = 216
v -0.2376 -0.489066 0.116851
v -0.241029 -0.489066 0.122791
v -0.246283 -0.489066 0.127201
v -0.252731 -0.489066 0.129546
v -0.259589 -0.489066 0.129546
v -0.266034 -0.489066 0.127201
v -0.27129 -0.489066 0.122791
v -0.274718 -0.489066 0.116851
v -0.27591 -0.489066 0.110096
v -0.274718 -0.489066 0.103341
v -0.27129 -0.489066 0.0974015
v -0.266034 -0.489066 0.0929917
v -0.259589 -0.489066 0.0906464
v -0.252731 -0.489066 0.0906464
v -0.246283 -0.489066 0.0929917
v -0.241029 -0.489066 0.0974015
v -0.2376 -0.489066 0.103341
v -0.236408 -0.814952 0.110096
v -0.2376 -0.814952 0.116851
v -0.241029 -0.814952 0.122791
v -0.246283 -0.814952 0.127201
v -0.252731 -0.814952 0.129546
v -0.259589 -0.814952 0.129546
v -0.266034 -0.814952 0.127201
v -0.27129 -0.814952 0.122791
v -0.274718 -0.814952 0.116851
v -0.27591 -0.814952 0.110096
v -0.274718 -0.814952 0.103341
v -0.27129 -0.814952 0.0974015
v -0.266034 -0.814952 0.0929917
v -0.259589 -0.814952 0.0906464
v -0.252731 -0.814952 0.0906464
v -0.246283 -0.814952 0.0929917
v -0.241029 -0.814952 0.0974015
v -0.2376 -0.814952 0.103341
v -0.256159 -0.814952 0.110096
v -0.2376 0.81448 0.116851
v -0.236408 0.81448 0.110096
v -0.256159 0.81448 0.110096
v -0.241029 0.81448 0.122791
v -0.246283 0.81448 0.127201
v -0.252731 0.81448 0.129546
v -0.259589 0.81448 0.129546
v -0.266034 0.81448 0.127201
v -0.27129 0.81448 0.122791
v -0.274718 0.81448 0.116851
v -0.27591 0.81448 0.110096
v -0.274718 0.81448 0.103341
v -0.27129 0.81448 0.0974015
v -0.266034 0.81448 0.0929917
v -0.259589 0.81448 0.0906464
v -0.252731 0.81448 0.0906464
v -0.246283 0.81448 0.0929917
v -0.241029 0.81448 0.0974015
v -0.2376 0.81448 0.103341
v -0.236408 0.488595 0.110096
v -0.2376 0.488595 0.116851
v -0.241029 0.488595 0.122791
v -0.246283 0.488595 0.127201
v -0.252731 0.488595 0.129546
v -0.259589 0.488595 0.129546
v -0.266034 0.488595 0.127201
v -0.27129 0.488595 0.122791
v -0.274718 0.488595 0.116851
v -0.27591 0.488595 0.110096
v -0.274718 0.488595 0.103341
v -0.27129 0.488595 0.0974015
v -0.266034 0.488595 0.0929917
v -0.259589 0.488595 0.0906464
v -0.252731 0.488595 0.0906464
v -0.246283 0.488595 0.0929917
v -0.241029 0.488595 0.0974015
v -0.2376 0.488595 0.103341
v -0.236408 0.162709 0.110096
v -0.2376 0.162709 0.116851
v -0.241029 0.162709 0.122791
v -0.246283 0.162709 0.127201
v -0.252731 0.162709 0.129546
v -0.259589 0.162709 0.129546
v -0.266034 0.162709 0.127201
v -0.27129 0.162709 0.122791
v -0.274718 0.162709 0.116851
v -0.27591 0.162709 0.110096
v -0.274718 0.162709 0.103341
v -0.27129 0.162709 0.0974015
v -0.266034 0.162709 0.0929917
v -0.259589 0.162709 0.0906464
v -0.252731 0.162709 0.0906464
v -0.246283 0.162709 0.0929917
v -0.241029 0.162709 0.0974015
v -0.2376 0.162709 0.103341
v -0.236408 -0.163178 0.110096
v -0.2376 -0.163178 0.116851
v -0.241029 -0.163178 0.122791
v -0.246283 -0.163178 0.127201
v -0.252731 -0.163178 0.129546
v -0.259589 -0.163178 0.129546
v -0.266034 -0.163178 0.127201
v -0.27129 -0.163178 0.122791
v -0.274718 -0.163178 0.116851
v -0.27591 -0.163178 0.110096
v -0.274718 -0.163178 0.103341
v -0.27129 -0.163178 0.0974015
v -0.266034 -0.163178 0.0929917
v -0.259589 -0.163178 0.0906464
v -0.252731 -0.163178 0.0906464
v -0.246283 -0.163178 0.0929917
v -0.241029 -0.163178 0.0974015
v -0.2376 -0.163178 0.103341
v -0.236408 -0.489066 0.110096
f 37 38 39 
f 40 37 39 
f 41 40 39 
f 42 41 39 
f 43 42 39 
f 44 43 39 
f 45 44 39 
f 46 45 39 
f 47 46 39 
f 48 47 39 
f 49 48 39 
f 50 49 39 
f 51 50 39 
f 52 51 39 
f 53 52 39 
f 54 53 39 
f 55 54 39 
f 38 55 39 
f 56 38 57 
f 38 37 57 
f 57 37 58 
f 37 40 58 
f 58 40 59 
f 40 41 59 
f 59 41 60 
f 41 42 60 
f 60 42 61 
f 42 43 61 
f 61 43 62 
f 43 44 62 
f 62 44 63 
f 44 45 63 
f 63 45 64 
f 45 46 64 
f 64 46 65 
f 46 47 65 
f 65 47 66 
f 47 48 66 
f 66 48 67 
f 48 49 67 
f 67 49 68 
f 49 50 68 
f 68 50 69 
f 50 51 69 
f 69 51 70 
f 51 52 70 
f 70 52 71 
f 52 53 71 
f 71 53 72 
f 53 54 72 
f 72 54 73 
f 54 55 73 
f 73 55 56 
f 55 38 56 
f 74 56 75 
f 56 57 75 
f 75 57 76 
f 57 58 76 
f 76 58 77 
f 58 59 77 
f 77 59 78 
f 59 60 78 
f 78 60 79 
f 60 61 79 
f 79 61 80 
f 61 62 80 
f 80 62 81 
f 62 63 81 
f 81 63 82 
f 63 64 82 
f 82 64 83 
f 64 65 83 
f 83 65 84 
f 65 66 84 
f 84 66 85 
f 66 67 85 
f 85 67 86 
f 67 68 86 
f 86 68 87 
f 68 69 87 
f 87 69 88 
f 69 70 88 
f 88 70 89 
f 70 71 89 
f 89 71 90 
f 71 72 90 
f 90 72 91 
f 72 73 91 
f 91 73 74 
f 73 56 74 
f 92 74 93 
f 74 75 93 
f 93 75 94 
f 75 76 94 
f 94 76 95 
f 76 77 95 
f 95 77 96 
f 77 78 96 
f 96 78 97 
f 78 79 97 
f 97 79 98 
f 79 80 98 
f 98 80 99 
f 80 81 99 
f 99 81 100 
f 81 82 100 
f 100 82 101 
f 82 83 101 
f 101 83 102 
f 83 84 102 
f 102 84 103 
f 84 85 103 
f 103 85 104 
f 85 86 104 
f 104 86 105 
f 86 87 105 
f 105 87 106 
f 87 88 106 
f 106 88 107 
f 88 89 107 
f 107 89 108 
f 89 90 108 
f 108 90 109 
f 90 91 109 
f 109 91 92 
f 91 74 92 
f 110 92 1 
f 92 93 1 
f 1 93 2 
f 93 94 2 
f 2 94 3 
f 94 95 3 
f 3 95 4 
f 95 96 4 
f 4 96 5 
f 96 97 5 
f 5 97 6 
f 97 98 6 
f 6 98 7 
f 98 99 7 
f 7 99 8 
f 99 100 8 
f 8 100 9 
f 100 101 9 
f 9 101 10 
f 101 102 10 
f 10 102 11 
f 102 103 11 
f 11 103 12 
f 103 104 12 
f 12 104 13 
f 104 105 13 
f 13 105 14 
f 105 106 14 
f 14 106 15 
f 106 107 15 
f 15 107 16 
f 107 108 16 
f 16 108 17 
f 108 109 17 
f 17 109 110 
f 109 92 110 
f 18 110 19 
f 110 1 19 
f 19 1 20 
f 1 2 20 
f 20 2 21 
f 2 3 21 
f 21 3 22 
f 3 4 22 
f 22 4 23 
f 4 5 23 
f 23 5 24 
f 5 6 24 
f 24 6 25 
f 6 7 25 
f 25 7 26 
f 7 8 26 
f 26 8 27 
f 8 9 27 
f 27 9 28 
f 9 10 28 
f 28 10 29 
f 10 11 29 
f 29 11 30 
f 11 12 30 
f 30 12 31 
f 12 13 31 
f 31 13 32 
f 13 14 32 
f 32 14 33 
f 14 15 33 
f 33 15 34 
f 15 16 34 
f 34 16 35 
f 16 17 35 
f 35 17 18 
f 17 110 18 
f 18 19 36 
f 19 20 36 
f 20 21 36 
f 21 22 36 
f 22 23 36 
f 23 24 36 
f 24 25 36 
f 25 26 36 
f 26 27 36 
f 27 28 36 
f 28 29 36 
f 29 30 36 
f 30 31 36 
f 31 32 36 
f 32 33 36 
f 33 34 36 
f 34 35 36 
f 35 18 36 
