# NV = 48 NF = 92
v -0.00896941 0.153147 0.286277
v -0.0684572 0.237718 0.286818
v -0.0684572 0.237718 0.253979
v -0.00896941 0.153147 0.253437
v -0.00157046 0.156875 0.285464
v -0.00157046 0.156875 0.252624
v -0.062891 0.242816 0.286818
v -0.062891 0.242816 0.253979
v -0.0634542 0.2423 0.255052
v -0.0634542 0.2423 0.286218
v -0.0680445 0.237132 0.286218
v -0.0684572 0.237718 0.286218
v -0.0684572 0.237718 0.255052
v -0.0680445 0.237132 0.255052
v -0.0680943 0.237092 0.286218
v -0.0680943 0.237092 0.255052
v -0.0756128 0.230879 0.255052
v -0.0682709 0.248127 0.255052
v -0.0682709 0.248127 0.286218
v -0.0744598 0.243011 0.255052
v -0.0744598 0.243011 0.286218
v -0.0756128 0.230879 0.286218
v -0.197141 0.391448 0.286218
v -0.199713 0.394556 0.285688
v -0.203785 0.385958 0.286218
v -0.206354 0.389067 0.285688
v -0.208748 0.391963 0.284131
v -0.210805 0.394452 0.281654
v -0.202105 0.397454 0.284131
v -0.204162 0.399942 0.281654
v -0.20574 0.401851 0.278428
v -0.212382 0.396359 0.278428
v -0.213375 0.397559 0.274669
v -0.213713 0.397971 0.270635
v -0.213375 0.397559 0.266602
v -0.207069 0.40346 0.270635
v -0.206732 0.40305 0.266602
v -0.212382 0.396359 0.262845
v -0.20574 0.401851 0.262845
v -0.204162 0.399942 0.259616
v -0.210805 0.394452 0.259616
v -0.202105 0.397454 0.257141
v -0.208748 0.391963 0.257141
v -0.206354 0.389067 0.255583
v -0.199713 0.394556 0.255583
v -0.203785 0.385958 0.255052
v -0.197141 0.391448 0.255052
v -0.206732 0.40305 0.274669
f 15 22 17 
f 30 31 32 
f 32 31 48 
f 40 41 38 
f 20 13 14 
f 20 9 13 
f 20 18 9 
f 16 17 20 
f 17 46 20 
f 46 47 20 
f 45 44 43 
f 41 40 42 
f 38 35 37 
f 28 27 29 
f 27 26 24 
f 21 15 11 
f 12 10 21 
f 10 19 21 
f 21 22 15 
f 21 25 22 
f 21 23 25 
f 19 18 20 
f 19 10 9 
f 16 14 11 
f 9 8 3 
f 9 10 8 
f 10 7 8 
f 10 2 7 
f 10 12 2 
f 14 13 3 
f 4 11 14 
f 4 1 11 
f 1 12 11 
f 1 2 12 
f 5 6 8 
f 5 1 4 
f 17 16 15 
f 21 20 45 
f 29 24 21 
f 22 25 26 
f 28 32 22 
f 32 28 30 
f 48 31 21 
f 48 33 32 
f 33 48 34 
f 35 38 22 
f 36 34 48 
f 21 36 48 
f 37 36 21 
f 38 39 40 
f 21 42 40 
f 42 21 45 
f 22 38 41 
f 22 44 46 
f 45 20 47 
f 46 17 22 
f 14 16 20 
f 45 47 46 
f 44 45 46 
f 43 42 45 
f 22 43 44 
f 41 43 22 
f 42 43 41 
f 40 39 21 
f 39 37 21 
f 37 39 38 
f 37 35 36 
f 34 36 35 
f 22 34 35 
f 33 34 22 
f 22 32 33 
f 31 30 21 
f 21 30 29 
f 29 30 28 
f 22 27 28 
f 22 26 27 
f 24 29 27 
f 25 24 26 
f 24 25 23 
f 21 24 23 
f 11 12 21 
f 20 21 19 
f 9 18 19 
f 11 15 16 
f 3 13 9 
f 3 4 14 
f 5 7 1 
f 2 1 7 
f 6 4 8 
f 3 8 4 
f 8 7 5 
f 4 6 5 
