# NV = 130 NF = 256
v -1.2303 -0.4493 0.4471
v -1.1715 -0.4816 0.4555
v -0.9255 -0.4424 0.2734
v -1.0462 -0.8903 0.6286
v -1.3604 -0.7535 0.5933
v -1.0776 -0.9735 0.6502
v -1.7005 -0.7713 0.5304
v -2.1282 -0.9628 0.2734
v -2.1433 -1.1224 0.2734
v -1.6939 -0.8393 0.548
v -2.1282 -1.2819 0.2734
v -1.916 -0.3848 0
v -2.0675 -0.5147 0
v -1.914 -0.5441 0.2734
v -1.6432 -0.5777 0.4803
v -2.0113 -0.668 0.2734
v -1.1653 -0.2288 0
v -1.3604 -1.2534 0
v -1.3604 -0.2087 0
v -1.6746 -0.9081 0.5657
v -2.0837 -1.4433 0.2734
v -2.2843 -1.6633 0
v -2.1919 -1.9129 0
v -2.0113 -1.6387 0.2734
v -1.914 -1.8433 0.2734
v -1.4267 -0.4295 0.442
v -1.3604 -0.3046 0.2734
v -1.5131 -0.3203 0.2734
v -2.3412 -1.4571 0
v -2.1919 -0.673 0
v -2.0837 -0.8094 0.2734
v -1.0269 -0.7033 0.5128
v -1.0203 -0.7713 0.5304
v -0.5775 -1.1224 0.2734
v -1.0776 -0.5777 0.4803
v -0.6371 -0.8094 0.2734
v -0.7095 -0.668 0.2734
v -1.0462 -0.9081 0.5657
v -0.6371 -1.4433 0.2734
v -1.0269 -0.8393 0.548
v -0.7095 -1.6387 0.2734
v -0.6533 -2.1742 0
v -0.5289 -1.9129 0
v -1.2077 -2.2315 0.2734
v -1.294 -1.2439 0.6526
v -1.3604 -2.2472 0.2734
v -0.9777 -2.5812 0
v -0.9255 -2.0261 0.2734
v -1.0608 -2.1619 0.2734
v -1.7431 -2.5812 0
v -1.5131 -2.2315 0.2734
v -1.66 -2.1619 0.2734
v -1.4267 -1.2261 0.7155
v -1.4905 -1.1965 0.7078
v -1.4905 -1.2142 0.6449
v -1.916 -2.4078 0
v -1.7953 -2.0261 0.2734
v -1.5555 -0.2288 0
v -1.2303 -1.2142 0.6449
v -1.1715 -1.1564 0.63
v -1.1715 -0.4638 0.5184
v -1.1199 -0.5071 0.5296
v -0.9777 -0.2882 0
v -0.8048 -2.4078 0
v -1.5555 -2.6701 0
v -0.5289 -0.673 0
v -0.6533 -0.5147 0
v -2.3604 -1.2534 0
v -1.0462 -0.6202 0.5588
v -1.0269 -0.6856 0.5757
v -1.1199 -1.0607 0.6727
v -1.1715 -1.1386 0.6929
v -1.7431 -0.2882 0
v -1.7953 -0.4424 0.2734
v -1.66 -0.3668 0.2734
v -1.0203 -0.7535 0.5933
v -1.0269 -0.8215 0.6109
v -1.0776 -0.5599 0.5432
v -1.0608 -0.3668 0.2734
v -1.294 -0.4295 0.442
v -1.5493 -1.1386 0.6929
v -1.5493 -1.1564 0.63
v -0.4365 -0.8536 0
v -1.294 -0.4118 0.5049
v -1.2303 -0.4316 0.51
v -2.0675 -2.1742 0
v -1.3604 -0.4228 0.4403
v -1.1653 -2.6701 0
v -2.3412 -1.0496 0
v -1.0462 -0.6379 0.4959
v -0.5926 -0.9628 0.2734
v -1.4905 -0.4493 0.4471
v -1.0776 -0.9913 0.5873
v -2.2843 -0.8536 0
v -0.3604 -1.2534 0
v -0.3796 -1.0496 0
v -1.3604 -2.6901 0
v -0.4365 -1.6633 0
v -1.3604 -0.4051 0.5032
v -1.2077 -0.3203 0.2734
v -1.4267 -1.2439 0.6526
v -1.3604 -1.2506 0.6543
v -1.6009 -1.0785 0.6098
v -1.3604 -1.2328 0.7172
v -1.294 -1.2261 0.7155
v -1.2303 -1.1965 0.7078
v -1.6746 -0.6379 0.4959
v -1.6939 -0.7033 0.5128
v -1.6432 -0.9913 0.5873
v -0.8068 -1.8433 0.2734
v -1.1199 -1.0785 0.6098
v -0.8068 -0.5441 0.2734
v -0.8048 -0.3848 0
v -1.1199 -0.5249 0.4667
v -0.5926 -1.2819 0.2734
v -0.3796 -1.4571 0
v -1.5493 -0.4815 0.4555
v -1.6009 -0.5249 0.4667
v -1.4267 -0.4118 0.5049
v -1.6009 -0.5071 0.5296
v -1.5493 -0.4638 0.5184
v -1.6746 -0.6202 0.5588
v -1.4905 -0.4316 0.51
v -1.6432 -0.9735 0.6502
v -1.6746 -0.8903 0.6286
v -1.6939 -0.8215 0.6109
v -1.7005 -0.7535 0.5933
v -1.6009 -1.0607 0.6727
v -1.6939 -0.6856 0.5757
v -1.6432 -0.5599 0.5432
f 1 2 3 
f 4 5 6 
f 7 8 9 
f 10 9 11 
f 12 13 14 
f 15 14 16 
f 17 18 19 
f 20 11 21 
f 22 23 24 
f 23 25 24 
f 26 27 28 
f 29 21 11 
f 30 31 16 
f 29 22 21 
f 32 33 34 
f 35 36 37 
f 38 39 40 
f 41 42 43 
f 44 45 46 
f 47 48 49 
f 50 51 52 
f 22 24 21 
f 53 54 55 
f 56 52 57 
f 19 58 28 
f 13 16 14 
f 59 49 60 
f 61 5 62 
f 63 18 17 
f 64 18 42 
f 65 46 51 
f 66 18 67 
f 68 11 9 
f 60 49 48 
f 69 5 70 
f 71 5 72 
f 73 12 74 
f 58 73 75 
f 76 5 77 
f 78 5 69 
f 62 5 78 
f 1 79 80 
f 54 81 82 
f 6 5 71 
f 77 5 4 
f 83 18 66 
f 84 5 85 
f 86 57 25 
f 26 87 27 
f 88 18 47 
f 85 5 61 
f 89 9 8 
f 36 90 91 
f 92 28 75 
f 38 93 41 
f 64 48 47 
f 94 8 31 
f 95 18 96 
f 97 44 46 
f 43 18 98 
f 99 5 84 
f 96 18 83 
f 70 5 76 
f 80 79 100 
f 101 51 102 
f 103 25 82 
f 5 53 104 
f 93 4 6 
f 5 105 106 
f 107 31 108 
f 27 17 19 
f 109 24 103 
f 82 25 57 
f 92 26 28 
f 99 80 87 
f 109 21 24 
f 110 93 111 
f 68 29 11 
f 13 30 16 
f 69 32 90 
f 67 3 112 
f 113 79 3 
f 63 100 79 
f 96 36 91 
f 37 114 35 
f 40 39 115 
f 116 34 115 
f 55 52 101 
f 98 115 39 
f 43 39 41 
f 117 74 118 
f 54 5 81 
f 18 50 56 
f 56 50 52 
f 82 57 55 
f 86 56 57 
f 114 61 62 
f 100 63 17 
f 59 44 49 
f 65 18 97 
f 88 49 44 
f 5 54 53 
f 110 64 42 
f 50 65 51 
f 85 2 1 
f 112 66 67 
f 6 111 93 
f 89 68 9 
f 76 40 33 
f 32 69 70 
f 60 71 72 
f 40 76 77 
f 112 2 114 
f 90 78 69 
f 35 62 78 
f 111 6 71 
f 38 77 4 
f 37 83 66 
f 1 84 85 
f 23 86 25 
f 59 72 106 
f 51 46 102 
f 49 88 47 
f 2 85 61 
f 115 33 40 
f 94 89 8 
f 64 110 48 
f 34 116 95 
f 66 112 37 
f 117 92 75 
f 18 64 47 
f 83 37 36 
f 30 94 31 
f 91 95 96 
f 100 87 80 
f 17 27 100 
f 62 35 114 
f 50 18 65 
f 39 43 98 
f 80 99 84 
f 36 96 83 
f 48 111 60 
f 77 38 40 
f 70 33 32 
f 32 91 90 
f 33 70 76 
f 113 18 63 
f 67 18 113 
f 38 41 39 
f 108 31 8 
f 5 106 72 
f 118 74 14 
f 119 87 26 
f 99 87 119 
f 19 28 27 
f 120 117 118 
f 121 117 120 
f 122 15 107 
f 119 26 123 
f 124 20 109 
f 125 20 124 
f 126 7 10 
f 123 92 121 
f 127 7 126 
f 20 21 109 
f 128 109 103 
f 7 108 8 
f 115 34 33 
f 36 35 90 
f 91 32 34 
f 1 3 79 
f 122 107 129 
f 116 18 95 
f 7 9 10 
f 18 43 42 
f 44 59 45 
f 130 15 122 
f 82 55 54 
f 12 14 74 
f 127 108 7 
f 10 11 20 
f 125 10 20 
f 65 97 46 
f 120 118 130 
f 123 26 92 
f 121 92 117 
f 15 118 14 
f 15 16 107 
f 126 10 125 
f 130 118 15 
f 81 103 82 
f 110 42 41 
f 128 103 81 
f 58 75 28 
f 88 44 97 
f 98 18 116 
f 34 95 91 
f 73 74 75 
f 46 45 102 
f 124 109 128 
f 53 55 101 
f 129 108 127 
f 129 107 108 
f 113 63 79 
f 101 52 51 
f 100 27 87 
f 105 5 104 
f 107 16 31 
f 67 113 3 
f 18 13 12 
f 18 89 94 
f 103 24 25 
f 18 94 30 
f 18 23 22 
f 102 105 104 
f 99 119 5 
f 121 120 5 
f 119 123 5 
f 125 124 5 
f 123 121 5 
f 127 126 5 
f 18 22 29 
f 37 112 114 
f 18 30 13 
f 122 129 5 
f 110 41 93 
f 102 45 105 
f 55 57 52 
f 59 60 72 
f 18 56 86 
f 104 101 102 
f 117 75 74 
f 130 122 5 
f 18 29 68 
f 18 58 19 
f 114 2 61 
f 112 3 2 
f 120 130 5 
f 48 110 111 
f 60 111 71 
f 18 68 89 
f 90 35 78 
f 93 38 4 
f 18 12 73 
f 18 73 58 
f 105 45 106 
f 126 125 5 
f 128 81 5 
f 88 97 18 
f 98 116 115 
f 106 45 59 
f 1 80 84 
f 18 86 23 
f 124 128 5 
f 53 101 104 
f 129 127 5 
