# NV = 62 NF = 120
v -1.4764 -1.2816 6.6152
v -1.5076 -1.2816 6.6103
v -1.4829 -1.2816 6.628
v -1.5325 -1.2816 6.6776
v -1.5452 -1.2816 6.6841
v -1.5229 -1.2816 6.7064
v -1.5257 -0.2334 6.6348
v -1.5054 -1.2816 6.6244
v -1.5257 -1.2816 6.6348
v -1.4829 -0.2334 6.628
v -1.5054 -0.2334 6.6244
v -1.4996 -0.2334 6.6608
v -1.5325 -0.2334 6.6776
v -1.5164 -0.2334 6.6937
v -1.536 -0.2334 6.6551
v -1.505 -1.4084 6.6273
v -1.4764 -1.4084 6.6152
v -1.4842 -1.4084 6.6306
v -1.5332 -1.4084 6.6555
v -1.5299 -1.4084 6.6762
v -1.5502 -1.4084 6.6528
v -1.5237 -1.3217 6.6368
v -1.505 -1.3217 6.6273
v -1.4996 -1.3217 6.6608
v -1.5237 -1.4084 6.6368
v -1.4661 -1.4084 6.6662
v -1.4756 -1.4084 6.6848
v -1.4661 -1.3217 6.6662
v -1.4756 -1.3217 6.6848
v -1.4491 -1.2816 6.6688
v -1.4736 -1.2816 6.6869
v -1.4634 -1.2816 6.697
v -1.4842 -1.3217 6.6306
v -1.4694 -1.3217 6.6454
v -1.4943 -1.4084 6.6944
v -1.4943 -1.3217 6.6944
v -1.5332 -1.3217 6.6555
v -1.4694 -1.4084 6.6454
v -1.5452 -1.4084 6.6841
v -1.536 -1.2816 6.6551
v -1.5502 -1.2816 6.6528
v -1.5151 -1.4084 6.6911
v -1.5151 -1.3217 6.6911
v -1.4916 -1.4084 6.7114
v -1.4916 -1.2816 6.7114
v -1.5076 -1.4084 6.6103
v -1.5358 -1.4084 6.6247
v -1.4632 -0.2334 6.6666
v -1.4668 -0.2334 6.6441
v -1.4736 -0.2334 6.6869
v -1.454 -1.4084 6.6376
v -1.5358 -1.2816 6.6247
v -1.5229 -1.4084 6.7064
v -1.4939 -0.2334 6.6972
v -1.4491 -1.4084 6.6688
v -1.5299 -1.3217 6.6762
v -1.4939 -1.2816 6.6972
v -1.454 -1.2816 6.6376
v -1.4632 -1.2816 6.6666
v -1.4668 -1.2816 6.6441
v -1.4634 -1.4084 6.697
v -1.5164 -1.2816 6.6937
f 1 2 3 
f 4 5 6 
f 7 8 9 
f 10 11 12 
f 13 14 12 
f 15 13 12 
f 16 17 18 
f 19 20 21 
f 7 15 12 
f 3 2 8 
f 22 23 24 
f 22 16 23 
f 25 16 22 
f 26 27 28 
f 27 29 28 
f 30 31 32 
f 33 34 24 
f 35 36 29 
f 27 35 29 
f 26 28 34 
f 24 37 22 
f 18 38 33 
f 20 39 21 
f 40 41 5 
f 33 38 34 
f 38 26 34 
f 42 20 43 
f 24 36 43 
f 44 45 6 
f 1 46 2 
f 41 39 5 
f 46 25 47 
f 48 49 12 
f 7 12 11 
f 49 10 12 
f 50 48 12 
f 23 16 18 
f 51 18 17 
f 52 21 41 
f 39 42 53 
f 25 37 19 
f 54 50 12 
f 37 25 22 
f 9 41 40 
f 32 55 30 
f 43 20 56 
f 35 44 53 
f 44 6 53 
f 54 12 14 
f 7 11 8 
f 46 47 2 
f 17 46 1 
f 45 32 57 
f 43 56 24 
f 16 46 17 
f 58 59 30 
f 52 9 8 
f 19 21 47 
f 47 52 2 
f 25 19 47 
f 2 52 8 
f 40 5 4 
f 60 59 58 
f 28 29 24 
f 24 29 36 
f 56 37 24 
f 1 3 60 
f 24 23 33 
f 44 61 45 
f 30 59 31 
f 58 1 60 
f 17 1 58 
f 35 53 42 
f 39 53 5 
f 52 41 9 
f 23 18 33 
f 61 32 45 
f 57 62 45 
f 51 17 58 
f 4 6 62 
f 45 62 6 
f 24 34 28 
f 21 39 41 
f 8 11 3 
f 3 11 10 
f 10 60 3 
f 49 59 60 
f 48 31 59 
f 48 59 49 
f 54 14 62 
f 62 14 4 
f 4 14 13 
f 4 13 40 
f 40 15 9 
f 40 13 15 
f 49 60 10 
f 50 31 48 
f 54 62 57 
f 52 47 21 
f 56 19 37 
f 56 20 19 
f 9 15 7 
f 50 57 31 
f 36 42 43 
f 54 57 50 
f 46 16 25 
f 61 27 26 
f 61 26 55 
f 44 35 27 
f 31 57 32 
f 30 51 58 
f 55 38 51 
f 55 51 30 
f 44 27 61 
f 51 38 18 
f 35 42 36 
f 5 53 6 
f 55 26 38 
f 32 61 55 
f 39 20 42 
