# NV = 57 NF = 110
v 1.2639 -0.7243 1.1102
v 1.2639 -0.7126 0.9519
v 1.2639 -0.7189 0.9542
v 1.4752 -0.7243 1.1102
v 1.4752 -0.6657 1.1009
v 1.2639 -0.6159 1.0686
v 1.2639 -0.6657 1.1009
v 1.3386 -0.6252 1.0746
v 1.4906 -0.6987 0.5593
v 1.2501 -0.5744 0.9017
v 1.4906 -0.5744 0.9017
v 1.4022 1.0268 1.9411
v 1.3386 1.066 1.6921
v 1.3386 1.0268 1.9411
v 1.4752 -0.7816 1.0948
v 1.2639 -0.8277 1.0575
v 1.4752 -0.8277 1.0575
v 1.2639 -0.8537 1.0032
v 1.2639 -0.8547 1.0046
v 1.3386 -0.6159 1.0686
v 1.3386 -0.27 1.2345
v 1.3386 -0.2309 1.0134
v 1.3386 -0.5836 1.0188
v 1.4752 -0.5886 0.9069
v 1.2639 -0.5886 0.9069
v 1.2639 -0.5743 0.9602
v 1.2639 -0.5836 1.0188
v 1.3386 -0.5858 0.9171
v 1.4022 -0.6252 1.0746
v 1.3386 -0.5743 0.9602
v 1.4752 -0.7243 0.9562
v 1.4906 -0.8706 1.0093
v 1.2501 -0.6987 0.5593
v 1.4022 -0.27 1.2345
v 1.4906 -0.995 0.667
v 1.4022 -0.5836 1.0188
v 1.4752 -0.6159 1.0686
v 1.4752 -0.5836 1.0188
v 1.4022 -0.5743 0.9602
v 1.4752 -0.5743 0.9602
v 1.2639 -0.8547 1.0036
v 1.4752 -0.7308 0.9585
v 1.4752 -0.744 0.9633
v 1.4752 -0.7126 0.9519
v 1.4752 -0.7189 0.9542
v 1.4752 -0.8547 1.0036
v 1.2501 -0.8706 1.0093
v 1.4022 -0.5858 0.9171
v 1.4022 -0.2309 1.0134
v 1.4752 -0.7005 0.9475
v 1.2501 -0.995 0.667
v 1.4022 1.066 1.6921
v 1.2639 -0.7308 0.9585
v 1.4752 -0.8547 1.0046
v 1.2639 -0.7816 1.0948
v 1.4022 -0.6159 1.0686
v 1.2639 -0.7243 0.9562
f 1 2 3 
f 1 4 5 
f 6 7 8 
f 9 10 11 
f 12 13 14 
f 15 16 17 
f 18 19 16 
f 20 21 22 
f 20 22 23 
f 24 10 25 
f 26 27 23 
f 25 26 28 
f 5 29 7 
f 26 30 28 
f 22 30 23 
f 11 31 32 
f 33 10 9 
f 29 34 8 
f 13 22 21 
f 32 35 9 
f 36 37 38 
f 39 38 40 
f 34 21 8 
f 18 41 19 
f 42 15 43 
f 44 4 45 
f 34 14 21 
f 32 46 47 
f 48 22 49 
f 24 40 50 
f 33 35 51 
f 5 50 37 
f 34 12 14 
f 12 34 52 
f 47 18 53 
f 54 17 19 
f 7 29 8 
f 24 25 48 
f 47 46 41 
f 1 5 7 
f 18 47 41 
f 48 25 28 
f 54 15 17 
f 15 46 43 
f 9 11 32 
f 31 4 42 
f 18 55 53 
f 44 45 11 
f 47 10 33 
f 50 44 11 
f 27 20 23 
f 51 47 33 
f 56 49 34 
f 46 54 41 
f 1 3 57 
f 51 32 47 
f 4 55 15 
f 24 50 11 
f 39 48 49 
f 15 55 16 
f 5 37 29 
f 20 8 21 
f 24 11 10 
f 48 28 22 
f 6 8 20 
f 12 52 13 
f 27 2 6 
f 26 23 30 
f 22 28 30 
f 47 53 57 
f 1 55 4 
f 17 16 19 
f 11 45 31 
f 1 7 2 
f 36 56 37 
f 50 38 37 
f 39 36 38 
f 50 40 38 
f 4 31 45 
f 42 4 15 
f 49 13 52 
f 54 19 41 
f 13 21 14 
f 44 5 4 
f 53 55 1 
f 2 7 6 
f 33 9 35 
f 10 57 3 
f 10 3 2 
f 39 49 36 
f 56 36 49 
f 27 6 20 
f 57 53 1 
f 2 27 26 
f 2 26 25 
f 10 2 25 
f 43 32 42 
f 56 34 29 
f 46 32 43 
f 49 22 13 
f 37 56 29 
f 39 40 48 
f 42 32 31 
f 47 57 10 
f 49 52 34 
f 15 54 46 
f 51 35 32 
f 18 16 55 
f 5 44 50 
f 48 40 24 
