# 3ds Max Wavefront OBJ Exporter v0.97b - (c)2007 guruware
# File Created: 30.12.2014 21:47:50

#
# object Box027
#

v  1.0000 27.0000 -9.0152
v  21.0000 27.0000 -9.0152
v  1.0000 27.0000 -15.0289
v  21.0000 27.0000 -15.0289
v  1.0000 25.0000 -9.0152
v  21.0000 25.0000 -9.0152
v  1.0000 25.0000 -15.0289
v  21.0000 25.0000 -15.0289
# 8 vertices

g Box027
f 4 3 1 
f 1 2 4 
f 8 6 5 
f 5 7 8 
f 6 2 1 
f 1 5 6 
f 8 4 2 
f 2 6 8 
f 7 3 4 
f 4 8 7 
f 5 1 3 
f 3 7 5 
# 12 faces

#
# object chain028
#

v  1.0000 25.0000 -15.0242
v  1.0000 25.0000 -12.0222
v  0.0000 25.0000 -15.0242
v  -0.0000 25.0000 -12.0222
v  1.0000 27.0000 -15.0242
v  1.0000 27.0000 -12.0222
v  0.0000 26.3600 -15.0242
v  0.0000 26.3600 -14.4420
v  0.6303 27.0000 -14.4420
v  0.6303 27.0000 -15.0242
v  0.6303 26.8889 -15.0242
v  0.5543 26.6800 -15.0242
v  0.4114 26.5097 -15.0242
v  0.2189 26.3986 -15.0242
v  0.0000 26.3600 -13.8216
v  0.6303 27.0000 -13.8216
v  0.0000 26.3600 -13.2011
v  0.6303 27.0000 -13.2011
v  0.0000 26.3600 -12.5807
v  0.6303 27.0000 -12.5807
v  0.0000 26.3600 -12.0222
v  0.6303 27.0000 -12.0222
v  0.6303 26.8889 -12.0222
v  0.5543 26.6800 -12.0222
v  0.4114 26.5097 -12.0222
v  0.2189 26.3986 -12.0222
v  0.6303 26.8889 -14.4420
v  0.5543 26.6800 -14.4420
v  0.4114 26.5097 -14.4420
v  0.2189 26.3986 -14.4420
v  0.6303 26.8889 -13.8216
v  0.5543 26.6800 -13.8216
v  0.4114 26.5097 -13.8216
v  0.2189 26.3986 -13.8216
v  0.6303 26.8889 -13.2011
v  0.5543 26.6800 -13.2011
v  0.4114 26.5097 -13.2011
v  0.2189 26.3986 -13.2011
v  0.6303 26.8889 -12.5807
v  0.5543 26.6800 -12.5807
v  0.4114 26.5097 -12.5807
v  0.2189 26.3986 -12.5807
# 42 vertices

g chain028
f 12 11 9 
f 9 10 12 
f 28 30 14 
f 26 28 14 
f 24 26 14 
f 17 24 14 
f 17 14 13 
f 18 17 13 
f 14 10 9 
f 9 13 14 
f 16 15 11 
f 16 11 12 
f 23 16 12 
f 25 23 12 
f 27 25 12 
f 29 27 12 
f 19 18 13 
f 11 15 22 
f 11 22 21 
f 11 21 20 
f 11 20 19 
f 9 11 19 
f 9 19 13 
f 12 10 14 
f 34 29 12 
f 33 34 12 
f 32 33 12 
f 32 12 14 
f 31 32 14 
f 31 14 30 
f 22 15 16 
f 16 38 22 
f 40 39 35 
f 35 36 40 
f 41 40 36 
f 36 37 41 
f 42 41 37 
f 37 38 42 
f 23 42 38 
f 38 16 23 
f 44 43 39 
f 39 40 44 
f 45 44 40 
f 40 41 45 
f 46 45 41 
f 41 42 46 
f 25 46 42 
f 42 23 25 
f 48 47 43 
f 43 44 48 
f 49 48 44 
f 44 45 49 
f 50 49 45 
f 45 46 50 
f 27 50 46 
f 46 25 27 
f 17 35 39 
f 39 24 17 
f 24 39 43 
f 43 26 24 
f 31 30 28 
f 28 47 31 
f 26 43 47 
f 47 28 26 
f 33 32 48 
f 48 49 33 
f 32 31 47 
f 47 48 32 
f 29 34 50 
f 50 27 29 
f 34 33 49 
f 49 50 34 
f 35 17 18 
f 18 19 35 
f 19 20 36 
f 36 35 19 
f 20 21 37 
f 37 36 20 
f 21 22 38 
f 38 37 21 
# 80 faces

#
# object chain029
#

v  -1.0000 25.0000 -15.0242
v  -1.0000 25.0000 -12.0222
v  -0.0000 25.0000 -15.0242
v  0.0000 25.0000 -12.0222
v  -1.0000 27.0000 -15.0242
v  -1.0000 27.0000 -12.0222
v  0.0000 26.3600 -15.0242
v  0.0000 26.3600 -14.4420
v  -0.6303 27.0000 -14.4420
v  -0.6303 27.0000 -15.0242
v  -0.6303 26.8889 -15.0242
v  -0.5543 26.6800 -15.0242
v  -0.4114 26.5097 -15.0242
v  -0.2189 26.3986 -15.0242
v  0.0000 26.3600 -13.8216
v  -0.6303 27.0000 -13.8216
v  0.0000 26.3600 -13.2011
v  -0.6303 27.0000 -13.2011
v  0.0000 26.3600 -12.5807
v  -0.6303 27.0000 -12.5807
v  0.0000 26.3600 -12.0222
v  -0.6303 27.0000 -12.0222
v  -0.6303 26.8889 -12.0222
v  -0.5543 26.6800 -12.0222
v  -0.4114 26.5097 -12.0222
v  -0.2189 26.3986 -12.0222
v  -0.6303 26.8889 -14.4420
v  -0.5543 26.6800 -14.4420
v  -0.4114 26.5097 -14.4420
v  -0.2189 26.3986 -14.4420
v  -0.6303 26.8889 -13.8216
v  -0.5543 26.6800 -13.8216
v  -0.4114 26.5097 -13.8216
v  -0.2189 26.3986 -13.8216
v  -0.6303 26.8889 -13.2011
v  -0.5543 26.6800 -13.2011
v  -0.4114 26.5097 -13.2011
v  -0.2189 26.3986 -13.2011
v  -0.6303 26.8889 -12.5807
v  -0.5543 26.6800 -12.5807
v  -0.4114 26.5097 -12.5807
v  -0.2189 26.3986 -12.5807
# 42 vertices

g chain029
f 51 53 54 
f 54 52 51 
f 56 72 70 
f 56 70 68 
f 56 68 66 
f 56 66 59 
f 55 56 59 
f 55 59 60 
f 51 52 56 
f 56 55 51 
f 53 57 58 
f 54 53 58 
f 54 58 65 
f 54 65 67 
f 54 67 69 
f 54 69 71 
f 55 60 61 
f 64 57 53 
f 63 64 53 
f 62 63 53 
f 61 62 53 
f 61 53 51 
f 55 61 51 
f 56 52 54 
f 54 71 76 
f 54 76 75 
f 54 75 74 
f 56 54 74 
f 56 74 73 
f 72 56 73 
f 58 57 64 
f 64 80 58 
f 77 81 82 
f 82 78 77 
f 78 82 83 
f 83 79 78 
f 79 83 84 
f 84 80 79 
f 80 84 65 
f 65 58 80 
f 81 85 86 
f 86 82 81 
f 82 86 87 
f 87 83 82 
f 83 87 88 
f 88 84 83 
f 84 88 67 
f 67 65 84 
f 85 89 90 
f 90 86 85 
f 86 90 91 
f 91 87 86 
f 87 91 92 
f 92 88 87 
f 88 92 69 
f 69 67 88 
f 81 77 59 
f 59 66 81 
f 85 81 66 
f 66 68 85 
f 70 72 73 
f 73 89 70 
f 89 85 68 
f 68 70 89 
f 90 74 75 
f 75 91 90 
f 89 73 74 
f 74 90 89 
f 92 76 71 
f 71 69 92 
f 91 75 76 
f 76 92 91 
f 60 59 77 
f 77 61 60 
f 78 62 61 
f 61 77 78 
f 79 63 62 
f 62 78 79 
f 80 64 63 
f 63 79 80 
# 80 faces

#
# object Cylinder051
#

v  0.0000 26.0000 -15.0240
v  -0.3420 26.0603 -15.0240
v  -0.6428 26.2340 -15.0240
v  -0.8660 26.5000 -15.0240
v  -0.9848 26.8264 -15.0240
v  -0.9848 27.1737 -15.0240
v  -0.8660 27.5000 -15.0240
v  -0.6428 27.7660 -15.0240
v  -0.3420 27.9397 -15.0240
v  0.0000 28.0000 -15.0240
v  0.3420 27.9397 -15.0240
v  0.6428 27.7660 -15.0240
v  0.8660 27.5000 -15.0240
v  0.9848 27.1737 -15.0240
v  0.9848 26.8264 -15.0240
v  0.8660 26.5000 -15.0240
v  0.6428 26.2340 -15.0240
v  0.3420 26.0603 -15.0240
v  0.0000 26.0000 -14.4236
v  -0.3420 26.0603 -14.4236
v  -0.6428 26.2340 -14.4236
v  -0.8660 26.5000 -14.4236
v  -0.9848 26.8264 -14.4236
v  -0.9848 27.1737 -14.4236
v  -0.8660 27.5000 -14.4236
v  -0.6428 27.7660 -14.4236
v  -0.3420 27.9397 -14.4236
v  0.0000 28.0000 -14.4236
v  0.3420 27.9397 -14.4236
v  0.6428 27.7660 -14.4236
v  0.8660 27.5000 -14.4236
v  0.9848 27.1737 -14.4236
v  0.9848 26.8264 -14.4236
v  0.8660 26.5000 -14.4236
v  0.6428 26.2340 -14.4236
v  0.3420 26.0603 -14.4236
v  0.0000 26.0000 -13.8232
v  -0.3420 26.0603 -13.8232
v  -0.6428 26.2340 -13.8232
v  -0.8660 26.5000 -13.8232
v  -0.9848 26.8264 -13.8232
v  -0.9848 27.1737 -13.8232
v  -0.8660 27.5000 -13.8232
v  -0.6428 27.7660 -13.8232
v  -0.3420 27.9397 -13.8232
v  0.0000 28.0000 -13.8232
v  0.3420 27.9397 -13.8232
v  0.6428 27.7660 -13.8232
v  0.8660 27.5000 -13.8232
v  0.9848 27.1737 -13.8232
v  0.9848 26.8264 -13.8232
v  0.8660 26.5000 -13.8232
v  0.6428 26.2340 -13.8232
v  0.3420 26.0603 -13.8232
v  0.0000 26.0000 -13.2228
v  -0.3420 26.0603 -13.2228
v  -0.6428 26.2340 -13.2228
v  -0.8660 26.5000 -13.2228
v  -0.9848 26.8264 -13.2228
v  -0.9848 27.1737 -13.2228
v  -0.8660 27.5000 -13.2228
v  -0.6428 27.7660 -13.2228
v  -0.3420 27.9397 -13.2228
v  0.0000 28.0000 -13.2228
v  0.3420 27.9397 -13.2228
v  0.6428 27.7660 -13.2228
v  0.8660 27.5000 -13.2228
v  0.9848 27.1737 -13.2228
v  0.9848 26.8264 -13.2228
v  0.8660 26.5000 -13.2228
v  0.6428 26.2340 -13.2228
v  0.3420 26.0603 -13.2228
v  0.0000 26.0000 -12.6224
v  -0.3420 26.0603 -12.6224
v  -0.6428 26.2340 -12.6224
v  -0.8660 26.5000 -12.6224
v  -0.9848 26.8264 -12.6224
v  -0.9848 27.1737 -12.6224
v  -0.8660 27.5000 -12.6224
v  -0.6428 27.7660 -12.6224
v  -0.3420 27.9397 -12.6224
v  0.0000 28.0000 -12.6224
v  0.3420 27.9397 -12.6224
v  0.6428 27.7660 -12.6224
v  0.8660 27.5000 -12.6224
v  0.9848 27.1737 -12.6224
v  0.9848 26.8264 -12.6224
v  0.8660 26.5000 -12.6224
v  0.6428 26.2340 -12.6224
v  0.3420 26.0603 -12.6224
v  0.0000 26.0000 -12.0220
v  -0.3420 26.0603 -12.0220
v  -0.6428 26.2340 -12.0220
v  -0.8660 26.5000 -12.0220
v  -0.9848 26.8264 -12.0220
v  -0.9848 27.1737 -12.0220
v  -0.8660 27.5000 -12.0220
v  -0.6428 27.7660 -12.0220
v  -0.3420 27.9397 -12.0220
v  0.0000 28.0000 -12.0220
v  0.3420 27.9397 -12.0220
v  0.6428 27.7660 -12.0220
v  0.8660 27.5000 -12.0220
v  0.9848 27.1737 -12.0220
v  0.9848 26.8264 -12.0220
v  0.8660 26.5000 -12.0220
v  0.6428 26.2340 -12.0220
v  0.3420 26.0603 -12.0220
v  0.0000 26.3600 -15.0240
v  -0.2189 26.3986 -15.0240
v  -0.4114 26.5097 -15.0240
v  -0.5543 26.6800 -15.0240
v  -0.6303 26.8889 -15.0240
v  -0.6303 27.1111 -15.0240
v  -0.5543 27.3200 -15.0240
v  -0.4114 27.4903 -15.0240
v  -0.2189 27.6014 -15.0240
v  0.0000 27.6400 -15.0240
v  0.2189 27.6014 -15.0240
v  0.4114 27.4903 -15.0240
v  0.5543 27.3200 -15.0240
v  0.6303 27.1111 -15.0240
v  0.6303 26.8889 -15.0240
v  0.5543 26.6800 -15.0240
v  0.4114 26.5097 -15.0240
v  0.2189 26.3986 -15.0240
v  -0.2189 26.3986 -12.0220
v  0.0000 26.3600 -12.0220
v  -0.4114 26.5097 -12.0220
v  -0.5543 26.6800 -12.0220
v  -0.6303 26.8889 -12.0220
v  -0.6303 27.1111 -12.0220
v  -0.5543 27.3200 -12.0220
v  -0.4114 27.4903 -12.0220
v  -0.2189 27.6014 -12.0220
v  0.0000 27.6400 -12.0220
v  0.2189 27.6014 -12.0220
v  0.4114 27.4903 -12.0220
v  0.5543 27.3200 -12.0220
v  0.6303 27.1111 -12.0220
v  0.6303 26.8889 -12.0220
v  0.5543 26.6800 -12.0220
v  0.4114 26.5097 -12.0220
v  0.2189 26.3986 -12.0220
v  0.0000 26.3600 -14.4036
v  -0.2189 26.3986 -14.4036
v  -0.4114 26.5097 -14.4036
v  -0.5543 26.6800 -14.4036
v  -0.6303 26.8889 -14.4036
v  -0.6303 27.1111 -14.4036
v  -0.5543 27.3200 -14.4036
v  -0.4114 27.4903 -14.4036
v  -0.2189 27.6014 -14.4036
v  0.0000 27.6400 -14.4036
v  0.2189 27.6014 -14.4036
v  0.4114 27.4903 -14.4036
v  0.5543 27.3200 -14.4036
v  0.6303 27.1111 -14.4036
v  0.6303 26.8889 -14.4036
v  0.5543 26.6800 -14.4036
v  0.4114 26.5097 -14.4036
v  0.2189 26.3986 -14.4036
v  0.0000 26.3600 -13.7832
v  -0.2189 26.3986 -13.7832
v  -0.4114 26.5097 -13.7832
v  -0.5543 26.6800 -13.7832
v  -0.6303 26.8889 -13.7832
v  -0.6303 27.1111 -13.7832
v  -0.5543 27.3200 -13.7832
v  -0.4114 27.4903 -13.7832
v  -0.2189 27.6014 -13.7832
v  0.0000 27.6400 -13.7832
v  0.2189 27.6014 -13.7832
v  0.4114 27.4903 -13.7832
v  0.5543 27.3200 -13.7832
v  0.6303 27.1111 -13.7832
v  0.6303 26.8889 -13.7832
v  0.5543 26.6800 -13.7832
v  0.4114 26.5097 -13.7832
v  0.2189 26.3986 -13.7832
v  0.0000 26.3600 -13.1627
v  -0.2189 26.3986 -13.1627
v  -0.4114 26.5097 -13.1627
v  -0.5543 26.6800 -13.1627
v  -0.6303 26.8889 -13.1627
v  -0.6303 27.1111 -13.1627
v  -0.5543 27.3200 -13.1627
v  -0.4114 27.4903 -13.1627
v  -0.2189 27.6014 -13.1627
v  0.0000 27.6400 -13.1627
v  0.2189 27.6014 -13.1627
v  0.4114 27.4903 -13.1627
v  0.5543 27.3200 -13.1627
v  0.6303 27.1111 -13.1627
v  0.6303 26.8889 -13.1627
v  0.5543 26.6800 -13.1627
v  0.4114 26.5097 -13.1627
v  0.2189 26.3986 -13.1627
v  0.0000 26.3600 -12.5423
v  -0.2189 26.3986 -12.5423
v  -0.4114 26.5097 -12.5423
v  -0.5543 26.6800 -12.5423
v  -0.6303 26.8889 -12.5423
v  -0.6303 27.1111 -12.5423
v  -0.5543 27.3200 -12.5423
v  -0.4114 27.4903 -12.5423
v  -0.2189 27.6014 -12.5423
v  0.0000 27.6400 -12.5423
v  0.2189 27.6014 -12.5423
v  0.4114 27.4903 -12.5423
v  0.5543 27.3200 -12.5423
v  0.6303 27.1111 -12.5423
v  0.6303 26.8889 -12.5423
v  0.5543 26.6800 -12.5423
v  0.4114 26.5097 -12.5423
v  0.2189 26.3986 -12.5423
# 216 vertices

g Cylinder051
f 112 94 93 
f 93 111 112 
f 113 95 94 
f 94 112 113 
f 114 96 95 
f 95 113 114 
f 115 97 96 
f 96 114 115 
f 116 98 97 
f 97 115 116 
f 117 99 98 
f 98 116 117 
f 118 100 99 
f 99 117 118 
f 119 101 100 
f 100 118 119 
f 120 102 101 
f 101 119 120 
f 121 103 102 
f 102 120 121 
f 122 104 103 
f 103 121 122 
f 123 105 104 
f 104 122 123 
f 124 106 105 
f 105 123 124 
f 125 107 106 
f 106 124 125 
f 126 108 107 
f 107 125 126 
f 127 109 108 
f 108 126 127 
f 128 110 109 
f 109 127 128 
f 111 93 110 
f 110 128 111 
f 130 112 111 
f 111 129 130 
f 131 113 112 
f 112 130 131 
f 132 114 113 
f 113 131 132 
f 133 115 114 
f 114 132 133 
f 134 116 115 
f 115 133 134 
f 135 117 116 
f 116 134 135 
f 136 118 117 
f 117 135 136 
f 137 119 118 
f 118 136 137 
f 138 120 119 
f 119 137 138 
f 139 121 120 
f 120 138 139 
f 140 122 121 
f 121 139 140 
f 141 123 122 
f 122 140 141 
f 142 124 123 
f 123 141 142 
f 143 125 124 
f 124 142 143 
f 144 126 125 
f 125 143 144 
f 145 127 126 
f 126 144 145 
f 146 128 127 
f 127 145 146 
f 129 111 128 
f 128 146 129 
f 148 130 129 
f 129 147 148 
f 149 131 130 
f 130 148 149 
f 150 132 131 
f 131 149 150 
f 151 133 132 
f 132 150 151 
f 152 134 133 
f 133 151 152 
f 153 135 134 
f 134 152 153 
f 154 136 135 
f 135 153 154 
f 155 137 136 
f 136 154 155 
f 156 138 137 
f 137 155 156 
f 157 139 138 
f 138 156 157 
f 158 140 139 
f 139 157 158 
f 159 141 140 
f 140 158 159 
f 160 142 141 
f 141 159 160 
f 161 143 142 
f 142 160 161 
f 162 144 143 
f 143 161 162 
f 163 145 144 
f 144 162 163 
f 164 146 145 
f 145 163 164 
f 147 129 146 
f 146 164 147 
f 166 148 147 
f 147 165 166 
f 167 149 148 
f 148 166 167 
f 168 150 149 
f 149 167 168 
f 169 151 150 
f 150 168 169 
f 170 152 151 
f 151 169 170 
f 171 153 152 
f 152 170 171 
f 172 154 153 
f 153 171 172 
f 173 155 154 
f 154 172 173 
f 174 156 155 
f 155 173 174 
f 175 157 156 
f 156 174 175 
f 176 158 157 
f 157 175 176 
f 177 159 158 
f 158 176 177 
f 178 160 159 
f 159 177 178 
f 179 161 160 
f 160 178 179 
f 180 162 161 
f 161 179 180 
f 181 163 162 
f 162 180 181 
f 182 164 163 
f 163 181 182 
f 165 147 164 
f 164 182 165 
f 184 166 165 
f 165 183 184 
f 185 167 166 
f 166 184 185 
f 186 168 167 
f 167 185 186 
f 187 169 168 
f 168 186 187 
f 188 170 169 
f 169 187 188 
f 189 171 170 
f 170 188 189 
f 190 172 171 
f 171 189 190 
f 191 173 172 
f 172 190 191 
f 192 174 173 
f 173 191 192 
f 193 175 174 
f 174 192 193 
f 194 176 175 
f 175 193 194 
f 195 177 176 
f 176 194 195 
f 196 178 177 
f 177 195 196 
f 197 179 178 
f 178 196 197 
f 198 180 179 
f 179 197 198 
f 199 181 180 
f 180 198 199 
f 200 182 181 
f 181 199 200 
f 183 165 182 
f 182 200 183 
f 108 218 217 
f 108 217 216 
f 108 216 215 
f 108 215 214 
f 108 214 213 
f 107 108 213 
f 107 213 212 
f 106 107 212 
f 106 212 211 
f 105 106 211 
f 105 211 210 
f 104 105 210 
f 104 210 209 
f 103 104 209 
f 103 209 208 
f 102 103 208 
f 102 208 207 
f 101 102 207 
f 101 207 206 
f 100 101 206 
f 100 206 205 
f 99 100 205 
f 99 205 204 
f 98 99 204 
f 98 204 203 
f 97 98 203 
f 97 203 202 
f 96 97 202 
f 95 96 202 
f 93 94 95 
f 93 95 202 
f 109 110 93 
f 109 93 202 
f 109 202 201 
f 108 109 201 
f 218 108 201 
f 198 236 220 
f 199 198 220 
f 200 199 220 
f 184 183 200 
f 184 200 220 
f 186 185 184 
f 186 184 220 
f 186 220 219 
f 187 186 219 
f 187 219 221 
f 188 187 221 
f 188 221 222 
f 189 188 222 
f 189 222 223 
f 190 189 223 
f 190 223 224 
f 191 190 224 
f 191 224 225 
f 192 191 225 
f 192 225 226 
f 193 192 226 
f 193 226 227 
f 194 193 227 
f 194 227 228 
f 195 194 228 
f 195 228 229 
f 196 195 229 
f 196 229 230 
f 197 196 230 
f 197 230 231 
f 198 197 231 
f 235 236 198 
f 234 235 198 
f 233 234 198 
f 232 233 198 
f 232 198 231 
f 238 237 201 
f 201 202 238 
f 239 238 202 
f 202 203 239 
f 240 239 203 
f 203 204 240 
f 241 240 204 
f 204 205 241 
f 242 241 205 
f 205 206 242 
f 243 242 206 
f 206 207 243 
f 244 243 207 
f 207 208 244 
f 245 244 208 
f 208 209 245 
f 246 245 209 
f 209 210 246 
f 247 246 210 
f 210 211 247 
f 248 247 211 
f 211 212 248 
f 249 248 212 
f 212 213 249 
f 250 249 213 
f 213 214 250 
f 251 250 214 
f 214 215 251 
f 252 251 215 
f 215 216 252 
f 253 252 216 
f 216 217 253 
f 254 253 217 
f 217 218 254 
f 237 254 218 
f 218 201 237 
f 256 255 237 
f 237 238 256 
f 257 256 238 
f 238 239 257 
f 258 257 239 
f 239 240 258 
f 259 258 240 
f 240 241 259 
f 260 259 241 
f 241 242 260 
f 261 260 242 
f 242 243 261 
f 262 261 243 
f 243 244 262 
f 263 262 244 
f 244 245 263 
f 264 263 245 
f 245 246 264 
f 265 264 246 
f 246 247 265 
f 266 265 247 
f 247 248 266 
f 267 266 248 
f 248 249 267 
f 268 267 249 
f 249 250 268 
f 269 268 250 
f 250 251 269 
f 270 269 251 
f 251 252 270 
f 271 270 252 
f 252 253 271 
f 272 271 253 
f 253 254 272 
f 255 272 254 
f 254 237 255 
f 274 273 255 
f 255 256 274 
f 275 274 256 
f 256 257 275 
f 276 275 257 
f 257 258 276 
f 277 276 258 
f 258 259 277 
f 278 277 259 
f 259 260 278 
f 279 278 260 
f 260 261 279 
f 280 279 261 
f 261 262 280 
f 281 280 262 
f 262 263 281 
f 282 281 263 
f 263 264 282 
f 283 282 264 
f 264 265 283 
f 284 283 265 
f 265 266 284 
f 285 284 266 
f 266 267 285 
f 286 285 267 
f 267 268 286 
f 287 286 268 
f 268 269 287 
f 288 287 269 
f 269 270 288 
f 289 288 270 
f 270 271 289 
f 290 289 271 
f 271 272 290 
f 273 290 272 
f 272 255 273 
f 292 291 273 
f 273 274 292 
f 293 292 274 
f 274 275 293 
f 294 293 275 
f 275 276 294 
f 295 294 276 
f 276 277 295 
f 296 295 277 
f 277 278 296 
f 297 296 278 
f 278 279 297 
f 298 297 279 
f 279 280 298 
f 299 298 280 
f 280 281 299 
f 300 299 281 
f 281 282 300 
f 301 300 282 
f 282 283 301 
f 302 301 283 
f 283 284 302 
f 303 302 284 
f 284 285 303 
f 304 303 285 
f 285 286 304 
f 305 304 286 
f 286 287 305 
f 306 305 287 
f 287 288 306 
f 307 306 288 
f 288 289 307 
f 308 307 289 
f 289 290 308 
f 291 308 290 
f 290 273 291 
f 221 219 292 
f 292 293 221 
f 219 220 291 
f 291 292 219 
f 223 222 294 
f 294 295 223 
f 222 221 293 
f 293 294 222 
f 225 224 296 
f 296 297 225 
f 224 223 295 
f 295 296 224 
f 227 226 298 
f 298 299 227 
f 226 225 297 
f 297 298 226 
f 229 228 300 
f 300 301 229 
f 228 227 299 
f 299 300 228 
f 231 230 302 
f 302 303 231 
f 230 229 301 
f 301 302 230 
f 233 232 304 
f 304 305 233 
f 232 231 303 
f 303 304 232 
f 235 234 306 
f 306 307 235 
f 234 233 305 
f 305 306 234 
f 220 236 308 
f 308 291 220 
f 236 235 307 
f 307 308 236 
# 432 faces

#
# object Cylinder052
#

v  22.0000 26.0000 -12.0234
v  22.0000 27.0000 -12.0234
v  21.6580 26.9397 -12.0234
v  21.3572 26.7660 -12.0234
v  21.1340 26.5000 -12.0234
v  21.0152 26.1736 -12.0234
v  21.0152 25.8264 -12.0234
v  21.1340 25.5000 -12.0234
v  21.3572 25.2340 -12.0234
v  21.6580 25.0603 -12.0234
v  22.0000 25.0000 -12.0234
v  22.3420 25.0603 -12.0234
v  22.6428 25.2340 -12.0234
v  22.8660 25.5000 -12.0234
v  22.9848 25.8263 -12.0234
v  22.9848 26.1736 -12.0234
v  22.8660 26.5000 -12.0234
v  22.6428 26.7660 -12.0234
v  22.3420 26.9397 -12.0234
v  22.0000 27.0000 -11.4212
v  21.6580 26.9397 -11.4212
v  21.3572 26.7660 -11.4212
v  21.1340 26.5000 -11.4212
v  21.0152 26.1736 -11.4212
v  21.0152 25.8263 -11.4212
v  21.1340 25.5000 -11.4212
v  21.3572 25.2340 -11.4212
v  21.6580 25.0603 -11.4212
v  22.0000 25.0000 -11.4212
v  22.3420 25.0603 -11.4212
v  22.6428 25.2340 -11.4212
v  22.8660 25.5000 -11.4212
v  22.9848 25.8263 -11.4212
v  22.9848 26.1736 -11.4212
v  22.8660 26.5000 -11.4212
v  22.6428 26.7660 -11.4212
v  22.3420 26.9397 -11.4212
v  22.0000 27.0000 -10.8189
v  21.6580 26.9397 -10.8189
v  21.3572 26.7660 -10.8189
v  21.1340 26.5000 -10.8189
v  21.0152 26.1736 -10.8189
v  21.0152 25.8263 -10.8189
v  21.1340 25.5000 -10.8189
v  21.3572 25.2340 -10.8189
v  21.6580 25.0603 -10.8189
v  22.0000 25.0000 -10.8189
v  22.3420 25.0603 -10.8189
v  22.6428 25.2340 -10.8189
v  22.8660 25.5000 -10.8189
v  22.9848 25.8263 -10.8189
v  22.9848 26.1736 -10.8189
v  22.8660 26.5000 -10.8189
v  22.6428 26.7660 -10.8189
v  22.3420 26.9397 -10.8189
v  22.0000 27.0000 -10.2167
v  21.6580 26.9397 -10.2167
v  21.3572 26.7660 -10.2167
v  21.1340 26.5000 -10.2167
v  21.0152 26.1736 -10.2167
v  21.0152 25.8263 -10.2167
v  21.1340 25.5000 -10.2167
v  21.3572 25.2340 -10.2167
v  21.6580 25.0603 -10.2167
v  22.0000 25.0000 -10.2167
v  22.3420 25.0603 -10.2167
v  22.6428 25.2340 -10.2167
v  22.8660 25.5000 -10.2167
v  22.9848 25.8263 -10.2167
v  22.9848 26.1736 -10.2167
v  22.8660 26.5000 -10.2167
v  22.6428 26.7660 -10.2167
v  22.3420 26.9397 -10.2167
v  22.0000 27.0000 -9.6145
v  21.6580 26.9397 -9.6145
v  21.3572 26.7660 -9.6145
v  21.1340 26.5000 -9.6145
v  21.0152 26.1736 -9.6145
v  21.0152 25.8263 -9.6145
v  21.1340 25.5000 -9.6145
v  21.3572 25.2340 -9.6145
v  21.6580 25.0603 -9.6145
v  22.0000 25.0000 -9.6145
v  22.3420 25.0603 -9.6145
v  22.6428 25.2340 -9.6145
v  22.8660 25.5000 -9.6145
v  22.9848 25.8263 -9.6145
v  22.9848 26.1736 -9.6145
v  22.8660 26.5000 -9.6145
v  22.6428 26.7660 -9.6145
v  22.3420 26.9397 -9.6145
v  22.0000 27.0000 -9.0122
v  21.6580 26.9397 -9.0122
v  21.3572 26.7660 -9.0122
v  21.1340 26.5000 -9.0122
v  21.0152 26.1736 -9.0122
v  21.0152 25.8263 -9.0122
v  21.1340 25.5000 -9.0122
v  21.3572 25.2340 -9.0122
v  21.6580 25.0603 -9.0122
v  22.0000 25.0000 -9.0122
v  22.3420 25.0603 -9.0122
v  22.6428 25.2339 -9.0122
v  22.8660 25.5000 -9.0122
v  22.9848 25.8263 -9.0122
v  22.9848 26.1736 -9.0122
v  22.8660 26.5000 -9.0122
v  22.6428 26.7660 -9.0122
v  22.3420 26.9397 -9.0122
v  22.0000 26.0000 -9.0122
# 110 vertices

g Cylinder052
f 309 311 310 
f 309 312 311 
f 309 313 312 
f 309 314 313 
f 309 315 314 
f 309 316 315 
f 309 317 316 
f 309 318 317 
f 309 319 318 
f 309 320 319 
f 309 321 320 
f 309 322 321 
f 309 323 322 
f 309 324 323 
f 309 325 324 
f 309 326 325 
f 309 327 326 
f 309 310 327 
f 310 329 328 
f 310 311 329 
f 311 330 329 
f 311 312 330 
f 312 331 330 
f 312 313 331 
f 313 332 331 
f 313 314 332 
f 314 333 332 
f 314 315 333 
f 315 334 333 
f 315 316 334 
f 316 335 334 
f 316 317 335 
f 317 336 335 
f 317 318 336 
f 318 337 336 
f 318 319 337 
f 319 338 337 
f 319 320 338 
f 320 339 338 
f 320 321 339 
f 321 340 339 
f 321 322 340 
f 322 341 340 
f 322 323 341 
f 323 342 341 
f 323 324 342 
f 324 343 342 
f 324 325 343 
f 325 344 343 
f 325 326 344 
f 326 345 344 
f 326 327 345 
f 327 328 345 
f 327 310 328 
f 328 347 346 
f 328 329 347 
f 329 348 347 
f 329 330 348 
f 330 349 348 
f 330 331 349 
f 331 350 349 
f 331 332 350 
f 332 351 350 
f 332 333 351 
f 333 352 351 
f 333 334 352 
f 334 353 352 
f 334 335 353 
f 335 354 353 
f 335 336 354 
f 336 355 354 
f 336 337 355 
f 337 356 355 
f 337 338 356 
f 338 357 356 
f 338 339 357 
f 339 358 357 
f 339 340 358 
f 340 359 358 
f 340 341 359 
f 341 360 359 
f 341 342 360 
f 342 361 360 
f 342 343 361 
f 343 362 361 
f 343 344 362 
f 344 363 362 
f 344 345 363 
f 345 346 363 
f 345 328 346 
f 346 365 364 
f 346 347 365 
f 347 366 365 
f 347 348 366 
f 348 367 366 
f 348 349 367 
f 349 368 367 
f 349 350 368 
f 350 369 368 
f 350 351 369 
f 351 370 369 
f 351 352 370 
f 352 371 370 
f 352 353 371 
f 353 372 371 
f 353 354 372 
f 354 373 372 
f 354 355 373 
f 355 374 373 
f 355 356 374 
f 356 375 374 
f 356 357 375 
f 357 376 375 
f 357 358 376 
f 358 377 376 
f 358 359 377 
f 359 378 377 
f 359 360 378 
f 360 379 378 
f 360 361 379 
f 361 380 379 
f 361 362 380 
f 362 381 380 
f 362 363 381 
f 363 364 381 
f 363 346 364 
f 364 383 382 
f 364 365 383 
f 365 384 383 
f 365 366 384 
f 366 385 384 
f 366 367 385 
f 367 386 385 
f 367 368 386 
f 368 387 386 
f 368 369 387 
f 369 388 387 
f 369 370 388 
f 370 389 388 
f 370 371 389 
f 371 390 389 
f 371 372 390 
f 372 391 390 
f 372 373 391 
f 373 392 391 
f 373 374 392 
f 374 393 392 
f 374 375 393 
f 375 394 393 
f 375 376 394 
f 376 395 394 
f 376 377 395 
f 377 396 395 
f 377 378 396 
f 378 397 396 
f 378 379 397 
f 379 398 397 
f 379 380 398 
f 380 399 398 
f 380 381 399 
f 381 382 399 
f 381 364 382 
f 382 401 400 
f 382 383 401 
f 383 402 401 
f 383 384 402 
f 384 403 402 
f 384 385 403 
f 385 404 403 
f 385 386 404 
f 386 405 404 
f 386 387 405 
f 387 406 405 
f 387 388 406 
f 388 407 406 
f 388 389 407 
f 389 408 407 
f 389 390 408 
f 390 409 408 
f 390 391 409 
f 391 410 409 
f 391 392 410 
f 392 411 410 
f 392 393 411 
f 393 412 411 
f 393 394 412 
f 394 413 412 
f 394 395 413 
f 395 414 413 
f 395 396 414 
f 396 415 414 
f 396 397 415 
f 397 416 415 
f 397 398 416 
f 398 417 416 
f 398 399 417 
f 399 400 417 
f 399 382 400 
f 418 400 401 
f 418 401 402 
f 418 402 403 
f 418 403 404 
f 418 404 405 
f 418 405 406 
f 418 406 407 
f 418 407 408 
f 418 408 409 
f 418 409 410 
f 418 410 411 
f 418 411 412 
f 418 412 413 
f 418 413 414 
f 418 414 415 
f 418 415 416 
f 418 416 417 
f 418 417 400 
# 216 faces

#
# object chain030
#

v  22.0000 27.0000 -12.0234
v  22.0000 27.0000 -9.0122
v  21.0000 27.0000 -12.0234
v  21.0000 27.0000 -9.0122
v  22.0000 25.0000 -12.0234
v  22.0000 25.0000 -9.0122
v  21.0000 25.0000 -12.0234
v  21.0000 25.0000 -9.0122
# 8 vertices

g chain030
f 419 421 422 
f 422 420 419 
f 423 424 426 
f 426 425 423 
f 419 420 424 
f 424 423 419 
f 420 422 426 
f 426 424 420 
f 422 421 425 
f 425 426 422 
f 421 419 423 
f 423 425 421 
# 12 faces

#
# object Cylinder053
#

v  22.0000 26.0000 -15.0346
v  22.0000 26.5200 -15.0346
v  21.8221 26.4886 -15.0346
v  21.6658 26.3983 -15.0346
v  21.5497 26.2600 -15.0346
v  21.4879 26.0903 -15.0346
v  21.4879 25.9097 -15.0346
v  21.5497 25.7400 -15.0346
v  21.6658 25.6017 -15.0346
v  21.8221 25.5114 -15.0346
v  22.0000 25.4800 -15.0346
v  22.1779 25.5114 -15.0346
v  22.3342 25.6017 -15.0346
v  22.4503 25.7400 -15.0346
v  22.5121 25.9097 -15.0346
v  22.5121 26.0903 -15.0346
v  22.4503 26.2600 -15.0346
v  22.3342 26.3983 -15.0346
v  22.1779 26.4886 -15.0346
v  22.0000 26.5200 -14.4323
v  21.8221 26.4886 -14.4323
v  21.6658 26.3983 -14.4323
v  21.5497 26.2600 -14.4323
v  21.4879 26.0903 -14.4323
v  21.4879 25.9097 -14.4323
v  21.5497 25.7400 -14.4323
v  21.6658 25.6017 -14.4323
v  21.8221 25.5114 -14.4323
v  22.0000 25.4800 -14.4323
v  22.1779 25.5114 -14.4323
v  22.3342 25.6017 -14.4323
v  22.4503 25.7400 -14.4323
v  22.5121 25.9097 -14.4323
v  22.5121 26.0903 -14.4323
v  22.4503 26.2600 -14.4323
v  22.3342 26.3983 -14.4323
v  22.1779 26.4886 -14.4323
v  22.0000 26.5200 -13.8301
v  21.8222 26.4886 -13.8301
v  21.6658 26.3983 -13.8301
v  21.5497 26.2600 -13.8301
v  21.4879 26.0903 -13.8301
v  21.4879 25.9097 -13.8301
v  21.5497 25.7400 -13.8301
v  21.6658 25.6017 -13.8301
v  21.8221 25.5114 -13.8301
v  22.0000 25.4800 -13.8301
v  22.1779 25.5114 -13.8301
v  22.3342 25.6017 -13.8301
v  22.4503 25.7400 -13.8301
v  22.5121 25.9097 -13.8301
v  22.5121 26.0903 -13.8301
v  22.4503 26.2600 -13.8301
v  22.3343 26.3983 -13.8301
v  22.1779 26.4886 -13.8301
v  22.0000 26.5200 -13.2279
v  21.8222 26.4886 -13.2279
v  21.6658 26.3983 -13.2279
v  21.5497 26.2600 -13.2279
v  21.4879 26.0903 -13.2279
v  21.4879 25.9097 -13.2279
v  21.5497 25.7400 -13.2279
v  21.6658 25.6017 -13.2279
v  21.8221 25.5114 -13.2279
v  22.0000 25.4800 -13.2279
v  22.1779 25.5114 -13.2279
v  22.3342 25.6017 -13.2279
v  22.4503 25.7400 -13.2279
v  22.5121 25.9097 -13.2279
v  22.5121 26.0903 -13.2279
v  22.4503 26.2600 -13.2279
v  22.3343 26.3983 -13.2279
v  22.1779 26.4886 -13.2279
v  22.0000 26.5200 -12.6256
v  21.8222 26.4886 -12.6256
v  21.6658 26.3983 -12.6256
v  21.5497 26.2600 -12.6256
v  21.4879 26.0903 -12.6256
v  21.4879 25.9097 -12.6256
v  21.5497 25.7400 -12.6256
v  21.6658 25.6017 -12.6256
v  21.8221 25.5114 -12.6256
v  22.0000 25.4800 -12.6256
v  22.1779 25.5114 -12.6256
v  22.3342 25.6017 -12.6256
v  22.4503 25.7400 -12.6256
v  22.5121 25.9097 -12.6256
v  22.5121 26.0903 -12.6256
v  22.4503 26.2600 -12.6256
v  22.3343 26.3983 -12.6256
v  22.1779 26.4886 -12.6256
v  22.0000 26.5200 -12.0234
v  21.8222 26.4886 -12.0234
v  21.6658 26.3983 -12.0234
v  21.5497 26.2600 -12.0234
v  21.4879 26.0903 -12.0234
v  21.4879 25.9097 -12.0234
v  21.5497 25.7400 -12.0234
v  21.6658 25.6017 -12.0234
v  21.8222 25.5114 -12.0234
v  22.0000 25.4800 -12.0234
v  22.1779 25.5114 -12.0234
v  22.3342 25.6017 -12.0234
v  22.4503 25.7400 -12.0234
v  22.5121 25.9097 -12.0234
v  22.5121 26.0903 -12.0234
v  22.4503 26.2600 -12.0234
v  22.3343 26.3983 -12.0234
v  22.1779 26.4886 -12.0234
v  22.0000 26.0000 -12.0234
# 110 vertices

g Cylinder053
f 427 429 428 
f 427 430 429 
f 427 431 430 
f 427 432 431 
f 427 433 432 
f 427 434 433 
f 427 435 434 
f 427 436 435 
f 427 437 436 
f 427 438 437 
f 427 439 438 
f 427 440 439 
f 427 441 440 
f 427 442 441 
f 427 443 442 
f 427 444 443 
f 427 445 444 
f 427 428 445 
f 428 447 446 
f 428 429 447 
f 429 448 447 
f 429 430 448 
f 430 449 448 
f 430 431 449 
f 431 450 449 
f 431 432 450 
f 432 451 450 
f 432 433 451 
f 433 452 451 
f 433 434 452 
f 434 453 452 
f 434 435 453 
f 435 454 453 
f 435 436 454 
f 436 455 454 
f 436 437 455 
f 437 456 455 
f 437 438 456 
f 438 457 456 
f 438 439 457 
f 439 458 457 
f 439 440 458 
f 440 459 458 
f 440 441 459 
f 441 460 459 
f 441 442 460 
f 442 461 460 
f 442 443 461 
f 443 462 461 
f 443 444 462 
f 444 463 462 
f 444 445 463 
f 445 446 463 
f 445 428 446 
f 446 465 464 
f 446 447 465 
f 447 466 465 
f 447 448 466 
f 448 467 466 
f 448 449 467 
f 449 468 467 
f 449 450 468 
f 450 469 468 
f 450 451 469 
f 451 470 469 
f 451 452 470 
f 452 471 470 
f 452 453 471 
f 453 472 471 
f 453 454 472 
f 454 473 472 
f 454 455 473 
f 455 474 473 
f 455 456 474 
f 456 475 474 
f 456 457 475 
f 457 476 475 
f 457 458 476 
f 458 477 476 
f 458 459 477 
f 459 478 477 
f 459 460 478 
f 460 479 478 
f 460 461 479 
f 461 480 479 
f 461 462 480 
f 462 481 480 
f 462 463 481 
f 463 464 481 
f 463 446 464 
f 464 483 482 
f 464 465 483 
f 465 484 483 
f 465 466 484 
f 466 485 484 
f 466 467 485 
f 467 486 485 
f 467 468 486 
f 468 487 486 
f 468 469 487 
f 469 488 487 
f 469 470 488 
f 470 489 488 
f 470 471 489 
f 471 490 489 
f 471 472 490 
f 472 491 490 
f 472 473 491 
f 473 492 491 
f 473 474 492 
f 474 493 492 
f 474 475 493 
f 475 494 493 
f 475 476 494 
f 476 495 494 
f 476 477 495 
f 477 496 495 
f 477 478 496 
f 478 497 496 
f 478 479 497 
f 479 498 497 
f 479 480 498 
f 480 499 498 
f 480 481 499 
f 481 482 499 
f 481 464 482 
f 482 501 500 
f 482 483 501 
f 483 502 501 
f 483 484 502 
f 484 503 502 
f 484 485 503 
f 485 504 503 
f 485 486 504 
f 486 505 504 
f 486 487 505 
f 487 506 505 
f 487 488 506 
f 488 507 506 
f 488 489 507 
f 489 508 507 
f 489 490 508 
f 490 509 508 
f 490 491 509 
f 491 510 509 
f 491 492 510 
f 492 511 510 
f 492 493 511 
f 493 512 511 
f 493 494 512 
f 494 513 512 
f 494 495 513 
f 495 514 513 
f 495 496 514 
f 496 515 514 
f 496 497 515 
f 497 516 515 
f 497 498 516 
f 498 517 516 
f 498 499 517 
f 499 500 517 
f 499 482 500 
f 500 519 518 
f 500 501 519 
f 501 520 519 
f 501 502 520 
f 502 521 520 
f 502 503 521 
f 503 522 521 
f 503 504 522 
f 504 523 522 
f 504 505 523 
f 505 524 523 
f 505 506 524 
f 506 525 524 
f 506 507 525 
f 507 526 525 
f 507 508 526 
f 508 527 526 
f 508 509 527 
f 509 528 527 
f 509 510 528 
f 510 529 528 
f 510 511 529 
f 511 530 529 
f 511 512 530 
f 512 531 530 
f 512 513 531 
f 513 532 531 
f 513 514 532 
f 514 533 532 
f 514 515 533 
f 515 534 533 
f 515 516 534 
f 516 535 534 
f 516 517 535 
f 517 518 535 
f 517 500 518 
f 536 518 519 
f 536 519 520 
f 536 520 521 
f 536 521 522 
f 536 522 523 
f 536 523 524 
f 536 524 525 
f 536 525 526 
f 536 526 527 
f 536 527 528 
f 536 528 529 
f 536 529 530 
f 536 530 531 
f 536 531 532 
f 536 532 533 
f 536 533 534 
f 536 534 535 
f 536 535 518 
# 216 faces

#
# object Box028
#

v  23.0000 27.0000 -12.0208
v  23.0000 27.0000 -9.0096
v  21.0000 27.0000 -12.0208
v  21.0000 27.0000 -9.0096
v  23.0000 26.0000 -12.0208
v  23.0000 26.0000 -9.0096
v  21.0000 26.0000 -12.0208
v  21.0000 26.0000 -9.0096
# 8 vertices

g Box028
f 537 539 540 
f 540 538 537 
f 541 542 544 
f 544 543 541 
f 537 538 542 
f 542 541 537 
f 538 540 544 
f 544 542 538 
f 540 539 543 
f 543 544 540 
f 539 537 541 
f 541 543 539 
# 12 faces

