# 3ds Max Wavefront OBJ Exporter v0.97b - (c)2007 guruware
# File Created: 01.06.2014 02:44:20

#
# object m0
#

v  -28.5056 -20.0000 0.3050
v  76.4944 -20.0000 0.3050
v  -28.5056 20.0000 0.3050
v  76.4944 20.0000 0.3050
v  -28.5056 -20.0000 1.3050
v  76.4944 -20.0000 1.3050
v  -28.5056 20.0000 1.3050
v  76.4944 20.0000 1.3050
# 8 vertices

g m0
f 1 3 4 
f 4 2 1 
f 5 6 8 
f 8 7 5 
f 1 2 6 
f 6 5 1 
f 2 4 8 
f 8 6 2 
f 4 3 7 
f 7 8 4 
f 3 1 5 
f 5 7 3 
# 12 faces

#
# object m1
#

v  14.2829 -20.0000 60.3734
v  74.2829 -20.0000 60.3734
v  14.2829 20.0000 60.3734
v  74.2829 20.0000 60.3734
v  14.2829 -20.0000 61.3734
v  74.2829 -20.0000 61.3734
v  14.2829 20.0000 61.3734
v  74.2829 20.0000 61.3734
# 8 vertices

g m1
f 9 11 12 
f 12 10 9 
f 13 14 16 
f 16 15 13 
f 9 10 14 
f 14 13 9 
f 10 12 16 
f 16 14 10 
f 12 11 15 
f 15 16 12 
f 11 9 13 
f 13 15 11 
# 12 faces

#
# object s32
#

v  67.0547 -20.0000 0.8050
v  68.0547 -20.0000 0.8050
v  67.0547 20.0000 0.8050
v  68.0547 20.0000 0.8050
v  67.0547 -20.0000 60.8050
v  68.0547 -20.0000 60.8050
v  67.0547 20.0000 60.8050
v  68.0547 20.0000 60.8050
# 8 vertices

g s32
f 17 19 20 
f 20 18 17 
f 21 22 24 
f 24 23 21 
f 17 18 22 
f 22 21 17 
f 18 20 24 
f 24 22 18 
f 20 19 23 
f 23 24 20 
f 19 17 21 
f 21 23 19 
# 12 faces

#
# object s31
#

v  21.2244 -20.0000 0.8050
v  22.2244 -20.0000 0.8050
v  21.2244 20.0000 0.8050
v  22.2244 20.0000 0.8050
v  21.2244 -20.0000 60.8050
v  22.2244 -20.0000 60.8050
v  21.2244 20.0000 60.8050
v  22.2244 20.0000 60.8050
# 8 vertices

g s31
f 25 27 28 
f 28 26 25 
f 29 30 32 
f 32 31 29 
f 25 26 30 
f 30 29 25 
f 26 28 32 
f 32 30 26 
f 28 27 31 
f 31 32 28 
f 27 25 29 
f 29 31 27 
# 12 faces

#
# object m2
#

v  -28.0178 -20.0000 30.0000
v  21.9822 -20.0000 30.0000
v  -28.0178 20.0000 30.0000
v  21.9822 20.0000 30.0000
v  -28.0178 -20.0000 31.0000
v  21.9822 -20.0000 31.0000
v  -28.0178 20.0000 31.0000
v  21.9822 20.0000 31.0000
# 8 vertices

g m2
f 33 35 36 
f 36 34 33 
f 37 38 40 
f 40 39 37 
f 33 34 38 
f 38 37 33 
f 34 36 40 
f 40 38 34 
f 36 35 39 
f 39 40 36 
f 35 33 37 
f 37 39 35 
# 12 faces

#
# object m006
#

v  31.3429 -20.0000 20.7534
v  61.3429 -20.0000 20.7534
v  31.3429 20.0000 20.7534
v  61.3429 20.0000 20.7534
v  31.3429 -20.0000 21.7534
v  61.3429 -20.0000 21.7534
v  31.3429 20.0000 21.7534
v  61.3429 20.0000 21.7534
# 8 vertices

g m006
f 41 43 44 
f 44 42 41 
f 45 46 48 
f 48 47 45 
f 41 42 46 
f 46 45 41 
f 42 44 48 
f 48 46 42 
f 44 43 47 
f 47 48 44 
f 43 41 45 
f 45 47 43 
# 12 faces

#
# object s033
#

v  52.4805 -20.0000 1.0352
v  53.4805 -20.0000 1.0352
v  52.4805 20.0000 1.0352
v  53.4805 20.0000 1.0352
v  52.4805 -20.0000 21.0352
v  53.4805 -20.0000 21.0352
v  52.4805 20.0000 21.0352
v  53.4805 20.0000 21.0352
# 8 vertices

g s033
f 49 51 52 
f 52 50 49 
f 53 54 56 
f 56 55 53 
f 49 50 54 
f 54 53 49 
f 50 52 56 
f 56 54 50 
f 52 51 55 
f 55 56 52 
f 51 49 53 
f 53 55 51 
# 12 faces

#
# object s034
#

v  38.2139 -20.0000 1.0352
v  39.2139 -20.0000 1.0352
v  38.2139 20.0000 1.0352
v  39.2139 20.0000 1.0352
v  38.2139 -20.0000 21.0352
v  39.2139 -20.0000 21.0352
v  38.2139 20.0000 21.0352
v  39.2139 20.0000 21.0352
# 8 vertices

g s034
f 57 59 60 
f 60 58 57 
f 61 62 64 
f 64 63 61 
f 57 58 62 
f 62 61 57 
f 58 60 64 
f 64 62 58 
f 60 59 63 
f 63 64 60 
f 59 57 61 
f 61 63 59 
# 12 faces

#
# object m007
#

v  -18.7508 -20.0000 50.1172
v  11.2492 -20.0000 50.1172
v  -18.7508 20.0000 50.1172
v  11.2492 20.0000 50.1172
v  -18.7508 -20.0000 51.1172
v  11.2492 -20.0000 51.1172
v  -18.7508 20.0000 51.1172
v  11.2492 20.0000 51.1172
# 8 vertices

g m007
f 65 67 68 
f 68 66 65 
f 69 70 72 
f 72 71 69 
f 65 66 70 
f 70 69 65 
f 66 68 72 
f 72 70 66 
f 68 67 71 
f 71 72 68 
f 67 65 69 
f 69 71 67 
# 12 faces

#
# object s035
#

v  2.3868 -20.0000 30.5000
v  3.3868 -20.0000 30.5000
v  2.3868 20.0000 30.5000
v  3.3868 20.0000 30.5000
v  2.3868 -20.0000 50.5000
v  3.3868 -20.0000 50.5000
v  2.3868 20.0000 50.5000
v  3.3868 20.0000 50.5000
# 8 vertices

g s035
f 73 75 76 
f 76 74 73 
f 77 78 80 
f 80 79 77 
f 73 74 78 
f 78 77 73 
f 74 76 80 
f 80 78 74 
f 76 75 79 
f 79 80 76 
f 75 73 77 
f 77 79 75 
# 12 faces

#
# object s036
#

v  -10.6195 -20.0000 0.8050
v  -9.6195 -20.0000 0.8050
v  -10.6195 20.0000 0.8050
v  -9.6195 20.0000 0.8050
v  -10.6195 -20.0000 50.8050
v  -9.6195 -20.0000 50.8050
v  -10.6195 20.0000 50.8050
v  -9.6195 20.0000 50.8050
# 8 vertices

g s036
f 81 83 84 
f 84 82 81 
f 85 86 88 
f 88 87 85 
f 81 82 86 
f 86 85 81 
f 82 84 88 
f 88 86 82 
f 84 83 87 
f 87 88 84 
f 83 81 85 
f 85 87 83 
# 12 faces

