# NV = 8 NF = 12
v 0.431601 0.389397 -0.05974
v 0.431601 0.341503 -0.05974
v 0.368116 0.341503 -0.05974
v 0.431601 0.389397 0.336311
v 0.368116 0.389397 0.336311
v 0.431601 0.341503 0.336311
v 0.368116 0.341503 0.336311
v 0.368116 0.389397 -0.05974
f 4 5 6 
f 5 7 6 
f 8 1 2 
f 3 8 2 
f 1 8 5 
f 4 1 5 
f 8 3 7 
f 5 8 7 
f 3 2 6 
f 7 3 6 
f 2 1 4 
f 6 2 4 
