# 3ds Max Wavefront OBJ Exporter v0.97b - (c)2007 guruware
# File Created: 30.12.2014 18:17:22

#
# object chain007
#

v  68.8825 -31.0000 -2.0000
v  74.8825 -31.0000 -2.0000
v  68.8825 -29.0000 -2.0000
v  74.8825 -29.0000 -2.0000
v  68.8825 -31.0000 -0.0000
v  74.8825 -31.0000 -0.0000
v  68.8825 -29.0000 -0.0000
v  74.8825 -29.0000 -0.0000
# 8 vertices

g chain007
f 1 3 4 
f 4 2 1 
f 5 6 8 
f 8 7 5 
f 1 2 6 
f 6 5 1 
f 2 4 8 
f 8 6 2 
f 4 3 7 
f 7 8 4 
f 3 1 5 
f 5 7 3 
# 12 faces

#
# object Cylinder022
#

v  68.8825 -30.0000 0.0000
v  68.8825 -30.0000 -1.0000
v  68.8825 -29.6580 -0.9397
v  68.8825 -29.3572 -0.7660
v  68.8825 -29.1340 -0.5000
v  68.8825 -29.0152 -0.1736
v  68.8825 -29.0152 0.1737
v  68.8825 -29.1340 0.5000
v  68.8825 -29.3572 0.7660
v  68.8825 -29.6580 0.9397
v  68.8825 -30.0000 1.0000
v  68.8825 -30.3420 0.9397
v  68.8825 -30.6428 0.7661
v  68.8825 -30.8660 0.5000
v  68.8825 -30.9848 0.1737
v  68.8825 -30.9848 -0.1736
v  68.8825 -30.8660 -0.5000
v  68.8825 -30.6428 -0.7660
v  68.8825 -30.3420 -0.9397
v  70.0825 -30.0000 -1.0000
v  70.0825 -29.6580 -0.9397
v  70.0825 -29.3572 -0.7660
v  70.0825 -29.1340 -0.5000
v  70.0825 -29.0152 -0.1736
v  70.0825 -29.0152 0.1737
v  70.0825 -29.1340 0.5000
v  70.0825 -29.3572 0.7661
v  70.0825 -29.6580 0.9397
v  70.0825 -30.0000 1.0000
v  70.0825 -30.3420 0.9397
v  70.0825 -30.6428 0.7661
v  70.0825 -30.8660 0.5000
v  70.0825 -30.9848 0.1737
v  70.0825 -30.9848 -0.1736
v  70.0825 -30.8660 -0.5000
v  70.0825 -30.6428 -0.7660
v  70.0825 -30.3420 -0.9397
v  71.2825 -30.0000 -1.0000
v  71.2825 -29.6580 -0.9397
v  71.2825 -29.3572 -0.7660
v  71.2825 -29.1340 -0.5000
v  71.2825 -29.0152 -0.1736
v  71.2825 -29.0152 0.1737
v  71.2825 -29.1340 0.5000
v  71.2825 -29.3572 0.7661
v  71.2825 -29.6580 0.9397
v  71.2825 -30.0000 1.0000
v  71.2825 -30.3420 0.9397
v  71.2825 -30.6428 0.7661
v  71.2825 -30.8660 0.5000
v  71.2825 -30.9848 0.1737
v  71.2825 -30.9848 -0.1736
v  71.2825 -30.8660 -0.5000
v  71.2825 -30.6428 -0.7660
v  71.2825 -30.3420 -0.9397
v  72.4825 -30.0000 -1.0000
v  72.4825 -29.6580 -0.9397
v  72.4825 -29.3572 -0.7660
v  72.4825 -29.1340 -0.5000
v  72.4825 -29.0152 -0.1736
v  72.4825 -29.0152 0.1737
v  72.4825 -29.1340 0.5000
v  72.4825 -29.3572 0.7661
v  72.4825 -29.6580 0.9397
v  72.4825 -30.0000 1.0000
v  72.4825 -30.3420 0.9397
v  72.4825 -30.6428 0.7661
v  72.4825 -30.8660 0.5000
v  72.4825 -30.9848 0.1737
v  72.4825 -30.9848 -0.1736
v  72.4825 -30.8660 -0.5000
v  72.4825 -30.6428 -0.7660
v  72.4825 -30.3420 -0.9397
v  73.6825 -30.0000 -1.0000
v  73.6825 -29.6580 -0.9397
v  73.6825 -29.3572 -0.7660
v  73.6825 -29.1340 -0.5000
v  73.6825 -29.0152 -0.1736
v  73.6825 -29.0152 0.1737
v  73.6825 -29.1340 0.5000
v  73.6825 -29.3572 0.7661
v  73.6825 -29.6580 0.9397
v  73.6825 -30.0000 1.0000
v  73.6825 -30.3420 0.9397
v  73.6825 -30.6428 0.7661
v  73.6825 -30.8660 0.5000
v  73.6825 -30.9848 0.1737
v  73.6825 -30.9848 -0.1736
v  73.6825 -30.8660 -0.5000
v  73.6825 -30.6428 -0.7660
v  73.6825 -30.3420 -0.9397
v  74.8825 -30.0000 -1.0000
v  74.8825 -29.6580 -0.9397
v  74.8825 -29.3572 -0.7660
v  74.8825 -29.1340 -0.5000
v  74.8825 -29.0152 -0.1736
v  74.8825 -29.0152 0.1737
v  74.8825 -29.1340 0.5000
v  74.8825 -29.3572 0.7661
v  74.8825 -29.6580 0.9397
v  74.8825 -30.0000 1.0000
v  74.8825 -30.3420 0.9397
v  74.8825 -30.6428 0.7661
v  74.8825 -30.8660 0.5000
v  74.8825 -30.9848 0.1737
v  74.8825 -30.9848 -0.1736
v  74.8825 -30.8660 -0.5000
v  74.8825 -30.6428 -0.7660
v  74.8825 -30.3420 -0.9397
v  74.8825 -30.0000 0.0000
# 110 vertices

g Cylinder022
f 9 11 10 
f 9 12 11 
f 9 13 12 
f 9 14 13 
f 9 15 14 
f 9 16 15 
f 9 17 16 
f 9 18 17 
f 9 19 18 
f 9 20 19 
f 9 21 20 
f 9 22 21 
f 9 23 22 
f 9 24 23 
f 9 25 24 
f 9 26 25 
f 9 27 26 
f 9 10 27 
f 10 29 28 
f 10 11 29 
f 11 30 29 
f 11 12 30 
f 12 31 30 
f 12 13 31 
f 13 32 31 
f 13 14 32 
f 14 33 32 
f 14 15 33 
f 15 34 33 
f 15 16 34 
f 16 35 34 
f 16 17 35 
f 17 36 35 
f 17 18 36 
f 18 37 36 
f 18 19 37 
f 19 38 37 
f 19 20 38 
f 20 39 38 
f 20 21 39 
f 21 40 39 
f 21 22 40 
f 22 41 40 
f 22 23 41 
f 23 42 41 
f 23 24 42 
f 24 43 42 
f 24 25 43 
f 25 44 43 
f 25 26 44 
f 26 45 44 
f 26 27 45 
f 27 28 45 
f 27 10 28 
f 28 47 46 
f 28 29 47 
f 29 48 47 
f 29 30 48 
f 30 49 48 
f 30 31 49 
f 31 50 49 
f 31 32 50 
f 32 51 50 
f 32 33 51 
f 33 52 51 
f 33 34 52 
f 34 53 52 
f 34 35 53 
f 35 54 53 
f 35 36 54 
f 36 55 54 
f 36 37 55 
f 37 56 55 
f 37 38 56 
f 38 57 56 
f 38 39 57 
f 39 58 57 
f 39 40 58 
f 40 59 58 
f 40 41 59 
f 41 60 59 
f 41 42 60 
f 42 61 60 
f 42 43 61 
f 43 62 61 
f 43 44 62 
f 44 63 62 
f 44 45 63 
f 45 46 63 
f 45 28 46 
f 46 65 64 
f 46 47 65 
f 47 66 65 
f 47 48 66 
f 48 67 66 
f 48 49 67 
f 49 68 67 
f 49 50 68 
f 50 69 68 
f 50 51 69 
f 51 70 69 
f 51 52 70 
f 52 71 70 
f 52 53 71 
f 53 72 71 
f 53 54 72 
f 54 73 72 
f 54 55 73 
f 55 74 73 
f 55 56 74 
f 56 75 74 
f 56 57 75 
f 57 76 75 
f 57 58 76 
f 58 77 76 
f 58 59 77 
f 59 78 77 
f 59 60 78 
f 60 79 78 
f 60 61 79 
f 61 80 79 
f 61 62 80 
f 62 81 80 
f 62 63 81 
f 63 64 81 
f 63 46 64 
f 64 83 82 
f 64 65 83 
f 65 84 83 
f 65 66 84 
f 66 85 84 
f 66 67 85 
f 67 86 85 
f 67 68 86 
f 68 87 86 
f 68 69 87 
f 69 88 87 
f 69 70 88 
f 70 89 88 
f 70 71 89 
f 71 90 89 
f 71 72 90 
f 72 91 90 
f 72 73 91 
f 73 92 91 
f 73 74 92 
f 74 93 92 
f 74 75 93 
f 75 94 93 
f 75 76 94 
f 76 95 94 
f 76 77 95 
f 77 96 95 
f 77 78 96 
f 78 97 96 
f 78 79 97 
f 79 98 97 
f 79 80 98 
f 80 99 98 
f 80 81 99 
f 81 82 99 
f 81 64 82 
f 82 101 100 
f 82 83 101 
f 83 102 101 
f 83 84 102 
f 84 103 102 
f 84 85 103 
f 85 104 103 
f 85 86 104 
f 86 105 104 
f 86 87 105 
f 87 106 105 
f 87 88 106 
f 88 107 106 
f 88 89 107 
f 89 108 107 
f 89 90 108 
f 90 109 108 
f 90 91 109 
f 91 110 109 
f 91 92 110 
f 92 111 110 
f 92 93 111 
f 93 112 111 
f 93 94 112 
f 94 113 112 
f 94 95 113 
f 95 114 113 
f 95 96 114 
f 96 115 114 
f 96 97 115 
f 97 116 115 
f 97 98 116 
f 98 117 116 
f 98 99 117 
f 99 100 117 
f 99 82 100 
f 118 100 101 
f 118 101 102 
f 118 102 103 
f 118 103 104 
f 118 104 105 
f 118 105 106 
f 118 106 107 
f 118 107 108 
f 118 108 109 
f 118 109 110 
f 118 110 111 
f 118 111 112 
f 118 112 113 
f 118 113 114 
f 118 114 115 
f 118 115 116 
f 118 116 117 
f 118 117 100 
# 216 faces

#
# object bearing006
#

v  62.8821 -29.0000 -2.0000
v  74.8821 -29.0000 -2.0000
v  62.8821 -25.0000 -2.0000
v  74.8821 -25.0000 -2.0000
v  62.8821 -29.0000 -0.0000
v  74.8821 -29.0000 0.0000
v  62.8821 -25.0000 -0.0000
v  74.8821 -25.0000 0.0000
# 8 vertices

g bearing006
f 119 121 122 
f 122 120 119 
f 123 124 126 
f 126 125 123 
f 119 120 124 
f 124 123 119 
f 120 122 126 
f 126 124 120 
f 122 121 125 
f 125 126 122 
f 121 119 123 
f 123 125 121 
# 12 faces

#
# object Cylinder021
#

v  62.8825 -30.0000 0.0000
v  62.8825 -30.0000 -0.5200
v  62.8825 -29.8221 -0.4886
v  62.8825 -29.6658 -0.3983
v  62.8825 -29.5497 -0.2600
v  62.8825 -29.4879 -0.0903
v  62.8825 -29.4879 0.0903
v  62.8825 -29.5497 0.2600
v  62.8825 -29.6658 0.3983
v  62.8825 -29.8221 0.4886
v  62.8825 -30.0000 0.5200
v  62.8825 -30.1779 0.4886
v  62.8825 -30.3342 0.3983
v  62.8825 -30.4503 0.2600
v  62.8825 -30.5121 0.0903
v  62.8825 -30.5121 -0.0903
v  62.8825 -30.4503 -0.2600
v  62.8825 -30.3342 -0.3983
v  62.8825 -30.1779 -0.4886
v  64.1025 -30.0000 -0.5200
v  64.1025 -29.8221 -0.4886
v  64.1025 -29.6658 -0.3983
v  64.1025 -29.5497 -0.2600
v  64.1025 -29.4879 -0.0903
v  64.1025 -29.4879 0.0903
v  64.1025 -29.5497 0.2600
v  64.1025 -29.6658 0.3983
v  64.1025 -29.8221 0.4886
v  64.1025 -30.0000 0.5200
v  64.1025 -30.1779 0.4886
v  64.1025 -30.3342 0.3983
v  64.1025 -30.4503 0.2600
v  64.1025 -30.5121 0.0903
v  64.1025 -30.5121 -0.0903
v  64.1025 -30.4503 -0.2600
v  64.1025 -30.3342 -0.3983
v  64.1025 -30.1779 -0.4886
v  65.3225 -30.0000 -0.5200
v  65.3225 -29.8221 -0.4886
v  65.3225 -29.6658 -0.3983
v  65.3225 -29.5497 -0.2600
v  65.3225 -29.4879 -0.0903
v  65.3225 -29.4879 0.0903
v  65.3225 -29.5497 0.2600
v  65.3225 -29.6658 0.3983
v  65.3225 -29.8221 0.4886
v  65.3225 -30.0000 0.5200
v  65.3225 -30.1779 0.4886
v  65.3225 -30.3342 0.3983
v  65.3225 -30.4503 0.2600
v  65.3225 -30.5121 0.0903
v  65.3225 -30.5121 -0.0903
v  65.3225 -30.4503 -0.2600
v  65.3225 -30.3342 -0.3983
v  65.3225 -30.1779 -0.4886
v  66.5425 -30.0000 -0.5200
v  66.5425 -29.8221 -0.4886
v  66.5425 -29.6658 -0.3983
v  66.5425 -29.5497 -0.2600
v  66.5425 -29.4879 -0.0903
v  66.5425 -29.4879 0.0903
v  66.5425 -29.5497 0.2600
v  66.5425 -29.6658 0.3983
v  66.5425 -29.8221 0.4886
v  66.5425 -30.0000 0.5200
v  66.5425 -30.1779 0.4886
v  66.5425 -30.3342 0.3983
v  66.5425 -30.4503 0.2600
v  66.5425 -30.5121 0.0903
v  66.5425 -30.5121 -0.0903
v  66.5425 -30.4503 -0.2600
v  66.5425 -30.3342 -0.3983
v  66.5425 -30.1779 -0.4886
v  67.7625 -30.0000 -0.5200
v  67.7625 -29.8221 -0.4886
v  67.7625 -29.6658 -0.3983
v  67.7625 -29.5497 -0.2600
v  67.7625 -29.4879 -0.0903
v  67.7625 -29.4879 0.0903
v  67.7625 -29.5497 0.2600
v  67.7625 -29.6658 0.3984
v  67.7625 -29.8221 0.4886
v  67.7625 -30.0000 0.5200
v  67.7625 -30.1779 0.4886
v  67.7625 -30.3342 0.3984
v  67.7625 -30.4503 0.2600
v  67.7625 -30.5121 0.0903
v  67.7625 -30.5121 -0.0903
v  67.7625 -30.4503 -0.2600
v  67.7625 -30.3342 -0.3983
v  67.7625 -30.1779 -0.4886
v  68.9825 -30.0000 -0.5200
v  68.9825 -29.8221 -0.4886
v  68.9825 -29.6658 -0.3983
v  68.9825 -29.5497 -0.2600
v  68.9825 -29.4879 -0.0903
v  68.9825 -29.4879 0.0903
v  68.9825 -29.5497 0.2600
v  68.9825 -29.6658 0.3984
v  68.9825 -29.8221 0.4886
v  68.9825 -30.0000 0.5200
v  68.9825 -30.1779 0.4886
v  68.9825 -30.3342 0.3984
v  68.9825 -30.4503 0.2600
v  68.9825 -30.5121 0.0903
v  68.9825 -30.5121 -0.0903
v  68.9825 -30.4503 -0.2600
v  68.9825 -30.3342 -0.3983
v  68.9825 -30.1779 -0.4886
v  68.9825 -30.0000 0.0000
# 110 vertices

g Cylinder021
f 127 129 128 
f 127 130 129 
f 127 131 130 
f 127 132 131 
f 127 133 132 
f 127 134 133 
f 127 135 134 
f 127 136 135 
f 127 137 136 
f 127 138 137 
f 127 139 138 
f 127 140 139 
f 127 141 140 
f 127 142 141 
f 127 143 142 
f 127 144 143 
f 127 145 144 
f 127 128 145 
f 128 147 146 
f 128 129 147 
f 129 148 147 
f 129 130 148 
f 130 149 148 
f 130 131 149 
f 131 150 149 
f 131 132 150 
f 132 151 150 
f 132 133 151 
f 133 152 151 
f 133 134 152 
f 134 153 152 
f 134 135 153 
f 135 154 153 
f 135 136 154 
f 136 155 154 
f 136 137 155 
f 137 156 155 
f 137 138 156 
f 138 157 156 
f 138 139 157 
f 139 158 157 
f 139 140 158 
f 140 159 158 
f 140 141 159 
f 141 160 159 
f 141 142 160 
f 142 161 160 
f 142 143 161 
f 143 162 161 
f 143 144 162 
f 144 163 162 
f 144 145 163 
f 145 146 163 
f 145 128 146 
f 146 165 164 
f 146 147 165 
f 147 166 165 
f 147 148 166 
f 148 167 166 
f 148 149 167 
f 149 168 167 
f 149 150 168 
f 150 169 168 
f 150 151 169 
f 151 170 169 
f 151 152 170 
f 152 171 170 
f 152 153 171 
f 153 172 171 
f 153 154 172 
f 154 173 172 
f 154 155 173 
f 155 174 173 
f 155 156 174 
f 156 175 174 
f 156 157 175 
f 157 176 175 
f 157 158 176 
f 158 177 176 
f 158 159 177 
f 159 178 177 
f 159 160 178 
f 160 179 178 
f 160 161 179 
f 161 180 179 
f 161 162 180 
f 162 181 180 
f 162 163 181 
f 163 164 181 
f 163 146 164 
f 164 183 182 
f 164 165 183 
f 165 184 183 
f 165 166 184 
f 166 185 184 
f 166 167 185 
f 167 186 185 
f 167 168 186 
f 168 187 186 
f 168 169 187 
f 169 188 187 
f 169 170 188 
f 170 189 188 
f 170 171 189 
f 171 190 189 
f 171 172 190 
f 172 191 190 
f 172 173 191 
f 173 192 191 
f 173 174 192 
f 174 193 192 
f 174 175 193 
f 175 194 193 
f 175 176 194 
f 176 195 194 
f 176 177 195 
f 177 196 195 
f 177 178 196 
f 178 197 196 
f 178 179 197 
f 179 198 197 
f 179 180 198 
f 180 199 198 
f 180 181 199 
f 181 182 199 
f 181 164 182 
f 182 201 200 
f 182 183 201 
f 183 202 201 
f 183 184 202 
f 184 203 202 
f 184 185 203 
f 185 204 203 
f 185 186 204 
f 186 205 204 
f 186 187 205 
f 187 206 205 
f 187 188 206 
f 188 207 206 
f 188 189 207 
f 189 208 207 
f 189 190 208 
f 190 209 208 
f 190 191 209 
f 191 210 209 
f 191 192 210 
f 192 211 210 
f 192 193 211 
f 193 212 211 
f 193 194 212 
f 194 213 212 
f 194 195 213 
f 195 214 213 
f 195 196 214 
f 196 215 214 
f 196 197 215 
f 197 216 215 
f 197 198 216 
f 198 217 216 
f 198 199 217 
f 199 200 217 
f 199 182 200 
f 200 219 218 
f 200 201 219 
f 201 220 219 
f 201 202 220 
f 202 221 220 
f 202 203 221 
f 203 222 221 
f 203 204 222 
f 204 223 222 
f 204 205 223 
f 205 224 223 
f 205 206 224 
f 206 225 224 
f 206 207 225 
f 207 226 225 
f 207 208 226 
f 208 227 226 
f 208 209 227 
f 209 228 227 
f 209 210 228 
f 210 229 228 
f 210 211 229 
f 211 230 229 
f 211 212 230 
f 212 231 230 
f 212 213 231 
f 213 232 231 
f 213 214 232 
f 214 233 232 
f 214 215 233 
f 215 234 233 
f 215 216 234 
f 216 235 234 
f 216 217 235 
f 217 218 235 
f 217 200 218 
f 236 218 219 
f 236 219 220 
f 236 220 221 
f 236 221 222 
f 236 222 223 
f 236 223 224 
f 236 224 225 
f 236 225 226 
f 236 226 227 
f 236 227 228 
f 236 228 229 
f 236 229 230 
f 236 230 231 
f 236 231 232 
f 236 232 233 
f 236 233 234 
f 236 234 235 
f 236 235 218 
# 216 faces

