# NV = 404 NF = 804
v -0.0172181 0.216623 1.07845
v -0.023336 0.216533 1.07844
v -0.0294548 0.216418 1.07844
v -0.0355717 0.216277 1.07844
v -0.0416887 0.21611 1.07844
v -0.0478047 0.215918 1.07843
v -0.0539199 0.2157 1.07843
v -0.0600332 0.215457 1.07842
v -0.0661465 0.215188 1.07842
v -0.0722589 0.214894 1.07841
v -0.0783694 0.214574 1.07841
v -0.0844782 0.214227 1.0784
v -0.090586 0.213856 1.07839
v -0.096692 0.213459 1.07838
v -0.102796 0.213037 1.07838
v -0.108899 0.212588 1.07837
v -0.115 0.212115 1.07837
v -0.121099 0.211616 1.07836
v -0.127195 0.211091 1.07835
v -0.133289 0.210541 1.07834
v -0.139381 0.209965 1.07833
v -0.14547 0.209364 1.07832
v -0.151557 0.208737 1.0783
v -0.157641 0.208085 1.07829
v -0.163722 0.207407 1.07828
v -0.169801 0.206704 1.07827
v -0.175877 0.205975 1.07826
v -0.181949 0.205221 1.07825
v -0.188018 0.204442 1.07823
v -0.194084 0.203637 1.07822
v -0.200146 0.202807 1.0782
v -0.206205 0.20195 1.07818
v -0.21226 0.201069 1.07817
v -0.218312 0.200163 1.07816
v -0.224359 0.199231 1.07814
v -0.230403 0.198274 1.07812
v -0.236443 0.197292 1.07811
v -0.242478 0.196284 1.07809
v -0.248509 0.195251 1.07807
v -0.254536 0.194193 1.07806
v -0.260558 0.19311 1.07804
v -0.266576 0.192001 1.07801
v -0.272589 0.190867 1.07799
v -0.278597 0.189708 1.07797
v -0.2846 0.188524 1.07795
v -0.290599 0.187315 1.07793
v -0.296592 0.18608 1.07791
v -0.30258 0.184821 1.07789
v 0.306569 0.195634 0.919983
v 0.300547 0.1969 0.920001
v 0.29452 0.198142 0.920019
v 0.288488 0.199357 0.920047
v 0.282451 0.200548 0.920065
v 0.276409 0.201714 0.920083
v 0.270362 0.202854 0.920102
v 0.26431 0.203969 0.920129
v 0.258255 0.205058 0.920147
v 0.252193 0.206123 0.920165
v 0.246128 0.207162 0.920184
v 0.240059 0.208175 0.920202
v 0.233986 0.209163 0.920211
v 0.227908 0.210126 0.920229
v 0.221826 0.211062 0.920248
v 0.21574 0.211973 0.920266
v 0.209651 0.21286 0.920284
v 0.203558 0.21372 0.920293
v 0.197461 0.214555 0.920311
v 0.191361 0.215365 0.920321
v 0.185258 0.216149 0.920339
v 0.179151 0.216907 0.920348
v 0.173041 0.21764 0.920366
v 0.166929 0.218347 0.920375
v 0.160813 0.219029 0.920384
v 0.154695 0.219685 0.920403
v 0.148573 0.220315 0.920412
v 0.14245 0.220919 0.920421
v 0.136324 0.221499 0.92043
v 0.130195 0.222052 0.920439
v 0.124065 0.222579 0.920448
v 0.117931 0.223082 0.920457
v 0.111796 0.223558 0.920466
v 0.105659 0.224008 0.920476
v 0.0995202 0.224433 0.920485
v 0.0933804 0.224832 0.920485
v 0.0872379 0.225206 0.920494
v 0.0810945 0.225553 0.920503
v 0.0749493 0.225875 0.920503
v 0.0688032 0.226172 0.920512
v 0.0626552 0.226443 0.920521
v 0.0565063 0.226687 0.920521
v 0.0503575 0.226906 0.920521
v 0.0442068 0.227099 0.92053
v 0.0380552 0.227267 0.92053
v 0.0319035 0.227408 0.92053
v 0.025751 0.227524 0.920539
v 0.0195985 0.227615 0.920539
v 0.0134451 0.227679 0.920539
v 0.00729163 0.227718 0.920539
v 0.00113819 0.22773 0.920539
v -0.00501524 0.227718 0.920539
v -0.0111687 0.227679 0.920539
v -0.0173212 0.227615 0.920539
v -0.0234746 0.227524 0.920539
v -0.0296272 0.227408 0.92053
v -0.0357788 0.227267 0.92053
v -0.0419295 0.227099 0.92053
v -0.0480802 0.226906 0.920521
v -0.05423 0.226687 0.920521
v -0.0603788 0.226443 0.920521
v -0.0665259 0.226172 0.920512
v -0.072672 0.225875 0.920503
v -0.0788172 0.225553 0.920503
v -0.0849616 0.225206 0.920494
v -0.0911031 0.224832 0.920485
v -0.0972438 0.224433 0.920485
v -0.103383 0.224008 0.920476
v -0.10952 0.223558 0.920466
v -0.115655 0.223082 0.920457
v -0.121787 0.222579 0.920448
v -0.127918 0.222052 0.920439
v -0.134047 0.221499 0.92043
v -0.140173 0.220919 0.920421
v -0.146297 0.220315 0.920412
v -0.152418 0.219685 0.920403
v -0.158536 0.219029 0.920384
v -0.164652 0.218347 0.920375
v -0.170765 0.21764 0.920366
v -0.176875 0.216907 0.920348
v -0.182981 0.216149 0.920339
v -0.189084 0.215365 0.920321
v -0.195184 0.214555 0.920311
v -0.201281 0.213721 0.920293
v -0.207374 0.21286 0.920284
v -0.213463 0.211974 0.920266
v -0.219549 0.211062 0.920248
v -0.225631 0.210126 0.920229
v -0.231708 0.209163 0.920211
v -0.237781 0.208175 0.920202
v -0.243851 0.207162 0.920184
v -0.249917 0.206123 0.920165
v -0.255977 0.205058 0.920147
v -0.262033 0.203969 0.920129
v -0.268085 0.202854 0.920102
v -0.274132 0.201714 0.920083
v -0.280174 0.200548 0.920065
v -0.286211 0.199357 0.920047
v -0.292243 0.198142 0.920019
v -0.298271 0.1969 0.920001
v -0.304292 0.195634 0.919983
v 0.304284 0.184881 0.919983
v 0.298307 0.186138 0.920001
v 0.292325 0.187371 0.920029
v 0.286339 0.188577 0.920047
v 0.280347 0.189759 0.920065
v 0.274349 0.190916 0.920092
v 0.268348 0.192047 0.920111
v 0.262341 0.193154 0.920129
v 0.25633 0.194235 0.920147
v 0.250315 0.195292 0.920165
v 0.244295 0.196323 0.920184
v 0.238271 0.197328 0.920202
v 0.232243 0.198309 0.92022
v 0.226211 0.199264 0.920238
v 0.220175 0.200195 0.920248
v 0.214134 0.201099 0.920266
v 0.20809 0.201978 0.920284
v 0.202044 0.202832 0.920293
v 0.195992 0.203661 0.920311
v 0.189938 0.204465 0.920321
v 0.18388 0.205243 0.920339
v 0.177819 0.205995 0.920348
v 0.171755 0.206723 0.920366
v 0.165689 0.207424 0.920375
v 0.159618 0.208101 0.920384
v 0.153546 0.208752 0.920403
v 0.147471 0.209378 0.920412
v 0.141393 0.209978 0.920421
v 0.135313 0.210552 0.92043
v 0.129229 0.211101 0.920439
v 0.123144 0.211625 0.920448
v 0.117058 0.212124 0.920457
v 0.110969 0.212596 0.920466
v 0.104877 0.213043 0.920476
v 0.0987842 0.213465 0.920485
v 0.09269 0.213861 0.920485
v 0.0865941 0.214232 0.920494
v 0.0804963 0.214577 0.920503
v 0.0743966 0.214896 0.920503
v 0.068297 0.215191 0.920512
v 0.0621946 0.215459 0.920521
v 0.0560923 0.215703 0.920521
v 0.049989 0.21592 0.920521
v 0.0438848 0.216111 0.92053
v 0.0377797 0.216277 0.92053
v 0.0316737 0.216419 0.92053
v 0.0255668 0.216533 0.920539
v 0.0194608 0.216623 0.920539
v 0.0133529 0.216687 0.920539
v 0.00724603 0.216725 0.920539
v 0.00113819 0.216738 0.920539
v -0.00496873 0.216725 0.920539
v -0.0110766 0.216687 0.920539
v -0.0171835 0.216623 0.920539
v -0.0232904 0.216533 0.920539
v -0.0293964 0.216419 0.92053
v -0.0355024 0.216278 0.92053
v -0.0416075 0.216111 0.92053
v -0.0477117 0.21592 0.920521
v -0.0538159 0.215703 0.920521
v -0.0599183 0.215459 0.920521
v -0.0660197 0.215191 0.920512
v -0.0721202 0.214896 0.920503
v -0.078219 0.214577 0.920503
v -0.0843168 0.214232 0.920494
v -0.0904127 0.213861 0.920485
v -0.0965078 0.213465 0.920485
v -0.1026 0.213043 0.920476
v -0.108692 0.212596 0.920466
v -0.114781 0.212124 0.920457
v -0.120868 0.211625 0.920448
v -0.126953 0.211101 0.920439
v -0.133035 0.210552 0.92043
v -0.139116 0.209978 0.920421
v -0.145194 0.209378 0.920412
v -0.151269 0.208752 0.920403
v -0.157342 0.208101 0.920384
v -0.163411 0.207424 0.920375
v -0.169479 0.206723 0.920366
v -0.175542 0.205995 0.920348
v -0.181603 0.205243 0.920339
v -0.187661 0.204465 0.920321
v -0.193715 0.203661 0.920311
v -0.199766 0.202832 0.920293
v -0.205814 0.201978 0.920284
v -0.211858 0.201099 0.920266
v -0.217897 0.200195 0.920248
v -0.223934 0.199264 0.920238
v -0.229966 0.198309 0.92022
v -0.235995 0.197329 0.920202
v -0.242019 0.196323 0.920184
v -0.248038 0.195292 0.920165
v -0.254054 0.194235 0.920147
v -0.260065 0.193155 0.920129
v -0.266071 0.192047 0.920111
v -0.272073 0.190916 0.920092
v -0.278069 0.189759 0.920065
v -0.284061 0.188577 0.920047
v -0.290049 0.187371 0.920029
v -0.29603 0.186138 0.920001
v -0.302007 0.184881 0.919983
v 0.307142 0.195573 1.07788
v 0.301109 0.196842 1.07791
v 0.29507 0.198086 1.07793
v 0.289027 0.199304 1.07795
v 0.282979 0.200497 1.07797
v 0.276926 0.201665 1.07799
v 0.270867 0.202808 1.07801
v 0.264804 0.203925 1.07803
v 0.258736 0.205016 1.07805
v 0.252665 0.206083 1.07806
v 0.246588 0.207123 1.07808
v 0.240507 0.208138 1.0781
v 0.234422 0.209128 1.07812
v 0.228333 0.210092 1.07814
v 0.22224 0.211031 1.07816
v 0.216143 0.211944 1.07817
v 0.210042 0.212832 1.07818
v 0.203937 0.213694 1.0782
v 0.197829 0.214531 1.07822
v 0.191718 0.215342 1.07823
v 0.185604 0.216127 1.07825
v 0.179485 0.216886 1.07826
v 0.173364 0.217621 1.07827
v 0.16724 0.218329 1.07828
v 0.161113 0.219012 1.07829
v 0.154983 0.219669 1.0783
v 0.14885 0.220301 1.07832
v 0.142715 0.220907 1.07833
v 0.136578 0.221487 1.07834
v 0.130437 0.222041 1.07835
v 0.124295 0.222569 1.07836
v 0.11815 0.223073 1.07837
v 0.112004 0.22355 1.07837
v 0.105855 0.224001 1.07838
v 0.0997053 0.224427 1.07838
v 0.0935528 0.224827 1.07839
v 0.0873994 0.225201 1.0784
v 0.0812441 0.22555 1.07841
v 0.0750879 0.225872 1.07841
v 0.0689299 0.226169 1.07842
v 0.062771 0.22644 1.07842
v 0.0566103 0.226685 1.07843
v 0.0504496 0.226904 1.07843
v 0.044287 0.227098 1.07844
v 0.0381245 0.227266 1.07844
v 0.031961 0.227408 1.07844
v 0.0257975 0.227524 1.07844
v 0.0196332 0.227615 1.07845
v 0.0134688 0.227679 1.07845
v 0.00730348 0.227718 1.07845
v 0.00113819 0.22773 1.07845
v -0.00502619 0.227718 1.07845
v -0.0111915 0.227679 1.07845
v -0.0173559 0.227615 1.07845
v -0.0235202 0.227524 1.07844
v -0.0296846 0.227408 1.07844
v -0.0358481 0.227266 1.07844
v -0.0420106 0.227098 1.07844
v -0.0481723 0.226904 1.07843
v -0.0543339 0.226685 1.07843
v -0.0604937 0.22644 1.07842
v -0.0666526 0.226169 1.07842
v -0.0728106 0.225872 1.07841
v -0.0789677 0.22555 1.07841
v -0.085123 0.225201 1.0784
v -0.0912764 0.224827 1.07839
v -0.097428 0.224427 1.07838
v -0.103579 0.224001 1.07838
v -0.109727 0.22355 1.07837
v -0.115874 0.223073 1.07837
v -0.122018 0.22257 1.07836
v -0.128161 0.222041 1.07835
v -0.1343 0.221487 1.07834
v -0.140438 0.220907 1.07833
v -0.146573 0.220301 1.07832
v -0.152706 0.219669 1.0783
v -0.158836 0.219012 1.07829
v -0.164963 0.218329 1.07828
v -0.171087 0.217621 1.07827
v -0.177208 0.216886 1.07826
v -0.183326 0.216127 1.07825
v -0.189441 0.215342 1.07823
v -0.195553 0.214531 1.07822
v -0.201661 0.213694 1.0782
v -0.207765 0.212832 1.07818
v -0.213865 0.211944 1.07817
v -0.219963 0.211031 1.07816
v -0.226056 0.210092 1.07814
v -0.232145 0.209128 1.07812
v -0.23823 0.208138 1.0781
v -0.244311 0.207123 1.07808
v -0.250387 0.206083 1.07806
v -0.25646 0.205016 1.07805
v -0.262527 0.203925 1.07803
v -0.268591 0.202808 1.07801
v -0.274648 0.201666 1.07799
v -0.280702 0.200497 1.07797
v -0.28675 0.199304 1.07795
v -0.292794 0.198086 1.07793
v -0.298832 0.196842 1.07791
v -0.304865 0.195573 1.07788
v 0.304856 0.184821 1.07789
v 0.298869 0.18608 1.07791
v 0.292876 0.187315 1.07793
v 0.286878 0.188524 1.07795
v 0.280874 0.189708 1.07797
v 0.274866 0.190867 1.07799
v 0.268853 0.192001 1.07801
v 0.262835 0.19311 1.07804
v 0.256813 0.194193 1.07806
v 0.250786 0.195251 1.07807
v 0.244755 0.196284 1.07809
v 0.238719 0.197292 1.07811
v 0.23268 0.198274 1.07812
v 0.226636 0.199231 1.07814
v 0.220589 0.200163 1.07816
v 0.214537 0.201069 1.07817
v 0.208482 0.20195 1.07818
v 0.202423 0.202807 1.0782
v 0.196361 0.203637 1.07822
v 0.190295 0.204442 1.07823
v 0.184225 0.205221 1.07825
v 0.178153 0.205975 1.07826
v 0.172078 0.206704 1.07827
v 0.166 0.207407 1.07828
v 0.159918 0.208085 1.07829
v 0.153834 0.208737 1.0783
v 0.147747 0.209363 1.07832
v 0.141658 0.209965 1.07833
v 0.135566 0.210541 1.07834
v 0.129472 0.211091 1.07835
v 0.123375 0.211616 1.07836
v 0.117276 0.212115 1.07837
v 0.111176 0.212588 1.07837
v 0.105074 0.213037 1.07838
v 0.0989693 0.213459 1.07838
v 0.0928633 0.213856 1.07839
v 0.0867555 0.214227 1.0784
v 0.0806458 0.214573 1.07841
v 0.0745353 0.214894 1.07841
v 0.0684238 0.215188 1.07842
v 0.0623105 0.215457 1.07842
v 0.0561962 0.2157 1.07843
v 0.0500811 0.215918 1.07843
v 0.0439651 0.21611 1.07844
v 0.037849 0.216277 1.07844
v 0.0317312 0.216418 1.07844
v 0.0256133 0.216533 1.07844
v 0.0194945 0.216623 1.07845
v 0.0133767 0.216687 1.07845
v 0.00725697 0.216725 1.07845
v 0.00113819 0.216738 1.07845
v -0.00498058 0.216725 1.07845
v -0.0110994 0.216687 1.07845
f 352 150 251 
f 49 251 150 
f 353 151 352 
f 150 352 151 
f 354 152 353 
f 151 353 152 
f 355 153 354 
f 152 354 153 
f 356 154 355 
f 153 355 154 
f 357 155 356 
f 154 356 155 
f 358 156 357 
f 155 357 156 
f 359 157 358 
f 156 358 157 
f 360 158 359 
f 157 359 158 
f 361 159 360 
f 158 360 159 
f 362 160 361 
f 159 361 160 
f 363 161 362 
f 160 362 161 
f 364 162 363 
f 161 363 162 
f 365 163 364 
f 162 364 163 
f 366 164 365 
f 163 365 164 
f 367 165 366 
f 164 366 165 
f 368 166 367 
f 165 367 166 
f 369 167 368 
f 166 368 167 
f 370 168 369 
f 167 369 168 
f 371 169 370 
f 168 370 169 
f 372 170 371 
f 169 371 170 
f 373 171 372 
f 170 372 171 
f 374 172 373 
f 171 373 172 
f 375 173 374 
f 172 374 173 
f 376 174 375 
f 173 375 174 
f 377 175 376 
f 174 376 175 
f 378 176 377 
f 175 377 176 
f 379 177 378 
f 176 378 177 
f 380 178 379 
f 177 379 178 
f 381 179 380 
f 178 380 179 
f 382 180 381 
f 179 381 180 
f 383 181 382 
f 180 382 181 
f 384 182 383 
f 181 383 182 
f 385 183 384 
f 182 384 183 
f 386 184 385 
f 183 385 184 
f 387 185 386 
f 184 386 185 
f 388 186 387 
f 185 387 186 
f 389 187 388 
f 186 388 187 
f 390 188 389 
f 187 389 188 
f 391 189 390 
f 188 390 189 
f 392 190 391 
f 189 391 190 
f 393 191 392 
f 190 392 191 
f 394 192 393 
f 191 393 192 
f 395 193 394 
f 192 394 193 
f 396 194 395 
f 193 395 194 
f 397 195 396 
f 194 396 195 
f 398 196 397 
f 195 397 196 
f 399 197 398 
f 196 398 197 
f 400 198 399 
f 197 399 198 
f 401 199 400 
f 198 400 199 
f 402 200 401 
f 199 401 200 
f 403 201 402 
f 200 402 201 
f 404 202 403 
f 201 403 202 
f 1 203 404 
f 202 404 203 
f 2 204 1 
f 203 1 204 
f 3 205 2 
f 204 2 205 
f 4 206 3 
f 205 3 206 
f 5 207 4 
f 206 4 207 
f 6 208 5 
f 207 5 208 
f 7 209 6 
f 208 6 209 
f 8 210 7 
f 209 7 210 
f 9 211 8 
f 210 8 211 
f 10 212 9 
f 211 9 212 
f 11 213 10 
f 212 10 213 
f 12 214 11 
f 213 11 214 
f 13 215 12 
f 214 12 215 
f 14 216 13 
f 215 13 216 
f 15 217 14 
f 216 14 217 
f 16 218 15 
f 217 15 218 
f 17 219 16 
f 218 16 219 
f 18 220 17 
f 219 17 220 
f 19 221 18 
f 220 18 221 
f 20 222 19 
f 221 19 222 
f 21 223 20 
f 222 20 223 
f 22 224 21 
f 223 21 224 
f 23 225 22 
f 224 22 225 
f 24 226 23 
f 225 23 226 
f 25 227 24 
f 226 24 227 
f 26 228 25 
f 227 25 228 
f 27 229 26 
f 228 26 229 
f 28 230 27 
f 229 27 230 
f 29 231 28 
f 230 28 231 
f 30 232 29 
f 231 29 232 
f 31 233 30 
f 232 30 233 
f 32 234 31 
f 233 31 234 
f 33 235 32 
f 234 32 235 
f 34 236 33 
f 235 33 236 
f 35 237 34 
f 236 34 237 
f 36 238 35 
f 237 35 238 
f 37 239 36 
f 238 36 239 
f 38 240 37 
f 239 37 240 
f 39 241 38 
f 240 38 241 
f 40 242 39 
f 241 39 242 
f 41 243 40 
f 242 40 243 
f 42 244 41 
f 243 41 244 
f 43 245 42 
f 244 42 245 
f 44 246 43 
f 245 43 246 
f 45 247 44 
f 246 44 247 
f 46 248 45 
f 247 45 248 
f 47 249 46 
f 248 46 249 
f 48 250 47 
f 249 47 250 
f 351 149 48 
f 250 48 149 
f 350 148 351 
f 149 351 148 
f 349 147 350 
f 148 350 147 
f 348 146 349 
f 147 349 146 
f 347 145 348 
f 146 348 145 
f 346 144 347 
f 145 347 144 
f 345 143 346 
f 144 346 143 
f 344 142 345 
f 143 345 142 
f 343 141 344 
f 142 344 141 
f 342 140 343 
f 141 343 140 
f 341 139 342 
f 140 342 139 
f 340 138 341 
f 139 341 138 
f 339 137 340 
f 138 340 137 
f 338 136 339 
f 137 339 136 
f 337 135 338 
f 136 338 135 
f 336 134 337 
f 135 337 134 
f 335 133 336 
f 134 336 133 
f 334 132 335 
f 133 335 132 
f 333 131 334 
f 132 334 131 
f 332 130 333 
f 131 333 130 
f 331 129 332 
f 130 332 129 
f 330 128 331 
f 129 331 128 
f 329 127 330 
f 128 330 127 
f 328 126 329 
f 127 329 126 
f 327 125 328 
f 126 328 125 
f 326 124 327 
f 125 327 124 
f 325 123 326 
f 124 326 123 
f 324 122 325 
f 123 325 122 
f 323 121 324 
f 122 324 121 
f 322 120 323 
f 121 323 120 
f 321 119 322 
f 120 322 119 
f 320 118 321 
f 119 321 118 
f 319 117 320 
f 118 320 117 
f 318 116 319 
f 117 319 116 
f 317 115 318 
f 116 318 115 
f 316 114 317 
f 115 317 114 
f 315 113 316 
f 114 316 113 
f 314 112 315 
f 113 315 112 
f 313 111 314 
f 112 314 111 
f 312 110 313 
f 111 313 110 
f 311 109 312 
f 110 312 109 
f 310 108 311 
f 109 311 108 
f 309 107 310 
f 108 310 107 
f 308 106 309 
f 107 309 106 
f 307 105 308 
f 106 308 105 
f 306 104 307 
f 105 307 104 
f 305 103 306 
f 104 306 103 
f 304 102 305 
f 103 305 102 
f 303 101 304 
f 102 304 101 
f 302 100 303 
f 101 303 100 
f 301 99 302 
f 100 302 99 
f 300 98 301 
f 99 301 98 
f 299 97 300 
f 98 300 97 
f 298 96 299 
f 97 299 96 
f 297 95 298 
f 96 298 95 
f 296 94 297 
f 95 297 94 
f 295 93 296 
f 94 296 93 
f 294 92 295 
f 93 295 92 
f 293 91 294 
f 92 294 91 
f 292 90 293 
f 91 293 90 
f 291 89 292 
f 90 292 89 
f 290 88 291 
f 89 291 88 
f 289 87 290 
f 88 290 87 
f 288 86 289 
f 87 289 86 
f 287 85 288 
f 86 288 85 
f 286 84 287 
f 85 287 84 
f 285 83 286 
f 84 286 83 
f 284 82 285 
f 83 285 82 
f 283 81 284 
f 82 284 81 
f 282 80 283 
f 81 283 80 
f 281 79 282 
f 80 282 79 
f 280 78 281 
f 79 281 78 
f 279 77 280 
f 78 280 77 
f 278 76 279 
f 77 279 76 
f 277 75 278 
f 76 278 75 
f 276 74 277 
f 75 277 74 
f 275 73 276 
f 74 276 73 
f 274 72 275 
f 73 275 72 
f 273 71 274 
f 72 274 71 
f 272 70 273 
f 71 273 70 
f 271 69 272 
f 70 272 69 
f 270 68 271 
f 69 271 68 
f 269 67 270 
f 68 270 67 
f 268 66 269 
f 67 269 66 
f 267 65 268 
f 66 268 65 
f 266 64 267 
f 65 267 64 
f 265 63 266 
f 64 266 63 
f 264 62 265 
f 63 265 62 
f 263 61 264 
f 62 264 61 
f 262 60 263 
f 61 263 60 
f 261 59 262 
f 60 262 59 
f 260 58 261 
f 59 261 58 
f 259 57 260 
f 58 260 57 
f 258 56 259 
f 57 259 56 
f 257 55 258 
f 56 258 55 
f 256 54 257 
f 55 257 54 
f 255 53 256 
f 54 256 53 
f 254 52 255 
f 53 255 52 
f 253 51 254 
f 52 254 51 
f 252 50 253 
f 51 253 50 
f 251 49 252 
f 50 252 49 
f 47 350 48 
f 351 48 350 
f 46 349 47 
f 350 47 349 
f 45 348 46 
f 349 46 348 
f 44 347 45 
f 348 45 347 
f 43 346 44 
f 347 44 346 
f 42 345 43 
f 346 43 345 
f 41 344 42 
f 345 42 344 
f 40 343 41 
f 344 41 343 
f 39 342 40 
f 343 40 342 
f 38 341 39 
f 342 39 341 
f 37 340 38 
f 341 38 340 
f 36 339 37 
f 340 37 339 
f 35 338 36 
f 339 36 338 
f 34 337 35 
f 338 35 337 
f 33 336 34 
f 337 34 336 
f 32 335 33 
f 336 33 335 
f 31 334 32 
f 335 32 334 
f 30 333 31 
f 334 31 333 
f 29 332 30 
f 333 30 332 
f 28 331 29 
f 332 29 331 
f 27 330 28 
f 331 28 330 
f 26 329 27 
f 330 27 329 
f 25 328 26 
f 329 26 328 
f 24 327 25 
f 328 25 327 
f 23 326 24 
f 327 24 326 
f 22 325 23 
f 326 23 325 
f 21 324 22 
f 325 22 324 
f 20 323 21 
f 324 21 323 
f 19 322 20 
f 323 20 322 
f 18 321 19 
f 322 19 321 
f 17 320 18 
f 321 18 320 
f 16 319 17 
f 320 17 319 
f 15 318 16 
f 319 16 318 
f 14 317 15 
f 318 15 317 
f 13 316 14 
f 317 14 316 
f 12 315 13 
f 316 13 315 
f 11 314 12 
f 315 12 314 
f 10 313 11 
f 314 11 313 
f 9 312 10 
f 313 10 312 
f 8 311 9 
f 312 9 311 
f 7 310 8 
f 311 8 310 
f 6 309 7 
f 310 7 309 
f 5 308 6 
f 309 6 308 
f 4 307 5 
f 308 5 307 
f 3 306 4 
f 307 4 306 
f 2 305 3 
f 306 3 305 
f 1 304 2 
f 305 2 304 
f 404 303 1 
f 304 1 303 
f 403 302 404 
f 303 404 302 
f 402 301 403 
f 302 403 301 
f 401 300 402 
f 301 402 300 
f 400 299 401 
f 300 401 299 
f 399 298 400 
f 299 400 298 
f 398 297 399 
f 298 399 297 
f 397 296 398 
f 297 398 296 
f 396 295 397 
f 296 397 295 
f 395 294 396 
f 295 396 294 
f 394 293 395 
f 294 395 293 
f 393 292 394 
f 293 394 292 
f 392 291 393 
f 292 393 291 
f 391 290 392 
f 291 392 290 
f 390 289 391 
f 290 391 289 
f 389 288 390 
f 289 390 288 
f 388 287 389 
f 288 389 287 
f 387 286 388 
f 287 388 286 
f 386 285 387 
f 286 387 285 
f 385 284 386 
f 285 386 284 
f 384 283 385 
f 284 385 283 
f 383 282 384 
f 283 384 282 
f 382 281 383 
f 282 383 281 
f 381 280 382 
f 281 382 280 
f 380 279 381 
f 280 381 279 
f 379 278 380 
f 279 380 278 
f 378 277 379 
f 278 379 277 
f 377 276 378 
f 277 378 276 
f 376 275 377 
f 276 377 275 
f 375 274 376 
f 275 376 274 
f 374 273 375 
f 274 375 273 
f 373 272 374 
f 273 374 272 
f 372 271 373 
f 272 373 271 
f 371 270 372 
f 271 372 270 
f 370 269 371 
f 270 371 269 
f 369 268 370 
f 269 370 268 
f 368 267 369 
f 268 369 267 
f 367 266 368 
f 267 368 266 
f 366 265 367 
f 266 367 265 
f 365 264 366 
f 265 366 264 
f 364 263 365 
f 264 365 263 
f 363 262 364 
f 263 364 262 
f 362 261 363 
f 262 363 261 
f 361 260 362 
f 261 362 260 
f 360 259 361 
f 260 361 259 
f 359 258 360 
f 259 360 258 
f 358 257 359 
f 258 359 257 
f 357 256 358 
f 257 358 256 
f 356 255 357 
f 256 357 255 
f 355 254 356 
f 255 356 254 
f 354 253 355 
f 254 355 253 
f 353 252 354 
f 253 354 252 
f 352 251 353 
f 252 353 251 
f 149 148 250 
f 249 250 148 
f 148 147 249 
f 248 249 147 
f 147 146 248 
f 247 248 146 
f 146 145 247 
f 246 247 145 
f 145 144 246 
f 245 246 144 
f 144 143 245 
f 244 245 143 
f 143 142 244 
f 243 244 142 
f 142 141 243 
f 242 243 141 
f 141 140 242 
f 241 242 140 
f 140 139 241 
f 240 241 139 
f 139 138 240 
f 239 240 138 
f 138 137 239 
f 238 239 137 
f 137 136 238 
f 237 238 136 
f 136 135 237 
f 236 237 135 
f 135 134 236 
f 235 236 134 
f 134 133 235 
f 234 235 133 
f 133 132 234 
f 233 234 132 
f 132 131 233 
f 232 233 131 
f 131 130 232 
f 231 232 130 
f 130 129 231 
f 230 231 129 
f 129 128 230 
f 229 230 128 
f 128 127 229 
f 228 229 127 
f 127 126 228 
f 227 228 126 
f 126 125 227 
f 226 227 125 
f 125 124 226 
f 225 226 124 
f 124 123 225 
f 224 225 123 
f 123 122 224 
f 223 224 122 
f 122 121 223 
f 222 223 121 
f 121 120 222 
f 221 222 120 
f 120 119 221 
f 220 221 119 
f 119 118 220 
f 219 220 118 
f 118 117 219 
f 218 219 117 
f 117 116 218 
f 217 218 116 
f 116 115 217 
f 216 217 115 
f 115 114 216 
f 215 216 114 
f 114 113 215 
f 214 215 113 
f 113 112 214 
f 213 214 112 
f 112 111 213 
f 212 213 111 
f 111 110 212 
f 211 212 110 
f 110 109 211 
f 210 211 109 
f 109 108 210 
f 209 210 108 
f 108 107 209 
f 208 209 107 
f 107 106 208 
f 207 208 106 
f 106 105 207 
f 206 207 105 
f 105 104 206 
f 205 206 104 
f 104 103 205 
f 204 205 103 
f 103 102 204 
f 203 204 102 
f 102 101 203 
f 202 203 101 
f 101 100 202 
f 201 202 100 
f 100 99 201 
f 200 201 99 
f 99 98 200 
f 199 200 98 
f 98 97 199 
f 198 199 97 
f 97 96 198 
f 197 198 96 
f 96 95 197 
f 196 197 95 
f 95 94 196 
f 195 196 94 
f 94 93 195 
f 194 195 93 
f 93 92 194 
f 193 194 92 
f 92 91 193 
f 192 193 91 
f 91 90 192 
f 191 192 90 
f 90 89 191 
f 190 191 89 
f 89 88 190 
f 189 190 88 
f 88 87 189 
f 188 189 87 
f 87 86 188 
f 187 188 86 
f 86 85 187 
f 186 187 85 
f 85 84 186 
f 185 186 84 
f 84 83 185 
f 184 185 83 
f 83 82 184 
f 183 184 82 
f 82 81 183 
f 182 183 81 
f 81 80 182 
f 181 182 80 
f 80 79 181 
f 180 181 79 
f 79 78 180 
f 179 180 78 
f 78 77 179 
f 178 179 77 
f 77 76 178 
f 177 178 76 
f 76 75 177 
f 176 177 75 
f 75 74 176 
f 175 176 74 
f 74 73 175 
f 174 175 73 
f 73 72 174 
f 173 174 72 
f 72 71 173 
f 172 173 71 
f 71 70 172 
f 171 172 70 
f 70 69 171 
f 170 171 69 
f 69 68 170 
f 169 170 68 
f 68 67 169 
f 168 169 67 
f 67 66 168 
f 167 168 66 
f 66 65 167 
f 166 167 65 
f 65 64 166 
f 165 166 64 
f 64 63 165 
f 164 165 63 
f 63 62 164 
f 163 164 62 
f 62 61 163 
f 162 163 61 
f 61 60 162 
f 161 162 60 
f 60 59 161 
f 160 161 59 
f 59 58 160 
f 159 160 58 
f 58 57 159 
f 158 159 57 
f 57 56 158 
f 157 158 56 
f 56 55 157 
f 156 157 55 
f 55 54 156 
f 155 156 54 
f 54 53 155 
f 154 155 53 
f 53 52 154 
f 153 154 52 
f 52 51 153 
f 152 153 51 
f 51 50 152 
f 151 152 50 
f 50 49 151 
f 150 151 49 
