# NV = 198 NF = 392
v -0.292205 0.178822 0.905939
v -0.291823 0.178448 0.902577
v -0.291686 0.178315 0.898396
v -0.291686 0.178315 0.71714
v -0.300124 0.186571 1.09405
v -0.297446 0.186799 1.09162
v -0.294577 0.185643 1.08711
v -0.294577 0.185643 0.915227
v -0.293283 0.185122 0.913916
v -0.292042 0.184623 0.912469
v -0.290908 0.184166 0.910748
v -0.289933 0.183773 0.908617
v -0.289171 0.183466 0.905939
v -0.288675 0.183266 0.902577
v -0.288497 0.183194 0.898396
v -0.288497 0.183194 0.71714
v -0.299449 0.187605 1.09405
v -0.297059 0.188838 1.09162
v -0.293967 0.188864 1.08711
v -0.293967 0.188864 0.915227
v -0.292572 0.188877 0.913916
v -0.291235 0.188889 0.912469
v -0.290012 0.188899 0.910748
v -0.288962 0.188908 0.908617
v -0.28814 0.188916 0.905939
v -0.287604 0.18892 0.902577
v -0.287414 0.188922 0.898396
v -0.287414 0.188922 0.71714
v -0.299219 0.188819 1.09405
v -0.297482 0.19087 1.09162
v -0.294633 0.192076 1.08711
v -0.294633 0.192076 0.915227
v -0.293348 0.192619 0.913916
v -0.292117 0.19314 0.912469
v -0.290991 0.193617 0.910748
v -0.290023 0.194027 0.908617
v -0.289266 0.194347 0.905939
v -0.288774 0.194556 0.902577
v -0.288598 0.194629 0.898396
v -0.288598 0.194629 0.71714
v -0.29947 0.190028 1.09405
v -0.298646 0.192587 1.09162
v -0.296474 0.194789 1.08711
v -0.296474 0.194789 0.915227
v -0.295494 0.195781 0.913916
v -0.294555 0.196733 0.912469
v -0.293696 0.197604 0.910748
v -0.292957 0.198351 0.908617
v -0.29238 0.198936 0.905939
v -0.292004 0.199317 0.902577
v -0.29187 0.199453 0.898396
v -0.29187 0.199453 0.71714
v -0.300163 0.191051 1.09405
v -0.300379 0.19373 1.09162
v -0.299211 0.196594 1.08711
v -0.299211 0.196594 0.915227
v -0.298685 0.197885 0.913916
v -0.298179 0.199124 0.912469
v -0.297718 0.200257 0.910748
v -0.29732 0.20123 0.908617
v -0.29701 0.20199 0.905939
v -0.296809 0.202486 0.902577
v -0.296737 0.202663 0.898396
v -0.296737 0.202663 0.71714
v -0.301195 0.191731 1.09405
v -0.302553 0.180241 1.0068
v -0.302499 0.194125 1.09162
v -0.302508 0.191966 1.09405
v -0.302564 0.188823 1.09475
v -0.303047 0.188796 0.71686
v -0.302458 0.203772 0.71714
v -0.302458 0.203772 0.898396
v -0.302458 0.20358 0.902577
v -0.302458 0.203046 0.905939
v -0.302458 0.202224 0.908617
v -0.302458 0.201173 0.910748
v -0.302458 0.19995 0.912469
v -0.302458 0.198612 0.913916
v -0.302458 0.197218 0.915227
v -0.302458 0.197218 1.08711
v -0.304536 0.19373 1.09162
v -0.303721 0.191731 1.09405
v -0.308179 0.202663 0.71714
v -0.308179 0.202663 0.898396
v -0.308107 0.202486 0.902577
v -0.307905 0.20199 0.905939
v -0.307595 0.20123 0.908617
v -0.307197 0.200257 0.910748
v -0.306736 0.199124 0.912469
v -0.306231 0.197885 0.913916
v -0.305705 0.196594 0.915227
v -0.305705 0.196594 1.08711
v -0.306269 0.192587 1.09162
v -0.304752 0.191051 1.09405
v -0.313045 0.199453 0.71714
v -0.313045 0.199453 0.898396
v -0.312911 0.199317 0.902577
v -0.312536 0.198936 0.905939
v -0.311958 0.198351 0.908617
v -0.31122 0.197604 0.910748
v -0.31036 0.196733 0.912469
v -0.309421 0.195781 0.913916
v -0.308442 0.194789 0.915227
v -0.308442 0.194789 1.08711
v -0.307434 0.19087 1.09162
v -0.305446 0.190028 1.09405
v -0.316318 0.194629 0.71714
v -0.316318 0.194629 0.898396
v -0.316142 0.194556 0.902577
v -0.315649 0.194347 0.905939
v -0.314892 0.194027 0.908617
v -0.313925 0.193617 0.910748
v -0.312798 0.19314 0.912469
v -0.311567 0.192619 0.913916
v -0.310282 0.192076 0.915227
v -0.310282 0.192076 1.08711
v -0.307856 0.188838 1.09162
v -0.305696 0.188819 1.09405
v -0.317502 0.188922 0.71714
v -0.317502 0.188922 0.898396
v -0.317311 0.18892 0.902577
v -0.316776 0.188916 0.905939
v -0.315954 0.188908 0.908617
v -0.314903 0.188899 0.910748
v -0.31368 0.188889 0.912469
v -0.312343 0.188877 0.913916
v -0.310949 0.188864 0.915227
v -0.310949 0.188864 1.08711
v -0.307469 0.186799 1.09162
v -0.305466 0.187605 1.09405
v -0.316418 0.183194 0.71714
v -0.316418 0.183194 0.898396
v -0.31624 0.183266 0.902577
v -0.315744 0.183466 0.905939
v -0.314983 0.183773 0.908617
v -0.314008 0.184166 0.910748
v -0.312873 0.184623 0.912469
v -0.311633 0.185122 0.913916
v -0.310339 0.185643 0.915227
v -0.310339 0.185643 1.08711
v -0.306335 0.185061 1.09162
v -0.304792 0.186571 1.09405
v -0.31323 0.178315 0.71714
v -0.31323 0.178315 0.898396
v -0.313093 0.178448 0.902577
v -0.312711 0.178822 0.905939
v -0.312123 0.179397 0.908617
v -0.311373 0.180132 0.910748
v -0.310498 0.180987 0.912469
v -0.309542 0.181923 0.913916
v -0.308545 0.182898 0.915227
v -0.308545 0.182898 1.08711
v -0.304622 0.183888 1.09162
v -0.303772 0.185873 1.09405
v -0.308421 0.175021 0.71714
v -0.308421 0.175021 0.898396
v -0.308345 0.175197 0.902577
v -0.308135 0.175688 0.905939
v -0.307811 0.176444 0.908617
v -0.307397 0.177409 0.910748
v -0.306916 0.178534 0.912469
v -0.306389 0.179763 0.913916
v -0.30584 0.181046 0.915227
v -0.30584 0.181046 1.08711
v -0.302592 0.183458 1.09162
v -0.302564 0.185617 1.09405
v -0.302719 0.173812 0.71714
v -0.302719 0.173812 0.898396
v -0.302716 0.174003 0.902577
v -0.302709 0.174538 0.905939
v -0.302698 0.17536 0.908617
v -0.302684 0.176411 0.910748
v -0.302668 0.177634 0.912469
v -0.302651 0.178971 0.913916
v -0.302633 0.180365 0.915227
v -0.302633 0.180365 1.08711
v -0.300293 0.183888 1.09162
v -0.299075 0.181046 1.08711
v -0.299075 0.181046 0.915227
v -0.302283 0.180365 0.915227
v -0.298526 0.179763 0.913916
v -0.302264 0.178971 0.913916
v -0.298 0.178534 0.912469
v -0.297518 0.177409 0.910748
v -0.297104 0.176444 0.908617
v -0.29678 0.175688 0.905939
v -0.296571 0.175197 0.902577
v -0.296495 0.175021 0.898396
v -0.296495 0.175021 0.71714
v -0.302079 0.188796 0.71686
v -0.301143 0.185873 1.09405
v -0.298581 0.185061 1.09162
v -0.29637 0.182898 1.08711
v -0.29637 0.182898 0.915227
v -0.295373 0.181923 0.913916
v -0.294417 0.180987 0.912469
v -0.293543 0.180132 0.910748
v -0.292792 0.179397 0.908617
f 190 167 70 
f 70 71 190 
f 182 174 173 
f 176 175 66 
f 182 175 174 
f 182 180 175 
f 180 66 175 
f 180 176 66 
f 54 67 65 
f 68 65 67 
f 65 68 69 
f 71 64 190 
f 64 71 63 
f 72 63 71 
f 63 72 62 
f 73 62 72 
f 62 73 61 
f 74 61 73 
f 61 74 60 
f 75 60 74 
f 60 75 59 
f 76 59 75 
f 59 76 58 
f 77 58 76 
f 58 77 57 
f 78 57 77 
f 57 78 56 
f 79 56 78 
f 56 79 55 
f 80 55 79 
f 55 80 54 
f 67 54 80 
f 42 54 53 
f 65 53 54 
f 53 65 69 
f 64 52 190 
f 52 64 51 
f 63 51 64 
f 51 63 50 
f 62 50 63 
f 50 62 49 
f 61 49 62 
f 49 61 48 
f 60 48 61 
f 48 60 47 
f 59 47 60 
f 47 59 46 
f 58 46 59 
f 46 58 45 
f 57 45 58 
f 45 57 44 
f 56 44 57 
f 44 56 43 
f 55 43 56 
f 43 55 42 
f 54 42 55 
f 30 42 41 
f 53 41 42 
f 41 53 69 
f 52 40 190 
f 40 52 39 
f 51 39 52 
f 39 51 38 
f 50 38 51 
f 38 50 37 
f 49 37 50 
f 37 49 36 
f 48 36 49 
f 36 48 35 
f 47 35 48 
f 35 47 34 
f 46 34 47 
f 34 46 33 
f 45 33 46 
f 33 45 32 
f 44 32 45 
f 32 44 31 
f 43 31 44 
f 31 43 30 
f 42 30 43 
f 18 30 29 
f 41 29 30 
f 29 41 69 
f 40 28 190 
f 28 40 27 
f 39 27 40 
f 27 39 26 
f 38 26 39 
f 26 38 25 
f 37 25 38 
f 25 37 24 
f 36 24 37 
f 24 36 23 
f 35 23 36 
f 23 35 22 
f 34 22 35 
f 22 34 21 
f 33 21 34 
f 21 33 20 
f 32 20 33 
f 20 32 19 
f 31 19 32 
f 19 31 18 
f 30 18 31 
f 6 18 17 
f 29 17 18 
f 17 29 69 
f 28 16 190 
f 16 28 15 
f 27 15 28 
f 15 27 14 
f 26 14 27 
f 14 26 13 
f 25 13 26 
f 13 25 12 
f 24 12 25 
f 12 24 11 
f 23 11 24 
f 11 23 10 
f 22 10 23 
f 10 22 9 
f 21 9 22 
f 9 21 8 
f 20 8 21 
f 8 20 7 
f 19 7 20 
f 7 19 6 
f 18 6 19 
f 192 6 5 
f 17 5 6 
f 5 17 69 
f 16 4 190 
f 4 16 3 
f 15 3 16 
f 3 15 2 
f 14 2 15 
f 2 14 1 
f 13 1 14 
f 1 13 198 
f 12 198 13 
f 198 12 197 
f 11 197 12 
f 197 11 196 
f 10 196 11 
f 196 10 195 
f 9 195 10 
f 195 9 194 
f 8 194 9 
f 194 8 193 
f 7 193 8 
f 193 7 192 
f 6 192 7 
f 177 192 191 
f 5 191 192 
f 191 5 69 
f 4 189 190 
f 189 4 188 
f 3 188 4 
f 188 3 187 
f 2 187 3 
f 187 2 186 
f 1 186 2 
f 186 1 185 
f 198 185 1 
f 185 198 184 
f 197 184 198 
f 184 197 183 
f 196 183 197 
f 183 196 181 
f 195 181 196 
f 181 195 179 
f 194 179 195 
f 179 194 178 
f 193 178 194 
f 178 193 177 
f 192 177 193 
f 165 177 166 
f 191 166 177 
f 166 191 69 
f 189 167 190 
f 167 189 168 
f 188 168 189 
f 168 188 169 
f 187 169 188 
f 169 187 170 
f 186 170 187 
f 170 186 171 
f 185 171 186 
f 171 185 172 
f 184 172 185 
f 172 184 173 
f 183 173 184 
f 173 183 182 
f 181 182 183 
f 182 181 180 
f 179 180 181 
f 180 179 176 
f 178 176 179 
f 176 178 165 
f 177 165 178 
f 82 67 81 
f 67 82 68 
f 69 68 82 
f 70 83 71 
f 84 71 83 
f 71 84 72 
f 85 72 84 
f 72 85 73 
f 86 73 85 
f 73 86 74 
f 87 74 86 
f 74 87 75 
f 88 75 87 
f 75 88 76 
f 89 76 88 
f 76 89 77 
f 90 77 89 
f 77 90 78 
f 91 78 90 
f 78 91 79 
f 92 79 91 
f 79 92 80 
f 81 80 92 
f 80 81 67 
f 94 81 93 
f 81 94 82 
f 69 82 94 
f 70 95 83 
f 96 83 95 
f 83 96 84 
f 97 84 96 
f 84 97 85 
f 98 85 97 
f 85 98 86 
f 99 86 98 
f 86 99 87 
f 100 87 99 
f 87 100 88 
f 101 88 100 
f 88 101 89 
f 102 89 101 
f 89 102 90 
f 103 90 102 
f 90 103 91 
f 104 91 103 
f 91 104 92 
f 93 92 104 
f 92 93 81 
f 106 93 105 
f 93 106 94 
f 69 94 106 
f 70 107 95 
f 108 95 107 
f 95 108 96 
f 109 96 108 
f 96 109 97 
f 110 97 109 
f 97 110 98 
f 111 98 110 
f 98 111 99 
f 112 99 111 
f 99 112 100 
f 113 100 112 
f 100 113 101 
f 114 101 113 
f 101 114 102 
f 115 102 114 
f 102 115 103 
f 116 103 115 
f 103 116 104 
f 105 104 116 
f 104 105 93 
f 118 105 117 
f 105 118 106 
f 69 106 118 
f 70 119 107 
f 120 107 119 
f 107 120 108 
f 121 108 120 
f 108 121 109 
f 122 109 121 
f 109 122 110 
f 123 110 122 
f 110 123 111 
f 124 111 123 
f 111 124 112 
f 125 112 124 
f 112 125 113 
f 126 113 125 
f 113 126 114 
f 127 114 126 
f 114 127 115 
f 128 115 127 
f 115 128 116 
f 117 116 128 
f 116 117 105 
f 130 117 129 
f 117 130 118 
f 69 118 130 
f 70 131 119 
f 132 119 131 
f 119 132 120 
f 133 120 132 
f 120 133 121 
f 134 121 133 
f 121 134 122 
f 135 122 134 
f 122 135 123 
f 136 123 135 
f 123 136 124 
f 137 124 136 
f 124 137 125 
f 138 125 137 
f 125 138 126 
f 139 126 138 
f 126 139 127 
f 140 127 139 
f 127 140 128 
f 129 128 140 
f 128 129 117 
f 142 129 141 
f 129 142 130 
f 69 130 142 
f 70 143 131 
f 144 131 143 
f 131 144 132 
f 145 132 144 
f 132 145 133 
f 146 133 145 
f 133 146 134 
f 147 134 146 
f 134 147 135 
f 148 135 147 
f 135 148 136 
f 149 136 148 
f 136 149 137 
f 150 137 149 
f 137 150 138 
f 151 138 150 
f 138 151 139 
f 152 139 151 
f 139 152 140 
f 141 140 152 
f 140 141 129 
f 154 141 153 
f 141 154 142 
f 69 142 154 
f 70 155 143 
f 156 143 155 
f 143 156 144 
f 157 144 156 
f 144 157 145 
f 158 145 157 
f 145 158 146 
f 159 146 158 
f 146 159 147 
f 160 147 159 
f 147 160 148 
f 161 148 160 
f 148 161 149 
f 162 149 161 
f 149 162 150 
f 163 150 162 
f 150 163 151 
f 164 151 163 
f 151 164 152 
f 153 152 164 
f 152 153 141 
f 166 153 165 
f 153 166 154 
f 69 154 166 
f 70 167 155 
f 168 155 167 
f 155 168 156 
f 169 156 168 
f 156 169 157 
f 170 157 169 
f 157 170 158 
f 171 158 170 
f 158 171 159 
f 172 159 171 
f 159 172 160 
f 173 160 172 
f 160 173 161 
f 174 161 173 
f 161 174 162 
f 175 162 174 
f 162 175 163 
f 176 163 175 
f 163 176 164 
f 165 164 176 
f 164 165 153 
