# NV = 32 NF = 60
v -0.334165 0.208094 -0.0142902
v -0.333527 0.244575 -0.0155689
v -0.333527 0.208094 -0.0155689
v -0.33454 0.244575 -0.0120767
v -0.334398 0.208094 -0.0109586
v -0.334462 0.244575 -0.0132031
v -0.334462 0.208094 -0.0132031
v -0.333944 0.244575 -0.00960333
v -0.333944 0.208094 -0.00960333
v 0.288846 0.244576 0.651564
v -0.30386 0.244575 -0.0302662
v -0.333385 0.244575 -0.00862472
v -0.333385 0.208094 -0.00862472
v -0.31598 0.244575 -0.0311134
v -0.30386 0.208094 -0.0302662
v -0.318674 0.244575 -0.0287723
v -0.327851 0.244575 -0.0207939
v -0.332837 0.244575 -0.0164599
v -0.318674 0.208094 -0.0287723
v -0.327851 0.208094 -0.0207939
v -0.332837 0.208094 -0.0164599
v 0.279668 0.244576 0.659542
v 0.27049 0.244576 0.66752
v 0.261313 0.244576 0.675498
v 0.288846 0.208095 0.651564
v 0.279668 0.208095 0.659542
v 0.27049 0.208095 0.66752
v 0.261313 0.208095 0.675498
v -0.31598 0.208094 -0.0311134
v -0.334398 0.244575 -0.0109586
v -0.33454 0.208094 -0.0120767
v -0.334165 0.244575 -0.0142902
f 11 15 14 
f 15 29 14 
f 15 19 29 
f 14 10 11 
f 12 8 9 
f 13 12 9 
f 32 1 6 
f 7 6 1 
f 4 31 30 
f 5 30 31 
f 18 21 2 
f 3 2 21 
f 30 5 8 
f 9 8 5 
f 2 3 32 
f 1 32 3 
f 6 7 4 
f 31 4 7 
f 25 15 10 
f 11 10 15 
f 25 26 19 
f 15 25 19 
f 27 20 26 
f 19 26 20 
f 9 28 13 
f 31 28 9 
f 21 28 31 
f 27 28 21 
f 20 27 21 
f 1 21 31 
f 3 21 1 
f 7 1 31 
f 5 31 9 
f 24 12 28 
f 13 28 12 
f 24 23 17 
f 12 24 17 
f 6 12 17 
f 30 12 6 
f 8 12 30 
f 4 30 6 
f 2 6 17 
f 32 6 2 
f 18 2 17 
f 22 16 23 
f 17 23 16 
f 22 10 14 
f 16 22 14 
f 28 27 23 
f 24 28 23 
f 26 22 27 
f 23 27 22 
f 26 25 10 
f 22 26 10 
f 18 17 21 
f 20 21 17 
f 17 16 20 
f 19 20 16 
f 16 14 19 
f 29 19 14 
