# NV = 32 NF = 60
v 0.34256 -0.204175 -0.0132031
v 0.34256 -0.167694 -0.0132031
v 0.342043 -0.204175 -0.00960333
v 0.342043 -0.167694 -0.00960333
v 0.341484 -0.204175 -0.00862472
v 0.341484 -0.167694 -0.00862472
v 0.324079 -0.204175 -0.0311134
v 0.311959 -0.167694 -0.0302662
v 0.326773 -0.204175 -0.0287723
v 0.33595 -0.204175 -0.0207939
v 0.340936 -0.204175 -0.0164599
v 0.326773 -0.167694 -0.0287723
v 0.33595 -0.167694 -0.0207939
v 0.340936 -0.167694 -0.0164599
v -0.280747 -0.204175 0.651564
v -0.271569 -0.204175 0.659542
v -0.262392 -0.204175 0.66752
v -0.253215 -0.204175 0.675498
v -0.280747 -0.167694 0.651564
v -0.271569 -0.167694 0.659542
v -0.262392 -0.167694 0.66752
v -0.253215 -0.167694 0.675498
v 0.311959 -0.204175 -0.0302662
v 0.324079 -0.167694 -0.0311134
v 0.342496 -0.204175 -0.0109586
v 0.342639 -0.167694 -0.0120767
v 0.342264 -0.204175 -0.0142902
v 0.342264 -0.167694 -0.0142902
v 0.341626 -0.204175 -0.0155689
v 0.341626 -0.167694 -0.0155689
v 0.342639 -0.204175 -0.0120767
v 0.342496 -0.167694 -0.0109586
f 7 15 23 
f 12 24 8 
f 24 23 8 
f 23 24 7 
f 5 3 4 
f 6 5 4 
f 27 28 1 
f 2 1 28 
f 31 26 25 
f 32 25 26 
f 11 14 29 
f 30 29 14 
f 25 32 3 
f 4 3 32 
f 29 30 27 
f 28 27 30 
f 1 2 31 
f 26 31 2 
f 19 8 15 
f 23 15 8 
f 19 20 12 
f 8 19 12 
f 21 13 20 
f 12 20 13 
f 4 22 6 
f 26 22 4 
f 14 22 26 
f 21 22 14 
f 13 21 14 
f 28 14 26 
f 30 14 28 
f 2 28 26 
f 32 26 4 
f 18 5 22 
f 6 22 5 
f 18 17 10 
f 5 18 10 
f 1 5 10 
f 25 5 1 
f 3 5 25 
f 31 25 1 
f 29 1 10 
f 27 1 29 
f 11 29 10 
f 16 9 17 
f 10 17 9 
f 16 15 7 
f 9 16 7 
f 22 21 17 
f 18 22 17 
f 20 16 21 
f 17 21 16 
f 19 15 20 
f 16 20 15 
f 11 10 14 
f 13 14 10 
f 10 9 13 
f 12 13 9 
f 9 7 12 
f 24 12 7 
