# NV = 58 NF = 112
v -0.259697 -0.249046 0.716076
v -0.259697 -0.248694 0.717459
v -0.259697 -0.247226 0.719868
v -0.259697 -0.242929 0.722122
v -0.259697 0.254126 0.720005
v -0.260034 0.254126 0.720783
v -0.261981 0.254126 0.722194
v -0.261168 0.254126 0.721871
v -0.261066 -0.242376 0.722177
v -0.261981 -0.242198 0.722193
v -0.328111 -0.242198 0.722193
v -0.328111 0.254126 0.722194
v -0.329443 -0.242929 0.722122
v -0.329443 -0.244328 0.721774
v -0.329443 -0.246765 0.720323
v -0.329443 -0.245608 0.721173
v -0.329443 -0.246198 0.720784
v -0.259697 -0.246198 0.720784
v -0.259697 -0.246765 0.720323
v -0.329443 -0.247226 0.719868
v -0.329443 -0.247692 0.719307
v -0.259697 -0.247692 0.719307
v -0.329443 -0.248086 0.718724
v -0.259697 -0.248086 0.718724
v -0.329443 -0.248432 0.718083
v -0.259697 -0.248432 0.718083
v -0.329443 -0.248694 0.717459
v -0.329443 -0.248908 0.716764
v -0.259697 -0.248908 0.716764
v -0.329443 -0.249046 0.716076
v -0.259697 -0.24496 0.721516
v -0.259697 -0.245608 0.721173
v -0.329443 -0.24496 0.721516
v -0.259697 -0.244328 0.721774
v -0.259697 -0.243625 0.721985
v -0.329443 -0.243625 0.721985
v -0.260136 -0.242752 0.722139
v -0.330789 -0.252387 0.693773
v -0.280117 -0.252387 0.641753
v -0.280117 0.253787 0.641753
v -0.330789 0.253787 0.693773
v -0.277942 -0.252387 0.694466
v -0.259064 -0.252387 0.693264
v -0.259064 0.253787 0.693264
v -0.243967 -0.252387 0.674314
v -0.243967 0.253787 0.674314
v -0.259697 0.253787 0.692774
v -0.329443 0.253787 0.692774
v -0.329443 0.253787 0.69379
v -0.329443 -0.249117 0.69379
v -0.259697 -0.249117 0.693304
v -0.259697 0.253787 0.693304
v -0.277942 -0.249117 0.694466
v -0.259697 0.254126 0.692774
v -0.329443 0.254126 0.692774
v -0.329443 0.254126 0.720917
v -0.329443 -0.249117 0.715353
v -0.259697 -0.249117 0.715353
f 57 50 53 
f 53 51 58 
f 1 30 57 
f 10 11 13 
f 13 4 9 
f 17 18 32 
f 36 35 4 
f 14 34 35 
f 33 31 34 
f 16 32 31 
f 29 28 30 
f 2 27 28 
f 26 25 27 
f 24 23 25 
f 22 21 23 
f 3 20 21 
f 19 15 20 
f 18 17 15 
f 11 10 7 
f 20 15 23 
f 15 25 23 
f 15 27 25 
f 15 17 27 
f 17 16 27 
f 16 33 27 
f 33 14 27 
f 14 28 27 
f 14 30 28 
f 14 36 30 
f 36 13 30 
f 13 57 30 
f 13 50 57 
f 13 49 50 
f 13 56 49 
f 56 55 49 
f 55 48 49 
f 8 6 5 
f 5 12 7 
f 5 56 12 
f 5 55 56 
f 5 54 55 
f 55 54 47 
f 3 22 24 
f 24 26 19 
f 26 2 19 
f 2 18 19 
f 2 32 18 
f 2 31 32 
f 2 34 31 
f 2 29 34 
f 29 1 34 
f 1 35 34 
f 1 4 35 
f 1 58 4 
f 58 51 4 
f 51 52 4 
f 52 5 4 
f 52 54 5 
f 52 47 54 
f 42 53 50 
f 50 41 38 
f 50 49 41 
f 42 43 51 
f 43 44 51 
f 44 52 51 
f 46 40 47 
f 40 48 47 
f 40 41 48 
f 41 49 48 
f 47 52 44 
f 43 42 39 
f 42 38 39 
f 46 45 39 
f 46 44 43 
f 40 39 38 
f 53 58 57 
f 57 58 1 
f 6 4 5 
f 8 37 6 
f 37 8 9 
f 4 6 37 
f 9 4 37 
f 13 9 10 
f 32 16 17 
f 4 13 36 
f 35 36 14 
f 34 14 33 
f 31 33 16 
f 30 1 29 
f 28 29 2 
f 27 2 26 
f 25 26 24 
f 23 24 22 
f 21 22 3 
f 20 3 19 
f 15 19 18 
f 11 56 13 
f 56 11 12 
f 7 12 11 
f 9 7 10 
f 7 9 8 
f 23 21 20 
f 5 7 8 
f 47 48 55 
f 24 19 3 
f 50 38 42 
f 51 53 42 
f 47 44 46 
f 39 45 43 
f 39 40 46 
f 43 45 46 
f 38 41 40 
