# NV = 58 NF = 112
v 0.251716 -0.252387 0.674314
v 0.251716 0.253787 0.674314
v 0.267447 0.253787 0.692774
v 0.337191 0.253787 0.692774
v 0.337191 0.253787 0.69379
v 0.337191 -0.249117 0.69379
v 0.267447 -0.249117 0.693304
v 0.267447 0.253787 0.693304
v 0.28569 -0.249117 0.694466
v 0.267447 0.254126 0.692774
v 0.337191 0.254126 0.692774
v 0.337191 0.254126 0.720917
v 0.337191 -0.249117 0.715353
v 0.267447 -0.249117 0.715353
v 0.267447 -0.249046 0.716076
v 0.267447 -0.248694 0.717459
v 0.267447 -0.247226 0.719868
v 0.267447 -0.242929 0.722122
v 0.267447 0.254126 0.720005
v 0.267782 0.254126 0.720783
v 0.26973 0.254126 0.722194
v 0.268918 0.254126 0.721871
v 0.268815 -0.242376 0.722177
v 0.26973 -0.242198 0.722193
v 0.33586 -0.242198 0.722193
v 0.33586 0.254126 0.722194
v 0.337191 -0.242929 0.722122
v 0.337191 -0.244328 0.721774
v 0.337191 -0.246765 0.720323
v 0.337191 -0.245608 0.721173
v 0.337191 -0.246198 0.720784
v 0.267447 -0.246198 0.720784
v 0.267447 -0.246765 0.720323
v 0.337191 -0.247226 0.719868
v 0.337191 -0.247692 0.719307
v 0.267447 -0.247692 0.719307
v 0.337191 -0.248086 0.718724
v 0.267447 -0.248086 0.718724
v 0.337191 -0.248432 0.718083
v 0.267447 -0.248432 0.718083
v 0.337191 -0.248694 0.717459
v 0.337191 -0.248908 0.716764
v 0.267447 -0.248908 0.716764
v 0.337191 -0.249046 0.716076
v 0.267447 -0.24496 0.721516
v 0.267447 -0.245608 0.721173
v 0.337191 -0.24496 0.721516
v 0.267447 -0.244328 0.721774
v 0.267447 -0.243625 0.721985
v 0.337191 -0.243625 0.721985
v 0.267886 -0.242752 0.722139
v 0.338537 -0.252387 0.693773
v 0.287865 -0.252387 0.641753
v 0.287865 0.253787 0.641753
v 0.338537 0.253787 0.693773
v 0.28569 -0.252387 0.694466
v 0.266813 -0.252387 0.693264
v 0.266813 0.253787 0.693264
f 9 6 13 
f 14 7 9 
f 13 44 15 
f 27 25 24 
f 23 18 27 
f 46 32 31 
f 18 49 50 
f 49 48 28 
f 48 45 47 
f 45 46 30 
f 44 42 43 
f 42 41 16 
f 41 39 40 
f 39 37 38 
f 37 35 36 
f 35 34 17 
f 34 29 33 
f 29 31 32 
f 21 24 25 
f 37 29 34 
f 37 39 29 
f 39 41 29 
f 41 31 29 
f 41 30 31 
f 41 47 30 
f 41 28 47 
f 41 42 28 
f 42 44 28 
f 44 50 28 
f 44 27 50 
f 44 13 27 
f 13 6 27 
f 6 5 27 
f 5 12 27 
f 5 11 12 
f 5 4 11 
f 19 20 22 
f 21 26 19 
f 26 12 19 
f 12 11 19 
f 11 10 19 
f 3 10 11 
f 38 36 17 
f 33 40 38 
f 33 16 40 
f 33 32 16 
f 32 46 16 
f 46 45 16 
f 45 48 16 
f 48 43 16 
f 48 15 43 
f 48 49 15 
f 49 18 15 
f 18 14 15 
f 18 7 14 
f 18 8 7 
f 18 19 8 
f 19 10 8 
f 10 3 8 
f 6 9 56 
f 52 55 6 
f 55 5 6 
f 7 57 56 
f 7 58 57 
f 7 8 58 
f 3 54 2 
f 3 4 54 
f 4 55 54 
f 4 5 55 
f 58 8 3 
f 53 56 57 
f 53 52 56 
f 53 1 2 
f 57 58 2 
f 52 53 54 
f 13 14 9 
f 15 14 13 
f 19 18 20 
f 20 51 22 
f 23 22 51 
f 51 20 18 
f 51 18 23 
f 24 23 27 
f 31 30 46 
f 50 27 18 
f 28 50 49 
f 47 28 48 
f 30 47 45 
f 43 15 44 
f 16 43 42 
f 40 16 41 
f 38 40 39 
f 36 38 37 
f 17 36 35 
f 33 17 34 
f 32 33 29 
f 27 12 25 
f 26 25 12 
f 25 26 21 
f 24 21 23 
f 22 23 21 
f 34 35 37 
f 22 21 19 
f 11 4 3 
f 17 33 38 
f 56 52 6 
f 56 9 7 
f 2 58 3 
f 57 1 53 
f 2 54 53 
f 2 1 57 
f 54 55 52 
