# 3ds Max Wavefront OBJ Exporter v0.97b - (c)2007 guruware
# File Created: 11.05.2014 20:24:41

#
# object m4
#

v  -50.0000 -25.0000 0.0000
v  50.0000 -25.0000 0.0000
v  -50.0000 25.0000 0.0000
v  50.0000 25.0000 0.0000
v  -50.0000 -25.0000 1.0000
v  50.0000 -25.0000 1.0000
v  -50.0000 25.0000 1.0000
v  50.0000 25.0000 1.0000
# 8 vertices

g m4
f 1 3 4 
f 4 2 1 
f 5 6 8 
f 8 7 5 
f 1 2 6 
f 6 5 1 
f 2 4 8 
f 8 6 2 
f 4 3 7 
f 7 8 4 
f 3 1 5 
f 5 7 3 
# 12 faces

#
# object m2
#

v  0.0000 -25.0000 25.0000
v  50.0000 -25.0000 25.0000
v  0.0000 25.0000 25.0000
v  50.0000 25.0000 25.0000
v  0.0000 -25.0000 26.0000
v  50.0000 -25.0000 26.0000
v  0.0000 25.0000 26.0000
v  50.0000 25.0000 26.0000
# 8 vertices

g m2
f 9 11 12 
f 12 10 9 
f 13 14 16 
f 16 15 13 
f 9 10 14 
f 14 13 9 
f 10 12 16 
f 16 14 10 
f 12 11 15 
f 15 16 12 
f 11 9 13 
f 13 15 11 
# 12 faces

#
# object s1
#

v  28.0896 -25.0000 0.0000
v  29.0896 -25.0000 0.0000
v  28.0896 25.0000 0.0000
v  29.0896 25.0000 0.0000
v  28.0896 -25.0000 25.0000
v  29.0896 -25.0000 25.0000
v  28.0896 25.0000 25.0000
v  29.0896 25.0000 25.0000
# 8 vertices

g s1
f 17 19 20 
f 20 18 17 
f 21 22 24 
f 24 23 21 
f 17 18 22 
f 22 21 17 
f 18 20 24 
f 24 22 18 
f 20 19 23 
f 23 24 20 
f 19 17 21 
f 21 23 19 
# 12 faces

#
# object s2
#

v  -0.5000 -25.0000 0.0000
v  0.5000 -25.0000 0.0000
v  -0.5000 25.0000 0.0000
v  0.5000 25.0000 0.0000
v  -0.5000 -25.0000 37.5000
v  0.5000 -25.0000 37.5000
v  -0.5000 25.0000 37.5000
v  0.5000 25.0000 37.5000
# 8 vertices

g s2
f 25 27 28 
f 28 26 25 
f 29 30 32 
f 32 31 29 
f 25 26 30 
f 30 29 25 
f 26 28 32 
f 32 30 26 
f 28 27 31 
f 31 32 28 
f 27 25 29 
f 29 31 27 
# 12 faces

#
# object s4
#

v  -50.0000 -25.0000 0.0000
v  -49.0000 -25.0000 0.0000
v  -50.0000 25.0000 0.0000
v  -49.0000 25.0000 0.0000
v  -50.0000 -25.0000 12.5000
v  -49.0000 -25.0000 12.5000
v  -50.0000 25.0000 12.5000
v  -49.0000 25.0000 12.5000
# 8 vertices

g s4
f 33 35 36 
f 36 34 33 
f 37 38 40 
f 40 39 37 
f 33 34 38 
f 38 37 33 
f 34 36 40 
f 40 38 34 
f 36 35 39 
f 39 40 36 
f 35 33 37 
f 37 39 35 
# 12 faces

#
# object m3
#

v  -50.0000 -25.0000 12.5000
v  0.0000 -25.0000 12.5000
v  -50.0000 25.0000 12.5000
v  0.0000 25.0000 12.5000
v  -50.0000 -25.0000 13.5000
v  0.0000 -25.0000 13.5000
v  -50.0000 25.0000 13.5000
v  0.0000 25.0000 13.5000
# 8 vertices

g m3
f 41 43 44 
f 44 42 41 
f 45 46 48 
f 48 47 45 
f 41 42 46 
f 46 45 41 
f 42 44 48 
f 48 46 42 
f 44 43 47 
f 47 48 44 
f 43 41 45 
f 45 47 43 
# 12 faces

#
# object s3
#

v  -34.3713 -25.0000 12.5000
v  -33.3713 -25.0000 12.5000
v  -34.3713 25.0000 12.5000
v  -33.3713 25.0000 12.5000
v  -34.3713 -25.0000 37.5000
v  -33.3713 -25.0000 37.5000
v  -34.3713 25.0000 37.5000
v  -33.3713 25.0000 37.5000
# 8 vertices

g s3
f 49 51 52 
f 52 50 49 
f 53 54 56 
f 56 55 53 
f 49 50 54 
f 54 53 49 
f 50 52 56 
f 56 54 50 
f 52 51 55 
f 55 56 52 
f 51 49 53 
f 53 55 51 
# 12 faces

#
# object m1
#

v  -50.0000 -25.0000 37.5000
v  50.0000 -25.0000 37.5000
v  -50.0000 25.0000 37.5000
v  50.0000 25.0000 37.5000
v  -50.0000 -25.0000 38.5000
v  50.0000 -25.0000 38.5000
v  -50.0000 25.0000 38.5000
v  50.0000 25.0000 38.5000
# 8 vertices

g m1
f 57 59 60 
f 60 58 57 
f 61 62 64 
f 64 63 61 
f 57 58 62 
f 62 61 57 
f 58 60 64 
f 64 62 58 
f 60 59 63 
f 63 64 60 
f 59 57 61 
f 61 63 59 
# 12 faces

