# NV = 8 NF = 12
v 1.09503 0.525481 0.60037
v 1.09503 0.525481 0.683463
v 1.09503 -0.525641 0.683463
v 1.09503 -0.525641 0.60037
v 1.07416 0.525481 0.60037
v 1.07416 -0.525641 0.60037
v 1.07416 -0.525641 0.683463
v 1.07416 0.525481 0.683463
f 1 2 3 
f 3 4 1 
f 5 6 7 
f 7 8 5 
f 1 4 6 
f 6 5 1 
f 4 3 7 
f 7 6 4 
f 3 2 8 
f 8 7 3 
f 2 1 5 
f 5 8 2 
