# NV = 8 NF = 12
v 1.09494 0.525481 0.911599
v 1.09494 -0.525641 0.911599
v 1.09494 -0.525641 0.828506
v 1.07398 0.525481 0.828506
v 1.07398 -0.525641 0.828506
v 1.07398 -0.525641 0.911599
v 1.07398 0.525481 0.911599
v 1.09494 0.525481 0.828506
f 8 1 2 
f 2 3 8 
f 4 5 6 
f 6 7 4 
f 8 3 5 
f 5 4 8 
f 3 2 6 
f 6 5 3 
f 2 1 7 
f 7 6 2 
f 1 8 4 
f 4 7 1 
