# NV = 8 NF = 12
v -20 -40 50
v 20 -40 50
v -20 40 50
v 20 40 50
v -20 -40 51
v 20 -40 51
v -20 40 51
v 20 40 51
f 1 3 4 
f 4 2 1 
f 5 6 8 
f 8 7 5 
f 1 2 6 
f 6 5 1 
f 2 4 8 
f 8 6 2 
f 4 3 7 
f 7 8 4 
f 3 1 5 
f 5 7 3 
