# NV = 8 NF = 12
v -3.1521 27.6821 0
v -6.3661 31.5123 0
v -3.9182 27.0393 0
v -7.1321 30.8695 0
v -3.1521 27.6821 50
v -6.3661 31.5123 50
v -3.9182 27.0393 50
v -7.1321 30.8695 50
f 1 3 4 
f 4 2 1 
f 5 6 8 
f 8 7 5 
f 1 2 6 
f 6 5 1 
f 2 4 8 
f 8 6 2 
f 4 3 7 
f 7 8 4 
f 3 1 5 
f 5 7 3 
