# NV = 8 NF = 12
v 19.1321 1.1305 47
v -3.3654 27.9421 47
v 18.3661 0.4877 47
v -4.1315 27.2993 47
v 19.1321 1.1305 50
v -3.3654 27.9421 50
v 18.3661 0.4877 50
v -4.1315 27.2993 50
f 1 3 4 
f 4 2 1 
f 5 6 8 
f 8 7 5 
f 1 2 6 
f 6 5 1 
f 2 4 8 
f 8 6 2 
f 4 3 7 
f 7 8 4 
f 3 1 5 
f 5 7 3 
