# NV = 8 NF = 12
v -77.8667 17.5867 150.68
v 25.4149 17.5867 150.68
v -77.8667 17.5867 153.516
v 25.4149 17.5867 153.516
v -77.8667 -17.5863 150.68
v 25.4149 -17.5863 150.68
v -77.8667 -17.5863 153.516
v 25.4149 -17.5863 153.516
f 1 3 4 
f 4 2 1 
f 5 6 8 
f 8 7 5 
f 1 2 6 
f 6 5 1 
f 2 4 8 
f 8 6 2 
f 4 3 7 
f 7 8 4 
f 3 1 5 
f 5 7 3 
