# 3ds Max Wavefront OBJ Exporter v0.97b - (c)2007 guruware
# File Created: 30.12.2014 16:01:31

#
# object chain
#

v  0.0000 0.0000 -5.0000
v  30.0000 0.0000 -5.0000
v  0.0000 15.0000 -5.0000
v  30.0000 15.0000 -5.0000
v  0.0000 0.0000 5.0000
v  30.0000 0.0000 5.0000
v  0.0000 15.0000 5.0000
v  30.0000 15.0000 5.0000
v  6.0000 0.0000 -5.0000
v  0.0000 1.7101 -4.6985
v  0.0000 3.2139 -3.8302
v  0.0000 3.7101 -3.2390
v  0.0000 4.3301 -2.5000
v  0.0000 4.9240 -0.8682
v  0.0000 4.9240 0.8682
v  0.0000 4.3301 2.5000
v  0.0000 3.2139 3.8302
v  0.0000 1.7101 4.6985
v  6.0000 0.0000 5.0000
v  12.0000 0.0000 -5.0000
v  12.0000 0.0000 5.0000
v  18.0000 0.0000 -5.0000
v  18.0000 0.0000 5.0000
v  24.0000 0.0000 -5.0000
v  24.0000 0.0000 5.0000
v  30.0000 1.7101 -4.6985
v  30.0000 3.2139 -3.8302
v  30.0000 4.3301 -2.5000
v  30.0000 3.7101 -3.2390
v  30.0000 4.9240 -0.8682
v  30.0000 4.9240 0.8682
v  30.0000 4.3301 2.5000
v  30.0000 3.2139 3.8302
v  30.0000 1.7101 4.6985
v  0.0000 -1.7101 4.6985
v  0.0000 -3.2139 3.8302
v  0.0000 -4.3301 2.5000
v  0.0000 -4.9240 0.8682
v  0.0000 -4.9240 -0.8682
v  0.0000 -4.3301 -2.5000
v  0.0000 -3.2139 -3.8302
v  0.0000 -1.7101 -4.6985
v  6.0000 -1.7101 4.6985
v  6.0000 -3.2139 3.8302
v  6.0000 -4.3301 2.5000
v  6.0000 -4.9240 0.8682
v  6.0000 -4.9240 -0.8682
v  6.0000 -4.3301 -2.5000
v  6.0000 -3.2139 -3.8302
v  6.0000 -1.7101 -4.6985
v  12.0000 -1.7101 4.6985
v  12.0000 -3.2139 3.8302
v  12.0000 -4.3301 2.5000
v  12.0000 -4.9240 0.8682
v  12.0000 -4.9240 -0.8682
v  12.0000 -4.3301 -2.5000
v  12.0000 -3.2139 -3.8302
v  12.0000 -1.7101 -4.6985
v  18.0000 -1.7101 4.6985
v  18.0000 -3.2139 3.8302
v  18.0000 -4.3301 2.5000
v  18.0000 -4.9240 0.8682
v  18.0000 -4.9240 -0.8682
v  18.0000 -4.3301 -2.5000
v  18.0000 -3.2139 -3.8302
v  18.0000 -1.7101 -4.6985
v  24.0000 -1.7101 4.6985
v  24.0000 -3.2139 3.8302
v  24.0000 -4.3301 2.5000
v  24.0000 -4.9240 0.8682
v  24.0000 -4.9240 -0.8682
v  24.0000 -4.3301 -2.5000
v  24.0000 -3.2139 -3.8302
v  24.0000 -1.7101 -4.6985
v  30.0000 -1.7101 4.6985
v  30.0000 -3.2139 3.8302
v  30.0000 -4.3301 2.5000
v  30.0000 -4.9240 0.8682
v  30.0000 -4.9240 -0.8682
v  30.0000 -4.3301 -2.5000
v  30.0000 -3.2139 -3.8302
v  30.0000 -1.7101 -4.6985
# 82 vertices

g chain
f 25 6 8 
f 23 25 8 
f 21 23 8 
f 19 21 8 
f 19 8 7 
f 5 19 7 
f 4 3 7 
f 7 8 4 
f 3 1 10 
f 3 10 11 
f 18 5 7 
f 17 18 7 
f 16 17 7 
f 15 16 7 
f 14 15 7 
f 13 14 7 
f 12 13 7 
f 11 12 7 
f 3 11 7 
f 12 11 10 
f 5 18 17 
f 5 17 16 
f 5 16 15 
f 5 15 14 
f 5 14 13 
f 1 5 13 
f 10 1 13 
f 12 10 13 
f 9 1 3 
f 9 3 4 
f 20 9 4 
f 22 20 4 
f 24 22 4 
f 2 24 4 
f 26 2 4 
f 27 26 4 
f 27 4 8 
f 29 27 8 
f 8 6 34 
f 8 34 33 
f 8 33 32 
f 8 32 31 
f 8 31 30 
f 8 30 28 
f 29 8 28 
f 33 34 6 
f 32 33 6 
f 31 32 6 
f 30 31 6 
f 28 30 6 
f 26 27 29 
f 2 26 29 
f 6 2 29 
f 28 6 29 
f 5 35 43 
f 43 19 5 
f 35 36 44 
f 44 43 35 
f 36 37 45 
f 45 44 36 
f 37 38 46 
f 46 45 37 
f 38 39 47 
f 47 46 38 
f 39 40 48 
f 48 47 39 
f 40 41 49 
f 49 48 40 
f 41 42 50 
f 50 49 41 
f 42 1 9 
f 9 50 42 
f 19 43 51 
f 51 21 19 
f 43 44 52 
f 52 51 43 
f 44 45 53 
f 53 52 44 
f 45 46 54 
f 54 53 45 
f 46 47 55 
f 55 54 46 
f 47 48 56 
f 56 55 47 
f 48 49 57 
f 57 56 48 
f 49 50 58 
f 58 57 49 
f 50 9 20 
f 20 58 50 
f 21 51 59 
f 59 23 21 
f 51 52 60 
f 60 59 51 
f 52 53 61 
f 61 60 52 
f 53 54 62 
f 62 61 53 
f 54 55 63 
f 63 62 54 
f 55 56 64 
f 64 63 55 
f 56 57 65 
f 65 64 56 
f 57 58 66 
f 66 65 57 
f 58 20 22 
f 22 66 58 
f 23 59 67 
f 67 25 23 
f 59 60 68 
f 68 67 59 
f 60 61 69 
f 69 68 60 
f 61 62 70 
f 70 69 61 
f 62 63 71 
f 71 70 62 
f 63 64 72 
f 72 71 63 
f 64 65 73 
f 73 72 64 
f 65 66 74 
f 74 73 65 
f 66 22 24 
f 24 74 66 
f 25 67 75 
f 75 6 25 
f 67 68 76 
f 76 75 67 
f 68 69 77 
f 77 76 68 
f 69 70 78 
f 78 77 69 
f 70 71 79 
f 79 78 70 
f 71 72 80 
f 80 79 71 
f 72 73 81 
f 81 80 72 
f 73 74 82 
f 82 81 73 
f 74 24 2 
f 2 82 74 
f 41 40 39 
f 39 38 37 
f 37 36 35 
f 39 37 35 
f 35 5 1 
f 39 35 1 
f 41 39 1 
f 42 41 1 
f 6 75 76 
f 76 77 78 
f 78 79 80 
f 80 81 82 
f 78 80 82 
f 76 78 82 
f 6 76 82 
f 2 6 82 
# 160 faces

#
# object Cylinder004
#

v  -30.0000 0.0000 0.0000
v  -30.0000 0.0000 -2.6000
v  -30.0000 0.8893 -2.4432
v  -30.0000 1.6712 -1.9917
v  -30.0000 2.2517 -1.3000
v  -30.0000 2.5605 -0.4515
v  -30.0000 2.5605 0.4515
v  -30.0000 2.2517 1.3000
v  -30.0000 1.6712 1.9917
v  -30.0000 0.8893 2.4432
v  -30.0000 0.0000 2.6000
v  -30.0000 -0.8893 2.4432
v  -30.0000 -1.6712 1.9917
v  -30.0000 -2.2517 1.3000
v  -30.0000 -2.5605 0.4515
v  -30.0000 -2.5605 -0.4515
v  -30.0000 -2.2517 -1.3000
v  -30.0000 -1.6712 -1.9917
v  -30.0000 -0.8893 -2.4432
v  -24.0000 0.0000 -2.6000
v  -24.0000 0.8893 -2.4432
v  -24.0000 1.6712 -1.9917
v  -24.0000 2.2517 -1.3000
v  -24.0000 2.5605 -0.4515
v  -24.0000 2.5605 0.4515
v  -24.0000 2.2517 1.3000
v  -24.0000 1.6712 1.9917
v  -24.0000 0.8893 2.4432
v  -24.0000 0.0000 2.6000
v  -24.0000 -0.8893 2.4432
v  -24.0000 -1.6712 1.9917
v  -24.0000 -2.2517 1.3000
v  -24.0000 -2.5605 0.4515
v  -24.0000 -2.5605 -0.4515
v  -24.0000 -2.2517 -1.3000
v  -24.0000 -1.6712 -1.9917
v  -24.0000 -0.8893 -2.4432
v  -18.0000 0.0000 -2.6000
v  -18.0000 0.8893 -2.4432
v  -18.0000 1.6712 -1.9917
v  -18.0000 2.2517 -1.3000
v  -18.0000 2.5605 -0.4515
v  -18.0000 2.5605 0.4515
v  -18.0000 2.2517 1.3000
v  -18.0000 1.6712 1.9917
v  -18.0000 0.8893 2.4432
v  -18.0000 0.0000 2.6000
v  -18.0000 -0.8893 2.4432
v  -18.0000 -1.6712 1.9917
v  -18.0000 -2.2517 1.3000
v  -18.0000 -2.5605 0.4515
v  -18.0000 -2.5605 -0.4515
v  -18.0000 -2.2517 -1.3000
v  -18.0000 -1.6712 -1.9917
v  -18.0000 -0.8893 -2.4432
v  -12.0000 0.0000 -2.6000
v  -12.0000 0.8893 -2.4432
v  -12.0000 1.6712 -1.9917
v  -12.0000 2.2517 -1.3000
v  -12.0000 2.5605 -0.4515
v  -12.0000 2.5605 0.4515
v  -12.0000 2.2517 1.3000
v  -12.0000 1.6712 1.9917
v  -12.0000 0.8893 2.4432
v  -12.0000 0.0000 2.6000
v  -12.0000 -0.8893 2.4432
v  -12.0000 -1.6712 1.9917
v  -12.0000 -2.2517 1.3000
v  -12.0000 -2.5605 0.4515
v  -12.0000 -2.5605 -0.4515
v  -12.0000 -2.2517 -1.3000
v  -12.0000 -1.6712 -1.9917
v  -12.0000 -0.8893 -2.4432
v  -6.0000 0.0000 -2.6000
v  -6.0000 0.8893 -2.4432
v  -6.0000 1.6712 -1.9917
v  -6.0000 2.2517 -1.3000
v  -6.0000 2.5605 -0.4515
v  -6.0000 2.5605 0.4515
v  -6.0000 2.2517 1.3000
v  -6.0000 1.6712 1.9917
v  -6.0000 0.8893 2.4432
v  -6.0000 0.0000 2.6000
v  -6.0000 -0.8893 2.4432
v  -6.0000 -1.6712 1.9917
v  -6.0000 -2.2517 1.3000
v  -6.0000 -2.5605 0.4515
v  -6.0000 -2.5605 -0.4515
v  -6.0000 -2.2517 -1.3000
v  -6.0000 -1.6712 -1.9917
v  -6.0000 -0.8893 -2.4432
v  0.0000 0.0000 -2.6000
v  0.0000 0.8893 -2.4432
v  0.0000 1.6712 -1.9917
v  0.0000 2.2517 -1.3000
v  0.0000 2.5605 -0.4515
v  0.0000 2.5605 0.4515
v  0.0000 2.2517 1.3000
v  0.0000 1.6712 1.9917
v  0.0000 0.8893 2.4432
v  0.0000 0.0000 2.6000
v  0.0000 -0.8893 2.4432
v  0.0000 -1.6712 1.9917
v  0.0000 -2.2517 1.3000
v  0.0000 -2.5605 0.4515
v  0.0000 -2.5605 -0.4515
v  0.0000 -2.2517 -1.3000
v  0.0000 -1.6712 -1.9917
v  0.0000 -0.8893 -2.4432
v  0.0000 0.0000 0.0000
# 110 vertices

g Cylinder004
f 83 85 84 
f 83 86 85 
f 83 87 86 
f 83 88 87 
f 83 89 88 
f 83 90 89 
f 83 91 90 
f 83 92 91 
f 83 93 92 
f 83 94 93 
f 83 95 94 
f 83 96 95 
f 83 97 96 
f 83 98 97 
f 83 99 98 
f 83 100 99 
f 83 101 100 
f 83 84 101 
f 84 103 102 
f 84 85 103 
f 85 104 103 
f 85 86 104 
f 86 105 104 
f 86 87 105 
f 87 106 105 
f 87 88 106 
f 88 107 106 
f 88 89 107 
f 89 108 107 
f 89 90 108 
f 90 109 108 
f 90 91 109 
f 91 110 109 
f 91 92 110 
f 92 111 110 
f 92 93 111 
f 93 112 111 
f 93 94 112 
f 94 113 112 
f 94 95 113 
f 95 114 113 
f 95 96 114 
f 96 115 114 
f 96 97 115 
f 97 116 115 
f 97 98 116 
f 98 117 116 
f 98 99 117 
f 99 118 117 
f 99 100 118 
f 100 119 118 
f 100 101 119 
f 101 102 119 
f 101 84 102 
f 102 121 120 
f 102 103 121 
f 103 122 121 
f 103 104 122 
f 104 123 122 
f 104 105 123 
f 105 124 123 
f 105 106 124 
f 106 125 124 
f 106 107 125 
f 107 126 125 
f 107 108 126 
f 108 127 126 
f 108 109 127 
f 109 128 127 
f 109 110 128 
f 110 129 128 
f 110 111 129 
f 111 130 129 
f 111 112 130 
f 112 131 130 
f 112 113 131 
f 113 132 131 
f 113 114 132 
f 114 133 132 
f 114 115 133 
f 115 134 133 
f 115 116 134 
f 116 135 134 
f 116 117 135 
f 117 136 135 
f 117 118 136 
f 118 137 136 
f 118 119 137 
f 119 120 137 
f 119 102 120 
f 120 139 138 
f 120 121 139 
f 121 140 139 
f 121 122 140 
f 122 141 140 
f 122 123 141 
f 123 142 141 
f 123 124 142 
f 124 143 142 
f 124 125 143 
f 125 144 143 
f 125 126 144 
f 126 145 144 
f 126 127 145 
f 127 146 145 
f 127 128 146 
f 128 147 146 
f 128 129 147 
f 129 148 147 
f 129 130 148 
f 130 149 148 
f 130 131 149 
f 131 150 149 
f 131 132 150 
f 132 151 150 
f 132 133 151 
f 133 152 151 
f 133 134 152 
f 134 153 152 
f 134 135 153 
f 135 154 153 
f 135 136 154 
f 136 155 154 
f 136 137 155 
f 137 138 155 
f 137 120 138 
f 138 157 156 
f 138 139 157 
f 139 158 157 
f 139 140 158 
f 140 159 158 
f 140 141 159 
f 141 160 159 
f 141 142 160 
f 142 161 160 
f 142 143 161 
f 143 162 161 
f 143 144 162 
f 144 163 162 
f 144 145 163 
f 145 164 163 
f 145 146 164 
f 146 165 164 
f 146 147 165 
f 147 166 165 
f 147 148 166 
f 148 167 166 
f 148 149 167 
f 149 168 167 
f 149 150 168 
f 150 169 168 
f 150 151 169 
f 151 170 169 
f 151 152 170 
f 152 171 170 
f 152 153 171 
f 153 172 171 
f 153 154 172 
f 154 173 172 
f 154 155 173 
f 155 156 173 
f 155 138 156 
f 156 175 174 
f 156 157 175 
f 157 176 175 
f 157 158 176 
f 158 177 176 
f 158 159 177 
f 159 178 177 
f 159 160 178 
f 160 179 178 
f 160 161 179 
f 161 180 179 
f 161 162 180 
f 162 181 180 
f 162 163 181 
f 163 182 181 
f 163 164 182 
f 164 183 182 
f 164 165 183 
f 165 184 183 
f 165 166 184 
f 166 185 184 
f 166 167 185 
f 167 186 185 
f 167 168 186 
f 168 187 186 
f 168 169 187 
f 169 188 187 
f 169 170 188 
f 170 189 188 
f 170 171 189 
f 171 190 189 
f 171 172 190 
f 172 191 190 
f 172 173 191 
f 173 174 191 
f 173 156 174 
f 192 174 175 
f 192 175 176 
f 192 176 177 
f 192 177 178 
f 192 178 179 
f 192 179 180 
f 192 180 181 
f 192 181 182 
f 192 182 183 
f 192 183 184 
f 192 184 185 
f 192 185 186 
f 192 186 187 
f 192 187 188 
f 192 188 189 
f 192 189 190 
f 192 190 191 
f 192 191 174 
# 216 faces

