# 3ds Max Wavefront OBJ Exporter v0.97b - (c)2007 guruware
# File Created: 07.01.2014 18:54:42

#
# object seat
#

v  -9.7129 0.0000 9.9643
v  9.7766 -0.0000 9.9643
v  -9.7129 0.0000 -9.9160
v  9.7766 -0.0000 -9.9160
v  -9.7129 1.4539 9.9643
v  9.7766 1.4539 9.9643
v  -9.7129 1.4539 -9.9160
v  9.7766 1.4539 -9.9160
# 8 vertices

g seat
f 1 3 4 
f 4 2 1 
f 5 6 8 
f 8 7 5 
f 1 2 6 
f 6 5 1 
f 2 4 8 
f 8 6 2 
f 4 3 7 
f 7 8 4 
f 3 1 5 
f 5 7 3 
# 12 faces

#
# object back
#

v  -9.5933 1.4143 9.9861
v  -8.1150 1.4143 9.9861
v  -9.5933 1.4143 -9.9031
v  -8.1150 1.4143 -9.9031
v  -9.5933 23.0240 9.9861
v  -8.1150 23.0240 9.9861
v  -9.5933 23.0240 -9.9031
v  -8.1150 23.0240 -9.9031
# 8 vertices

g back
f 9 11 12 
f 12 10 9 
f 13 14 16 
f 16 15 13 
f 9 10 14 
f 14 13 9 
f 10 12 16 
f 16 14 10 
f 12 11 15 
f 15 16 12 
f 11 9 13 
f 13 15 11 
# 12 faces

#
# object lb_leg
#

v  -9.5762 -18.8839 -8.9285
v  -8.2461 -18.8839 -8.9285
v  -9.5762 -18.8839 -9.9348
v  -8.2461 -18.8839 -9.9348
v  -9.5762 0.1485 -8.9285
v  -8.2461 0.1485 -8.9285
v  -9.5762 0.1485 -9.9348
v  -8.2461 0.1485 -9.9348
# 8 vertices

g lb_leg
f 17 19 20 
f 20 18 17 
f 21 22 24 
f 24 23 21 
f 17 18 22 
f 22 21 17 
f 18 20 24 
f 24 22 18 
f 20 19 23 
f 23 24 20 
f 19 17 21 
f 21 23 19 
# 12 faces

#
# object lf_leg
#

v  8.2919 -18.8839 -8.9285
v  9.6220 -18.8839 -8.9285
v  8.2919 -18.8839 -9.9348
v  9.6220 -18.8839 -9.9348
v  8.2919 0.1485 -8.9285
v  9.6220 0.1485 -8.9285
v  8.2919 0.1485 -9.9348
v  9.6220 0.1485 -9.9348
# 8 vertices

g lf_leg
f 25 27 28 
f 28 26 25 
f 29 30 32 
f 32 31 29 
f 25 26 30 
f 30 29 25 
f 26 28 32 
f 32 30 26 
f 28 27 31 
f 31 32 28 
f 27 25 29 
f 29 31 27 
# 12 faces

#
# object rf_leg
#

v  8.2919 -18.8839 9.8653
v  9.6220 -18.8839 9.8653
v  8.2919 -18.8839 8.8590
v  9.6220 -18.8839 8.8590
v  8.2919 0.1485 9.8653
v  9.6220 0.1485 9.8653
v  8.2919 0.1485 8.8590
v  9.6220 0.1485 8.8590
# 8 vertices

g rf_leg
f 33 35 36 
f 36 34 33 
f 37 38 40 
f 40 39 37 
f 33 34 38 
f 38 37 33 
f 34 36 40 
f 40 38 34 
f 36 35 39 
f 39 40 36 
f 35 33 37 
f 37 39 35 
# 12 faces

#
# object rb_leg
#

v  -9.5762 -18.8839 9.8653
v  -8.2461 -18.8839 9.8653
v  -9.5762 -18.8839 8.8590
v  -8.2461 -18.8839 8.8590
v  -9.5762 0.1485 9.8653
v  -8.2461 0.1485 9.8653
v  -9.5762 0.1485 8.8590
v  -8.2461 0.1485 8.8590
# 8 vertices

g rb_leg
f 41 43 44 
f 44 42 41 
f 45 46 48 
f 48 47 45 
f 41 42 46 
f 46 45 41 
f 42 44 48 
f 48 46 42 
f 44 43 47 
f 47 48 44 
f 43 41 45 
f 45 47 43 
# 12 faces

