# NV = 158 NF = 312
v -0.304694 0.160387 0.730021
v -0.281577 0.160387 0.730021
v -0.278895 0.159676 0.730021
v -0.276945 0.157726 0.730021
v -0.276945 -0.260986 0.730021
v -0.278895 -0.262936 0.730021
v -0.281577 -0.263647 0.730021
v -0.304694 -0.263647 0.730021
v -0.307355 -0.262936 0.730021
v -0.309305 -0.260986 0.730021
v -0.277575 -0.26064 0.72736
v -0.279261 -0.262326 0.72736
v -0.281577 -0.262936 0.72736
v -0.304694 -0.262936 0.72736
v -0.30699 -0.262326 0.72736
v -0.308676 -0.26064 0.72736
v -0.279261 -0.259665 0.72541
v -0.280236 -0.26064 0.72541
v -0.281577 -0.260986 0.72541
v -0.304694 -0.260986 0.72541
v -0.306015 -0.26064 0.72541
v -0.30699 -0.259665 0.72541
v -0.291673 -0.266836 0.616791
v -0.285985 -0.265292 0.616649
v -0.281943 -0.26127 0.616324
v -0.280419 -0.255602 0.615877
v -0.281943 -0.249955 0.61541
v -0.285985 -0.245933 0.615085
v -0.291673 -0.244389 0.614963
v -0.297341 -0.245933 0.615085
v -0.301383 -0.249955 0.61541
v -0.302927 -0.255602 0.615877
v -0.301383 -0.26127 0.616324
v -0.297341 -0.265292 0.616649
v -0.308676 0.15736 0.72736
v -0.30699 0.159046 0.72736
v -0.304694 0.159676 0.72736
v -0.281577 0.159676 0.72736
v -0.279261 0.159046 0.72736
v -0.277575 0.15736 0.72736
v -0.30699 0.156385 0.72541
v -0.306015 0.15736 0.72541
v -0.304694 0.157726 0.72541
v -0.281577 0.157726 0.72541
v -0.280236 0.15736 0.72541
v -0.279261 0.156385 0.72541
v -0.292689 0.155999 0.724943
v -0.282958 0.15021 0.724699
v -0.287001 0.154475 0.724699
v -0.289052 0.155065 0.724699
v -0.292689 0.190411 0.621707
v -0.298356 0.188948 0.62122
v -0.302399 0.185129 0.61994
v -0.303943 0.179746 0.618152
v -0.302399 0.174363 0.616365
v -0.298356 0.170523 0.615085
v -0.292689 0.169061 0.614597
v -0.287001 0.170523 0.615085
v -0.282979 0.174363 0.616365
v -0.281435 0.179746 0.618152
v -0.282979 0.185129 0.61994
v -0.287001 0.188948 0.62122
v -0.310016 0.155065 0.730021
v -0.276234 0.155065 0.730021
v -0.276234 -0.258324 0.730021
v -0.310016 -0.258324 0.730021
v -0.309305 0.155065 0.72736
v -0.276945 0.155065 0.72736
v -0.276945 -0.258324 0.72736
v -0.309305 -0.258324 0.72736
v -0.307355 0.155065 0.72541
v -0.278895 0.155065 0.72541
v -0.278895 -0.258324 0.72541
v -0.307355 -0.258324 0.72541
v -0.281577 -0.258324 0.724699
v -0.281577 0.155065 0.724699
v -0.304694 -0.258324 0.724699
v -0.304694 0.155065 0.724699
v -0.285985 -0.256517 0.724699
v -0.291673 -0.25806 0.724699
v -0.281943 -0.252474 0.724699
v -0.280419 -0.246746 0.725004
v -0.281577 -0.251052 0.724699
v -0.281943 -0.241098 0.724699
v -0.281577 -0.24248 0.724699
v -0.285985 -0.237015 0.724699
v -0.291673 -0.235471 0.724699
v -0.297341 -0.237015 0.724699
v -0.301383 -0.241078 0.724699
v -0.302927 -0.246766 0.724699
v -0.301383 -0.252494 0.724699
v -0.297341 -0.256517 0.724699
v -0.296304 0.155065 0.724699
v -0.298356 0.154475 0.724699
v -0.302399 0.15021 0.724699
v -0.303943 0.144237 0.724699
v -0.302399 0.138245 0.724699
v -0.298356 0.133979 0.724699
v -0.292689 0.132354 0.724699
v -0.287001 0.133979 0.724699
v -0.282958 0.138245 0.724699
v -0.281577 0.143668 0.724699
v -0.281435 0.144217 0.72474
v -0.281577 0.144786 0.724699
v -0.304694 0.155065 0.758461
v -0.304694 -0.258324 0.758461
v -0.281577 0.155065 0.758461
v -0.281577 -0.258324 0.758461
v -0.307355 0.155065 0.75775
v -0.30699 0.156385 0.75775
v -0.306015 0.15736 0.75775
v -0.304694 0.157726 0.75775
v -0.281577 0.157726 0.75775
v -0.280236 0.15736 0.75775
v -0.279261 0.156385 0.75775
v -0.278895 0.155065 0.75775
v -0.278895 -0.258324 0.75775
v -0.279261 -0.259665 0.75775
v -0.280236 -0.26064 0.75775
v -0.281577 -0.260986 0.75775
v -0.304694 -0.260986 0.75775
v -0.306015 -0.26064 0.75775
v -0.30699 -0.259665 0.75775
v -0.307355 -0.258324 0.75775
v -0.309305 0.155065 0.7558
v -0.308676 0.15736 0.7558
v -0.30699 0.159046 0.7558
v -0.304694 0.159676 0.7558
v -0.281577 0.159676 0.7558
v -0.279261 0.159046 0.7558
v -0.277575 0.15736 0.7558
v -0.276945 0.155065 0.7558
v -0.276945 -0.258324 0.7558
v -0.277575 -0.26064 0.7558
v -0.279261 -0.262326 0.7558
v -0.281577 -0.262936 0.7558
v -0.304694 -0.262936 0.7558
v -0.30699 -0.262326 0.7558
v -0.308676 -0.26064 0.7558
v -0.309305 -0.258324 0.7558
v -0.310016 0.155065 0.753139
v -0.309305 0.157726 0.753139
v -0.307355 0.159676 0.753139
v -0.304694 0.160387 0.753139
v -0.281577 0.160387 0.753139
v -0.278895 0.159676 0.753139
v -0.276945 0.157726 0.753139
v -0.276234 0.155065 0.753139
v -0.276234 -0.258324 0.753139
v -0.276945 -0.260986 0.753139
v -0.278895 -0.262936 0.753139
v -0.281577 -0.263647 0.753139
v -0.304694 -0.263647 0.753139
v -0.307355 -0.262936 0.753139
v -0.309305 -0.260986 0.753139
v -0.310016 -0.258324 0.753139
v -0.309305 0.157726 0.730021
v -0.307355 0.159676 0.730021
f 34 33 32 
f 25 23 34 
f 27 29 28 
f 29 34 32 
f 31 30 32 
f 24 23 25 
f 25 34 29 
f 26 25 27 
f 32 30 29 
f 25 29 27 
f 53 51 55 
f 54 53 55 
f 61 58 51 
f 61 60 58 
f 58 55 51 
f 51 62 61 
f 55 58 57 
f 51 53 52 
f 60 59 58 
f 57 56 55 
f 104 61 48 
f 93 52 94 
f 62 50 49 
f 62 51 50 
f 47 50 51 
f 49 61 62 
f 61 49 48 
f 104 103 61 
f 60 61 103 
f 103 102 60 
f 59 102 101 
f 59 60 102 
f 101 58 59 
f 58 101 100 
f 100 99 58 
f 57 58 99 
f 99 98 57 
f 56 57 98 
f 98 97 56 
f 55 56 97 
f 97 96 55 
f 54 55 96 
f 96 95 54 
f 53 54 95 
f 95 94 53 
f 52 53 94 
f 93 47 52 
f 51 52 47 
f 76 49 50 
f 104 48 76 
f 48 49 76 
f 44 50 47 
f 50 44 76 
f 44 47 43 
f 46 72 76 
f 45 46 76 
f 44 45 76 
f 78 43 93 
f 47 93 43 
f 42 43 78 
f 41 42 78 
f 71 41 78 
f 40 68 72 
f 40 72 46 
f 39 40 46 
f 39 46 45 
f 38 39 45 
f 38 45 44 
f 37 38 44 
f 37 44 43 
f 36 37 43 
f 36 43 42 
f 35 36 42 
f 35 42 41 
f 67 35 41 
f 67 41 71 
f 4 64 68 
f 4 68 40 
f 3 4 40 
f 3 40 39 
f 2 3 39 
f 2 39 38 
f 1 2 38 
f 1 38 37 
f 158 1 37 
f 158 37 36 
f 157 158 36 
f 157 36 35 
f 63 157 35 
f 63 35 67 
f 85 27 84 
f 34 23 92 
f 80 92 23 
f 25 83 81 
f 33 34 91 
f 92 91 34 
f 32 33 90 
f 91 90 33 
f 31 32 89 
f 90 89 32 
f 30 31 88 
f 89 88 31 
f 29 30 87 
f 88 87 30 
f 28 29 86 
f 87 86 29 
f 27 28 84 
f 86 84 28 
f 26 27 82 
f 85 82 27 
f 26 83 25 
f 83 26 82 
f 24 25 79 
f 81 79 25 
f 23 24 80 
f 79 80 24 
f 22 74 77 
f 21 22 77 
f 20 21 77 
f 19 20 77 
f 19 77 75 
f 18 19 75 
f 17 18 75 
f 73 17 75 
f 16 70 74 
f 16 74 22 
f 15 16 22 
f 15 22 21 
f 14 15 21 
f 14 21 20 
f 13 14 20 
f 13 20 19 
f 12 13 19 
f 12 19 18 
f 11 12 18 
f 11 18 17 
f 69 11 17 
f 69 17 73 
f 10 66 70 
f 10 70 16 
f 9 10 16 
f 9 16 15 
f 8 9 15 
f 8 15 14 
f 7 8 14 
f 7 14 13 
f 6 7 13 
f 6 13 12 
f 5 6 12 
f 5 12 11 
f 65 5 11 
f 65 11 69 
f 156 141 63 
f 156 63 66 
f 155 156 66 
f 155 66 10 
f 154 155 10 
f 154 10 9 
f 153 154 9 
f 153 9 8 
f 152 153 8 
f 152 8 7 
f 151 152 7 
f 151 7 6 
f 150 151 6 
f 150 6 5 
f 149 150 5 
f 149 5 65 
f 148 149 65 
f 148 65 64 
f 147 148 64 
f 147 64 4 
f 146 147 4 
f 146 4 3 
f 145 146 3 
f 145 3 2 
f 144 145 2 
f 144 2 1 
f 143 144 1 
f 143 1 158 
f 142 143 158 
f 142 158 157 
f 141 142 157 
f 141 157 63 
f 140 125 141 
f 140 141 156 
f 139 140 156 
f 139 156 155 
f 138 139 155 
f 138 155 154 
f 137 138 154 
f 137 154 153 
f 136 137 153 
f 136 153 152 
f 135 136 152 
f 135 152 151 
f 134 135 151 
f 134 151 150 
f 133 134 150 
f 133 150 149 
f 132 133 149 
f 132 149 148 
f 131 132 148 
f 131 148 147 
f 130 131 147 
f 130 147 146 
f 129 130 146 
f 129 146 145 
f 128 129 145 
f 128 145 144 
f 127 128 144 
f 127 144 143 
f 126 127 143 
f 126 143 142 
f 125 126 142 
f 125 142 141 
f 124 109 125 
f 124 125 140 
f 123 124 140 
f 123 140 139 
f 122 123 139 
f 122 139 138 
f 121 122 138 
f 121 138 137 
f 120 121 137 
f 120 137 136 
f 119 120 136 
f 119 136 135 
f 118 119 135 
f 118 135 134 
f 117 118 134 
f 117 134 133 
f 116 117 133 
f 116 133 132 
f 115 116 132 
f 115 132 131 
f 114 115 131 
f 114 131 130 
f 113 114 130 
f 113 130 129 
f 112 113 129 
f 112 129 128 
f 111 112 128 
f 111 128 127 
f 110 111 127 
f 110 127 126 
f 109 110 126 
f 109 126 125 
f 106 105 109 
f 106 109 124 
f 106 124 123 
f 106 123 122 
f 106 122 121 
f 108 106 121 
f 108 121 120 
f 108 120 119 
f 108 119 118 
f 108 118 117 
f 107 108 117 
f 107 117 116 
f 107 116 115 
f 107 115 114 
f 107 114 113 
f 105 107 113 
f 105 113 112 
f 105 112 111 
f 105 111 110 
f 105 110 109 
f 105 106 108 
f 105 108 107 
f 84 102 85 
f 99 86 98 
f 86 99 84 
f 100 84 99 
f 84 100 101 
f 82 85 103 
f 102 103 85 
f 96 97 86 
f 97 98 86 
f 78 95 96 
f 78 94 95 
f 93 94 78 
f 77 92 80 
f 90 91 77 
f 78 90 77 
f 78 89 90 
f 78 88 89 
f 78 87 88 
f 91 92 77 
f 78 96 86 
f 78 86 87 
f 104 72 103 
f 72 104 76 
f 102 84 101 
f 82 103 72 
f 73 82 72 
f 75 81 83 
f 77 80 75 
f 75 79 81 
f 80 79 75 
f 74 71 78 
f 74 78 77 
f 75 83 73 
f 82 73 83 
f 70 67 71 
f 70 71 74 
f 68 69 73 
f 68 73 72 
f 66 63 67 
f 66 67 70 
f 64 65 69 
f 64 69 68 
