# NV = 158 NF = 312
v 0.310148 -0.260986 0.730021
v 0.278418 -0.26064 0.72736
v 0.280104 -0.262326 0.72736
v 0.28242 -0.262936 0.72736
v 0.305537 -0.262936 0.72736
v 0.307833 -0.262326 0.72736
v 0.309519 -0.26064 0.72736
v 0.280104 -0.259665 0.72541
v 0.281079 -0.26064 0.72541
v 0.28242 -0.260986 0.72541
v 0.305537 -0.260986 0.72541
v 0.306858 -0.26064 0.72541
v 0.307833 -0.259665 0.72541
v 0.292516 -0.266836 0.616791
v 0.286828 -0.265292 0.616649
v 0.282786 -0.26127 0.616324
v 0.281262 -0.255602 0.615877
v 0.282786 -0.249955 0.61541
v 0.286828 -0.245933 0.615085
v 0.292516 -0.244389 0.614963
v 0.298184 -0.245933 0.615085
v 0.302226 -0.249955 0.61541
v 0.30377 -0.255602 0.615877
v 0.302226 -0.26127 0.616324
v 0.298184 -0.265292 0.616649
v 0.309519 0.15736 0.72736
v 0.307833 0.159046 0.72736
v 0.305537 0.159676 0.72736
v 0.28242 0.159676 0.72736
v 0.280104 0.159046 0.72736
v 0.278418 0.15736 0.72736
v 0.307833 0.156385 0.72541
v 0.306858 0.15736 0.72541
v 0.305537 0.157726 0.72541
v 0.28242 0.157726 0.72541
v 0.281079 0.15736 0.72541
v 0.280104 0.156385 0.72541
v 0.293532 0.155999 0.724943
v 0.283801 0.15021 0.724699
v 0.287844 0.154475 0.724699
v 0.289895 0.155065 0.724699
v 0.293532 0.190411 0.621707
v 0.299199 0.188948 0.62122
v 0.303242 0.185129 0.61994
v 0.304786 0.179746 0.618152
v 0.303242 0.174363 0.616365
v 0.299199 0.170523 0.615085
v 0.293532 0.169061 0.614597
v 0.287844 0.170523 0.615085
v 0.283822 0.174363 0.616365
v 0.282278 0.179746 0.618152
v 0.283822 0.185129 0.61994
v 0.287844 0.188948 0.62122
v 0.310859 0.155065 0.730021
v 0.277077 0.155065 0.730021
v 0.277077 -0.258324 0.730021
v 0.310859 -0.258324 0.730021
v 0.310148 0.155065 0.72736
v 0.277788 0.155065 0.72736
v 0.277788 -0.258324 0.72736
v 0.310148 -0.258324 0.72736
v 0.308198 0.155065 0.72541
v 0.279738 0.155065 0.72541
v 0.279738 -0.258324 0.72541
v 0.308198 -0.258324 0.72541
v 0.28242 -0.258324 0.724699
v 0.28242 0.155065 0.724699
v 0.305537 -0.258324 0.724699
v 0.305537 0.155065 0.724699
v 0.286828 -0.256517 0.724699
v 0.292516 -0.25806 0.724699
v 0.282786 -0.252474 0.724699
v 0.281262 -0.246746 0.725004
v 0.28242 -0.251052 0.724699
v 0.282786 -0.241098 0.724699
v 0.28242 -0.24248 0.724699
v 0.286828 -0.237015 0.724699
v 0.292516 -0.235471 0.724699
v 0.298184 -0.237015 0.724699
v 0.302226 -0.241078 0.724699
v 0.30377 -0.246766 0.724699
v 0.302226 -0.252494 0.724699
v 0.298184 -0.256517 0.724699
v 0.297148 0.155065 0.724699
v 0.299199 0.154475 0.724699
v 0.303242 0.15021 0.724699
v 0.304786 0.144237 0.724699
v 0.303242 0.138245 0.724699
v 0.299199 0.133979 0.724699
v 0.293532 0.132354 0.724699
v 0.287844 0.133979 0.724699
v 0.283801 0.138245 0.724699
v 0.28242 0.143668 0.724699
v 0.282278 0.144217 0.72474
v 0.28242 0.144786 0.724699
v 0.305537 0.155065 0.758461
v 0.305537 -0.258324 0.758461
v 0.28242 0.155065 0.758461
v 0.28242 -0.258324 0.758461
v 0.308198 0.155065 0.75775
v 0.307833 0.156385 0.75775
v 0.306858 0.15736 0.75775
v 0.305537 0.157726 0.75775
v 0.28242 0.157726 0.75775
v 0.281079 0.15736 0.75775
v 0.280104 0.156385 0.75775
v 0.279738 0.155065 0.75775
v 0.279738 -0.258324 0.75775
v 0.280104 -0.259665 0.75775
v 0.281079 -0.26064 0.75775
v 0.28242 -0.260986 0.75775
v 0.305537 -0.260986 0.75775
v 0.306858 -0.26064 0.75775
v 0.307833 -0.259665 0.75775
v 0.308198 -0.258324 0.75775
v 0.310148 0.155065 0.7558
v 0.309519 0.15736 0.7558
v 0.307833 0.159046 0.7558
v 0.305537 0.159676 0.7558
v 0.28242 0.159676 0.7558
v 0.280104 0.159046 0.7558
v 0.278418 0.15736 0.7558
v 0.277788 0.155065 0.7558
v 0.277788 -0.258324 0.7558
v 0.278418 -0.26064 0.7558
v 0.280104 -0.262326 0.7558
v 0.28242 -0.262936 0.7558
v 0.305537 -0.262936 0.7558
v 0.307833 -0.262326 0.7558
v 0.309519 -0.26064 0.7558
v 0.310148 -0.258324 0.7558
v 0.310859 0.155065 0.753139
v 0.310148 0.157726 0.753139
v 0.308198 0.159676 0.753139
v 0.305537 0.160387 0.753139
v 0.28242 0.160387 0.753139
v 0.279738 0.159676 0.753139
v 0.277788 0.157726 0.753139
v 0.277077 0.155065 0.753139
v 0.277077 -0.258324 0.753139
v 0.277788 -0.260986 0.753139
v 0.279738 -0.262936 0.753139
v 0.28242 -0.263647 0.753139
v 0.305537 -0.263647 0.753139
v 0.308198 -0.262936 0.753139
v 0.310148 -0.260986 0.753139
v 0.310859 -0.258324 0.753139
v 0.310148 0.157726 0.730021
v 0.308198 0.159676 0.730021
v 0.305537 0.160387 0.730021
v 0.28242 0.160387 0.730021
v 0.279738 0.159676 0.730021
v 0.277788 0.157726 0.730021
v 0.277788 -0.260986 0.730021
v 0.279738 -0.262936 0.730021
v 0.28242 -0.263647 0.730021
v 0.305537 -0.263647 0.730021
v 0.308198 -0.262936 0.730021
f 23 24 25 
f 25 14 16 
f 19 20 18 
f 23 25 20 
f 23 21 22 
f 16 14 15 
f 20 25 16 
f 18 16 17 
f 20 21 23 
f 18 20 16 
f 46 42 44 
f 46 44 45 
f 42 49 52 
f 49 51 52 
f 42 46 49 
f 52 53 42 
f 48 49 46 
f 43 44 42 
f 49 50 51 
f 46 47 48 
f 39 52 95 
f 85 43 84 
f 40 41 53 
f 41 42 53 
f 42 41 38 
f 53 52 40 
f 39 40 52 
f 52 94 95 
f 94 52 51 
f 51 93 94 
f 92 93 50 
f 93 51 50 
f 50 49 92 
f 91 92 49 
f 49 90 91 
f 90 49 48 
f 48 89 90 
f 89 48 47 
f 47 88 89 
f 88 47 46 
f 46 87 88 
f 87 46 45 
f 45 86 87 
f 86 45 44 
f 44 85 86 
f 85 44 43 
f 43 38 84 
f 38 43 42 
f 41 40 67 
f 67 39 95 
f 67 40 39 
f 38 41 35 
f 67 35 41 
f 34 38 35 
f 67 63 37 
f 67 37 36 
f 67 36 35 
f 84 34 69 
f 34 84 38 
f 69 34 33 
f 69 33 32 
f 69 32 62 
f 63 59 31 
f 37 63 31 
f 37 31 30 
f 36 37 30 
f 36 30 29 
f 35 36 29 
f 35 29 28 
f 34 35 28 
f 34 28 27 
f 33 34 27 
f 33 27 26 
f 32 33 26 
f 32 26 58 
f 62 32 58 
f 59 55 153 
f 31 59 153 
f 31 153 152 
f 30 31 152 
f 30 152 151 
f 29 30 151 
f 29 151 150 
f 28 29 150 
f 28 150 149 
f 27 28 149 
f 27 149 148 
f 26 27 148 
f 26 148 54 
f 58 26 54 
f 75 18 76 
f 83 14 25 
f 14 83 71 
f 72 74 16 
f 82 25 24 
f 25 82 83 
f 81 24 23 
f 24 81 82 
f 80 23 22 
f 23 80 81 
f 79 22 21 
f 22 79 80 
f 78 21 20 
f 21 78 79 
f 77 20 19 
f 20 77 78 
f 75 19 18 
f 19 75 77 
f 73 18 17 
f 18 73 76 
f 16 74 17 
f 73 17 74 
f 70 16 15 
f 16 70 72 
f 71 15 14 
f 15 71 70 
f 68 65 13 
f 68 13 12 
f 68 12 11 
f 68 11 10 
f 66 68 10 
f 66 10 9 
f 66 9 8 
f 66 8 64 
f 65 61 7 
f 13 65 7 
f 13 7 6 
f 12 13 6 
f 12 6 5 
f 11 12 5 
f 11 5 4 
f 10 11 4 
f 10 4 3 
f 9 10 3 
f 9 3 2 
f 8 9 2 
f 8 2 60 
f 64 8 60 
f 61 57 1 
f 7 61 1 
f 7 1 158 
f 6 7 158 
f 6 158 157 
f 5 6 157 
f 5 157 156 
f 4 5 156 
f 4 156 155 
f 3 4 155 
f 3 155 154 
f 2 3 154 
f 2 154 56 
f 60 2 56 
f 54 132 147 
f 57 54 147 
f 57 147 146 
f 1 57 146 
f 1 146 145 
f 158 1 145 
f 158 145 144 
f 157 158 144 
f 157 144 143 
f 156 157 143 
f 156 143 142 
f 155 156 142 
f 155 142 141 
f 154 155 141 
f 154 141 140 
f 56 154 140 
f 56 140 139 
f 55 56 139 
f 55 139 138 
f 153 55 138 
f 153 138 137 
f 152 153 137 
f 152 137 136 
f 151 152 136 
f 151 136 135 
f 150 151 135 
f 150 135 134 
f 149 150 134 
f 149 134 133 
f 148 149 133 
f 148 133 132 
f 54 148 132 
f 132 116 131 
f 147 132 131 
f 147 131 130 
f 146 147 130 
f 146 130 129 
f 145 146 129 
f 145 129 128 
f 144 145 128 
f 144 128 127 
f 143 144 127 
f 143 127 126 
f 142 143 126 
f 142 126 125 
f 141 142 125 
f 141 125 124 
f 140 141 124 
f 140 124 123 
f 139 140 123 
f 139 123 122 
f 138 139 122 
f 138 122 121 
f 137 138 121 
f 137 121 120 
f 136 137 120 
f 136 120 119 
f 135 136 119 
f 135 119 118 
f 134 135 118 
f 134 118 117 
f 133 134 117 
f 133 117 116 
f 132 133 116 
f 116 100 115 
f 131 116 115 
f 131 115 114 
f 130 131 114 
f 130 114 113 
f 129 130 113 
f 129 113 112 
f 128 129 112 
f 128 112 111 
f 127 128 111 
f 127 111 110 
f 126 127 110 
f 126 110 109 
f 125 126 109 
f 125 109 108 
f 124 125 108 
f 124 108 107 
f 123 124 107 
f 123 107 106 
f 122 123 106 
f 122 106 105 
f 121 122 105 
f 121 105 104 
f 120 121 104 
f 120 104 103 
f 119 120 103 
f 119 103 102 
f 118 119 102 
f 118 102 101 
f 117 118 101 
f 117 101 100 
f 116 117 100 
f 100 96 97 
f 115 100 97 
f 114 115 97 
f 113 114 97 
f 112 113 97 
f 112 97 99 
f 111 112 99 
f 110 111 99 
f 109 110 99 
f 108 109 99 
f 108 99 98 
f 107 108 98 
f 106 107 98 
f 105 106 98 
f 104 105 98 
f 104 98 96 
f 103 104 96 
f 102 103 96 
f 101 102 96 
f 100 101 96 
f 99 97 96 
f 98 99 96 
f 76 93 75 
f 89 77 90 
f 75 90 77 
f 90 75 91 
f 92 91 75 
f 94 76 73 
f 76 94 93 
f 77 88 87 
f 77 89 88 
f 87 86 69 
f 86 85 69 
f 69 85 84 
f 71 83 68 
f 68 82 81 
f 68 81 69 
f 81 80 69 
f 80 79 69 
f 79 78 69 
f 68 83 82 
f 77 87 69 
f 78 77 69 
f 94 63 95 
f 67 95 63 
f 92 75 93 
f 63 94 73 
f 63 73 64 
f 74 72 66 
f 66 71 68 
f 72 70 66 
f 66 70 71 
f 69 62 65 
f 68 69 65 
f 64 74 66 
f 74 64 73 
f 62 58 61 
f 65 62 61 
f 64 60 59 
f 63 64 59 
f 58 54 57 
f 61 58 57 
f 60 56 55 
f 59 60 55 
