# NV = 434 NF = 864
v 0.262248 0.146716 0.576793
v 0.2617 0.153094 0.566514
v 0.262065 0.147142 0.576895
v 0.260846 0.16254 0.580429
v 0.260359 0.165364 0.58049
v 0.259384 0.167862 0.579495
v 0.258754 0.168655 0.57854
v 0.259303 0.169345 0.577707
v 0.260968 0.170544 0.574782
v 0.262025 0.170645 0.572669
v 0.262065 0.170584 0.572568
v 0.262065 0.157726 0.567571
v 0.265498 0.169 0.57076
v 0.265539 0.168919 0.570699
v 0.264117 0.169873 0.571573
v 0.265559 0.167598 0.570191
v 0.265437 0.166826 0.569927
v 0.264117 0.162235 0.568607
v 0.260135 0.185393 0.58953
v 0.260278 0.185251 0.589794
v 0.258754 0.187242 0.587478
v 0.259099 0.187689 0.586971
v 0.267489 -0.402208 0.564077
v 0.267713 -0.400725 0.561212
v 0.266534 -0.403021 0.565621
v 0.270008 -0.399222 0.558368
v 0.274213 -0.399872 0.559567
v 0.27596 -0.401396 0.562513
v 0.274213 -0.402919 0.565438
v 0.270008 -0.403549 0.566636
v 0.270008 -0.39841 0.558125
v 0.27464 -0.3991 0.559465
v 0.276549 -0.400766 0.562675
v 0.27464 -0.402452 0.565905
v 0.270008 -0.403143 0.567246
v 0.270008 -0.397577 0.557901
v 0.275046 -0.398328 0.559343
v 0.277138 -0.400157 0.562858
v 0.275046 -0.401964 0.566372
v 0.270008 -0.402716 0.567835
v 0.270008 -0.396744 0.557657
v 0.275473 -0.397556 0.559242
v 0.277727 -0.399527 0.563041
v 0.275473 -0.401497 0.566839
v 0.270008 -0.40231 0.568424
v 0.270008 -0.395911 0.557434
v 0.275879 -0.396805 0.55912
v 0.278316 -0.398917 0.563223
v 0.275879 -0.40103 0.567327
v 0.270008 -0.401904 0.569013
v 0.270008 -0.395098 0.55719
v 0.276305 -0.396033 0.559019
v 0.278906 -0.398288 0.563406
v 0.276305 -0.400563 0.567794
v 0.270008 -0.401497 0.569602
v 0.270008 -0.394266 0.556946
v 0.276712 -0.395261 0.558897
v 0.279495 -0.397678 0.563589
v 0.276712 -0.400075 0.568261
v 0.270008 -0.401091 0.570211
v 0.270008 -0.393453 0.556723
v 0.277138 -0.394509 0.558775
v 0.280084 -0.397049 0.563752
v 0.277138 -0.399608 0.568729
v 0.270008 -0.400664 0.570801
v 0.270008 -0.39262 0.556479
v 0.277565 -0.393737 0.558673
v 0.280673 -0.396439 0.563934
v 0.277565 -0.399141 0.569216
v 0.270008 -0.400258 0.57139
v 0.262472 -0.399141 0.569216
v 0.270008 -0.391808 0.556235
v 0.277971 -0.392986 0.558551
v 0.281282 -0.39583 0.564117
v 0.277971 -0.398653 0.569683
v 0.270008 -0.399832 0.571979
v 0.262065 -0.398653 0.569683
v 0.262065 -0.392986 0.558551
v 0.270008 -0.364973 0.563427
v 0.277971 -0.366009 0.565763
v 0.281282 -0.368528 0.57141
v 0.277971 -0.371026 0.577078
v 0.270008 -0.372062 0.579414
v 0.262065 -0.371026 0.577078
v 0.270008 -0.338382 0.56946
v 0.277971 -0.339255 0.571837
v 0.281282 -0.341368 0.577585
v 0.277971 -0.34346 0.583334
v 0.270008 -0.344334 0.585711
v 0.262065 -0.34346 0.583334
v 0.262065 -0.339255 0.571837
v 0.270008 -0.311689 0.574295
v 0.277971 -0.31236 0.576712
v 0.281282 -0.314005 0.582542
v 0.277971 -0.31563 0.588372
v 0.270008 -0.316301 0.59079
v 0.262065 -0.31236 0.576712
v 0.270008 -0.284509 0.57787
v 0.277971 -0.284976 0.580308
v 0.281282 -0.286094 0.586219
v 0.277971 -0.287211 0.59211
v 0.270008 -0.287678 0.594548
v 0.262065 -0.287211 0.59211
v 0.262065 -0.284976 0.580308
v 0.270008 -0.256476 0.580125
v 0.277971 -0.256699 0.582583
v 0.281282 -0.257288 0.588514
v 0.277971 -0.257878 0.594466
v 0.270008 -0.258121 0.596924
v 0.262065 -0.256699 0.582583
v 0.270008 -0.227183 0.580978
v 0.277971 -0.227224 0.583456
v 0.281282 -0.227264 0.589408
v 0.277971 -0.227305 0.59536
v 0.270008 -0.227325 0.597838
v 0.262065 -0.227305 0.59536
v 0.262065 -0.227224 0.583456
v 0.270008 -0.196306 0.580368
v 0.277971 -0.196123 0.582847
v 0.281282 -0.195676 0.588778
v 0.277971 -0.195209 0.59473
v 0.270008 -0.195026 0.597209
v 0.262065 -0.195209 0.59473
v 0.270008 -0.163458 0.578215
v 0.277971 -0.163072 0.580673
v 0.281282 -0.162158 0.586585
v 0.277971 -0.161244 0.592496
v 0.270008 -0.160858 0.594954
v 0.262065 -0.161244 0.592496
v 0.258754 -0.162158 0.586585
v 0.262065 -0.163072 0.580673
v 0.270008 -0.128275 0.574437
v 0.277971 -0.127726 0.576854
v 0.281282 -0.126406 0.582745
v 0.277971 -0.125065 0.588616
v 0.270008 -0.124516 0.591033
v 0.262065 -0.125065 0.588616
v 0.262065 -0.127726 0.576854
v 0.270008 -0.0913437 0.56948
v 0.277971 -0.0907343 0.571898
v 0.281282 -0.089292 0.577748
v 0.277971 -0.0878294 0.583619
v 0.270008 -0.08722 0.586036
v 0.262065 -0.0878294 0.583619
v 0.262065 -0.0907343 0.571898
v 0.270008 -0.0557131 0.564442
v 0.277971 -0.0551036 0.56686
v 0.281282 -0.0536207 0.57273
v 0.277971 -0.0521581 0.578581
v 0.270008 -0.0515487 0.580998
v 0.262065 -0.0521581 0.578581
v 0.262065 -0.0551036 0.56686
v 0.270008 -0.0214231 0.55975
v 0.277971 -0.0208543 0.562187
v 0.281282 -0.0194933 0.568058
v 0.277971 -0.0181322 0.573909
v 0.270008 -0.0175634 0.576346
v 0.262065 -0.0181322 0.573909
v 0.262065 -0.0208543 0.562187
v 0.270008 0.0114855 0.555829
v 0.277971 0.0119527 0.558267
v 0.281282 0.01307 0.564158
v 0.277971 0.014167 0.570069
v 0.270008 0.0146342 0.572507
v 0.262065 0.014167 0.570069
v 0.258754 0.01307 0.564158
v 0.262065 0.0119527 0.558267
v 0.270008 0.0430128 0.553087
v 0.277971 0.0432972 0.555545
v 0.281282 0.0439878 0.561497
v 0.277971 0.0446582 0.567428
v 0.270008 0.0449426 0.569886
v 0.262065 0.0446582 0.567428
v 0.262065 0.0432972 0.555545
v 0.270008 0.0731587 0.55201
v 0.277971 0.073179 0.554488
v 0.281282 0.0731993 0.56044
v 0.277971 0.0732399 0.566413
v 0.270008 0.0732399 0.568871
v 0.262065 0.0732399 0.566413
v 0.262065 0.073179 0.554488
v 0.270008 0.101903 0.553066
v 0.277971 0.101537 0.555525
v 0.281282 0.100664 0.561456
v 0.277971 0.0997903 0.567388
v 0.270008 0.099445 0.569846
v 0.262065 0.0997903 0.567388
v 0.262065 0.101537 0.555525
v 0.270008 0.129205 0.556764
v 0.277971 0.128352 0.559161
v 0.281282 0.12632 0.56495
v 0.277971 0.124289 0.570719
v 0.270008 0.123456 0.573116
v 0.262065 0.128352 0.559161
v 0.270008 0.154861 0.56367
v 0.277971 0.15346 0.565925
v 0.281282 0.150108 0.571329
v 0.277971 0.146756 0.576753
v 0.270008 0.145354 0.578987
v 0.262065 0.15346 0.565925
v 0.270008 0.176455 0.57206
v 0.277971 0.174789 0.574213
v 0.281282 0.170788 0.579353
v 0.277971 0.166765 0.584513
v 0.270008 0.1651 0.586645
v 0.262065 0.166765 0.584513
v 0.258754 0.170788 0.579353
v 0.262065 0.174789 0.574213
v 0.270008 0.194271 0.580856
v 0.277971 0.19228 0.582826
v 0.281282 0.187465 0.5876
v 0.277971 0.182671 0.592354
v 0.270008 0.18066 0.594324
v 0.262065 0.182671 0.592354
v 0.262065 0.19228 0.582826
v 0.281262 -0.261615 0.588149
v 0.281282 -0.261697 0.588169
v 0.281262 -0.261615 0.58821
v 0.281282 -0.261534 0.588189
v 0.263975 -0.394347 0.55847
v 0.262431 -0.3991 0.569115
v 0.264097 -0.25737 0.595116
v 0.264117 -0.257187 0.595137
v 0.264117 -0.257228 0.595137
v 0.264117 -0.400035 0.568891
v 0.264117 -0.402391 0.567754
v 0.265478 -0.402046 0.567835
v 0.264117 -0.403671 0.565864
v 0.266473 -0.403061 0.566007
v 0.264117 -0.403529 0.563772
v 0.266839 -0.402838 0.563934
v 0.264117 -0.402249 0.560826
v 0.266839 -0.401558 0.561009
v 0.264117 -0.400705 0.559059
v 0.266473 -0.400116 0.559201
v 0.264117 -0.398206 0.558104
v 0.265478 -0.397861 0.558186
v 0.266473 -0.396906 0.558429
v 0.264117 -0.395383 0.558206
v 0.265478 0.16898 0.570719
v 0.264117 0.169325 0.570801
v 0.264117 0.166928 0.569683
v 0.266758 -0.402797 0.566088
v 0.266717 -0.402635 0.566291
v 0.266798 -0.398897 0.559059
v 0.266859 -0.39971 0.559303
v 0.266575 -0.402208 0.566839
v 0.266758 -0.398064 0.558836
v 0.266433 -0.401782 0.567388
v 0.266717 -0.397252 0.558612
v 0.266291 -0.401355 0.567936
v 0.266555 -0.396642 0.55849
v 0.266717 -0.39713 0.558592
v 0.266372 -0.396459 0.55849
v 0.26627 -0.401294 0.568018
v 0.26558 -0.400827 0.568322
v 0.26562 -0.395748 0.55847
v 0.265559 -0.400827 0.568322
v 0.264848 -0.40036 0.568647
v 0.264848 -0.395037 0.55845
v 0.265356 -0.395484 0.55845
v 0.265641 -0.395748 0.55847
v 0.264117 -0.399892 0.568932
v 0.263711 -0.39973 0.568972
v 0.264747 -0.400299 0.568688
v 0.2643 -0.400014 0.568871
v 0.264117 -0.394408 0.55845
v 0.262573 -0.399242 0.569094
v 0.262634 -0.393717 0.558633
v 0.261822 -0.39845 0.569277
v 0.262512 -0.393697 0.558633
v 0.261923 -0.393087 0.558775
v 0.262411 -0.393615 0.558653
v 0.261476 -0.370579 0.576062
v 0.262065 -0.382626 0.561314
v 0.2617 -0.343237 0.582705
v 0.262045 -0.339276 0.571857
v 0.262065 -0.34084 0.571471
v 0.263284 -0.365846 0.565397
v 0.263447 -0.318698 0.588271
v 0.262797 -0.315691 0.588596
v 0.262065 -0.321379 0.587336
v 0.262289 -0.321277 0.587417
v 0.261781 -0.340921 0.583273
v 0.261557 -0.338097 0.583375
v 0.260806 -0.335578 0.58242
v 0.259709 -0.334055 0.580653
v 0.260257 -0.323289 0.583619
v 0.261354 -0.322963 0.585731
v 0.258754 -0.333344 0.579028
v 0.258754 -0.32274 0.580958
v 0.259526 -0.332775 0.577728
v 0.260664 -0.332633 0.575615
v 0.261557 -0.333913 0.573746
v 0.261943 -0.336269 0.572588
v 0.260115 -0.321542 0.578642
v 0.258978 -0.322679 0.580592
v 0.261415 -0.316483 0.577159
v 0.261009 -0.319287 0.577382
v 0.261557 -0.312603 0.577585
v 0.262065 -0.303807 0.589916
v 0.261882 -0.28715 0.591785
v 0.261862 -0.285037 0.580673
v 0.262065 -0.27681 0.592943
v 0.263954 -0.257939 0.595055
v 0.261375 -0.256821 0.583822
v 0.264097 -0.257065 0.595116
v 0.262451 -0.234151 0.595279
v 0.262065 -0.23214 0.595218
v 0.263122 -0.254424 0.594893
v 0.262065 -0.253855 0.594588
v 0.262065 -0.235045 0.595137
v 0.261517 -0.252149 0.593633
v 0.26042 -0.251032 0.591704
v 0.261171 -0.238986 0.59341
v 0.261923 -0.236893 0.594832
v 0.258754 -0.239961 0.589043
v 0.260054 -0.239818 0.591399
v 0.258754 -0.250443 0.588718
v 0.261903 -0.227305 0.595055
v 0.258795 -0.250422 0.588657
v 0.259953 -0.250747 0.586564
v 0.260867 -0.252413 0.584878
v 0.261293 -0.255013 0.584025
v 0.260298 -0.239392 0.58626
v 0.25916 -0.240001 0.588311
v 0.261598 -0.234801 0.584066
v 0.261192 -0.237482 0.584695
v 0.261862 -0.227224 0.583822
v 0.261659 -0.19527 0.594019
v 0.262065 -0.198723 0.582887
v 0.262167 -0.196123 0.582806
v 0.262207 -0.172051 0.593268
v 0.262065 -0.171767 0.593187
v 0.262065 -0.173473 0.593308
v 0.261822 -0.16937 0.592618
v 0.26105 -0.16746 0.591074
v 0.259932 -0.166851 0.589002
v 0.258754 -0.166973 0.58691
v 0.259303 -0.167034 0.585934
v 0.26044 -0.167866 0.583923
v 0.261293 -0.169959 0.582501
v 0.261659 -0.172701 0.582034
v 0.262065 -0.195107 0.582766
v 0.261984 -0.148528 0.590993
v 0.261761 -0.125187 0.588067
v 0.260907 -0.153647 0.589571
v 0.2617 -0.151351 0.59079
v 0.258754 -0.155211 0.585833
v 0.25977 -0.154805 0.587641
v 0.260582 -0.155211 0.582501
v 0.259445 -0.155495 0.584614
v 0.261761 -0.151006 0.579922
v 0.261436 -0.153586 0.580795
v 0.261984 -0.127706 0.576996
v 0.261943 -0.0878701 0.583395
v 0.261801 -0.0906328 0.572365
v 0.261943 -0.0872403 0.583314
v 0.261659 -0.0846605 0.58244
v 0.260846 -0.0830353 0.580734
v 0.259729 -0.0827509 0.578621
v 0.261761 -0.064184 0.579718
v 0.261781 -0.05228 0.578073
v 0.260623 -0.0693234 0.578357
v 0.261456 -0.0670076 0.579556
v 0.258754 -0.0708673 0.575148
v 0.259485 -0.0705423 0.576468
v 0.258754 -0.0831369 0.576895
v 0.259485 -0.0834416 0.575595
v 0.260623 -0.0845995 0.573665
v 0.261476 -0.086895 0.572446
v 0.261801 -0.0897186 0.572243
v 0.260867 -0.0710704 0.571329
v 0.259729 -0.0712939 0.573441
v 0.261984 -0.0669264 0.568688
v 0.261679 -0.0694656 0.569582
v 0.261964 -0.055063 0.567043
v 0.26174 -0.0182541 0.57336
v 0.262004 -0.020834 0.562289
v 0.261578 -0.0030796 0.571248
v 0.261253 -0.000520037 0.570333
v 0.2604 0.00106445 0.568607
v 0.259262 0.00128791 0.566494
v 0.258754 0.00106445 0.5656
v 0.259953 0.000536288 0.563467
v 0.26107 -0.000682549 0.561558
v 0.261882 -0.00299834 0.56038
v 0.262065 -0.00478597 0.560258
v 0.262065 -0.015207 0.561517
v 0.262634 -0.00580167 0.560197
v 0.261375 0.0195298 0.568363
v 0.262045 0.0446582 0.567388
v 0.260135 0.0146748 0.566514
v 0.261009 0.0167671 0.567936
v 0.258754 0.013781 0.564097
v 0.258978 0.0138013 0.564503
v 0.261354 0.014167 0.559364
v 0.260237 0.0135778 0.561436
v 0.2617 0.0433784 0.556175
v 0.262065 0.0299103 0.556703
v 0.262065 0.015914 0.557922
v 0.263751 0.0187376 0.55715
v 0.262411 0.0160562 0.5578
v 0.261984 0.0732399 0.56625
v 0.261761 0.073179 0.555017
v 0.261618 0.081589 0.565925
v 0.261212 0.0842704 0.565275
v 0.260298 0.0861596 0.563711
v 0.25914 0.0867487 0.561639
v 0.260115 0.099384 0.563833
v 0.260684 0.100156 0.56493
v 0.258754 0.0996278 0.561416
v 0.258937 0.0994856 0.561741
v 0.258754 0.0867081 0.560948
v 0.260075 0.0865456 0.558572
v 0.261151 0.0856721 0.55656
v 0.261903 0.0835797 0.555159
v 0.262065 0.081203 0.554773
v 0.260542 0.101131 0.558267
v 0.260237 0.100684 0.558795
v 0.262065 0.0801873 0.554732
v 0.262207 0.0808171 0.554712
v 0.262065 0.114051 0.569318
v 0.264117 0.121039 0.570922
v 0.264645 0.124025 0.571491
v 0.26107 0.100725 0.565702
v 0.261497 0.103101 0.566819
v 0.262025 0.104686 0.556012
v 0.261293 0.102187 0.557007
v 0.261171 0.127803 0.560725
v 0.262065 0.110171 0.556703
v 0.262065 0.105234 0.556032
v 0.262837 0.107489 0.556093
v 0.264117 0.131196 0.573259
f 307 223 308 
f 224 223 307 
f 224 307 222 
f 22 211 209 
f 21 211 22 
f 19 211 21 
f 20 211 19 
f 213 211 20 
f 212 211 213 
f 214 213 20 
f 215 22 209 
f 393 394 392 
f 396 393 392 
f 395 396 392 
f 398 395 392 
f 397 398 392 
f 405 397 392 
f 401 397 405 
f 403 401 405 
f 399 403 405 
f 400 403 399 
f 402 403 400 
f 421 405 392 
f 422 421 392 
f 418 422 392 
f 417 418 392 
f 416 417 392 
f 415 416 392 
f 414 415 392 
f 409 414 392 
f 408 409 392 
f 407 408 392 
f 404 407 392 
f 406 407 404 
f 364 365 363 
f 367 364 363 
f 366 367 363 
f 374 366 363 
f 373 374 363 
f 385 373 363 
f 386 373 385 
f 387 373 386 
f 388 373 387 
f 390 373 388 
f 389 373 390 
f 379 373 389 
f 376 373 379 
f 377 376 379 
f 375 376 377 
f 384 385 363 
f 383 384 363 
f 382 383 363 
f 381 382 363 
f 378 381 363 
f 380 381 378 
f 347 348 346 
f 350 347 346 
f 349 350 346 
f 352 349 346 
f 357 352 346 
f 351 352 357 
f 355 351 357 
f 354 351 355 
f 353 354 355 
f 372 357 346 
f 371 372 346 
f 370 371 346 
f 369 370 346 
f 368 369 346 
f 361 368 346 
f 360 361 346 
f 359 360 346 
f 356 359 346 
f 358 359 356 
f 312 308 344 
f 316 312 344 
f 315 316 344 
f 318 315 344 
f 317 318 344 
f 326 317 344 
f 332 326 344 
f 325 326 332 
f 331 325 332 
f 328 325 331 
f 329 328 331 
f 327 328 329 
f 320 344 309 
f 330 344 320 
f 335 344 330 
f 333 344 335 
f 334 344 333 
f 336 344 334 
f 337 344 336 
f 338 344 337 
f 339 344 338 
f 340 344 339 
f 341 344 340 
f 342 344 341 
f 343 344 342 
f 217 216 218 
f 11 241 12 
f 2 11 12 
f 430 11 2 
f 431 11 430 
f 10 11 431 
f 9 10 431 
f 8 9 431 
f 7 8 431 
f 6 7 431 
f 5 6 431 
f 4 5 431 
f 3 4 431 
f 1 3 431 
f 434 1 431 
f 424 434 431 
f 423 424 431 
f 433 423 431 
f 432 423 433 
f 428 423 432 
f 429 423 428 
f 419 423 429 
f 420 423 419 
f 412 423 420 
f 413 423 412 
f 410 423 413 
f 411 423 410 
f 426 423 411 
f 427 423 426 
f 303 222 307 
f 305 222 303 
f 304 305 303 
f 302 304 303 
f 301 302 303 
f 281 301 303 
f 280 281 303 
f 283 280 303 
f 282 283 303 
f 289 282 303 
f 288 289 303 
f 291 288 303 
f 297 291 303 
f 296 297 303 
f 299 296 303 
f 300 299 303 
f 298 299 300 
f 306 303 307 
f 324 306 307 
f 323 324 307 
f 322 323 307 
f 319 322 307 
f 321 322 319 
f 314 319 307 
f 311 314 307 
f 313 314 311 
f 310 311 307 
f 230 228 225 
f 232 230 225 
f 234 232 225 
f 236 234 225 
f 239 236 225 
f 267 239 225 
f 271 267 225 
f 273 271 225 
f 272 273 225 
f 275 272 225 
f 277 275 225 
f 295 277 225 
f 294 295 225 
f 293 294 225 
f 264 293 225 
f 292 293 264 
f 290 292 264 
f 287 290 264 
f 286 287 264 
f 221 286 264 
f 285 286 221 
f 274 285 221 
f 284 285 274 
f 276 284 274 
f 270 274 221 
f 268 221 264 
f 263 264 225 
f 211 210 209 
f 394 391 392 
f 365 362 363 
f 348 345 346 
f 344 308 309 
f 219 218 216 
f 12 241 242 
f 228 226 225 
f 360 359 367 
f 364 367 359 
f 362 359 151 
f 358 151 359 
f 322 321 328 
f 325 328 321 
f 307 308 310 
f 285 288 286 
f 310 312 311 
f 312 310 308 
f 255 256 258 
f 258 256 225 
f 259 225 256 
f 208 22 215 
f 21 207 19 
f 431 194 433 
f 433 194 189 
f 431 430 194 
f 12 18 200 
f 182 433 189 
f 432 188 428 
f 200 18 17 
f 195 16 14 
f 200 17 195 
f 11 208 15 
f 195 17 16 
f 208 13 15 
f 201 13 208 
f 195 14 201 
f 188 429 428 
f 419 188 420 
f 11 10 208 
f 413 409 408 
f 409 413 412 
f 412 414 409 
f 10 9 208 
f 200 2 12 
f 9 8 208 
f 406 410 413 
f 411 187 426 
f 7 6 207 
f 425 193 434 
f 207 5 206 
f 207 6 5 
f 5 4 206 
f 206 4 3 
f 1 199 206 
f 199 205 206 
f 187 427 426 
f 425 424 193 
f 174 168 400 
f 400 399 174 
f 160 402 168 
f 181 421 422 
f 181 422 175 
f 400 168 402 
f 160 403 402 
f 401 167 397 
f 418 417 188 
f 417 416 188 
f 167 398 397 
f 395 166 396 
f 181 405 421 
f 416 415 188 
f 165 393 166 
f 165 394 393 
f 408 407 413 
f 413 407 406 
f 406 187 410 
f 411 410 187 
f 180 187 404 
f 166 393 396 
f 165 391 394 
f 173 180 392 
f 390 153 389 
f 377 152 375 
f 145 375 152 
f 376 375 371 
f 145 371 375 
f 159 389 153 
f 153 390 160 
f 373 371 370 
f 371 373 376 
f 388 387 167 
f 374 370 369 
f 370 374 373 
f 387 386 167 
f 366 361 367 
f 366 368 361 
f 159 379 389 
f 386 385 167 
f 361 360 367 
f 384 383 166 
f 383 382 166 
f 359 365 364 
f 166 381 165 
f 166 382 381 
f 381 380 165 
f 158 165 378 
f 359 362 365 
f 151 158 363 
f 138 353 355 
f 131 353 138 
f 131 354 353 
f 131 351 354 
f 145 372 371 
f 131 352 351 
f 349 130 350 
f 145 357 372 
f 130 347 350 
f 130 348 347 
f 129 348 130 
f 151 358 144 
f 144 358 356 
f 129 345 348 
f 137 345 129 
f 137 144 346 
f 332 118 331 
f 329 117 327 
f 323 327 117 
f 344 343 131 
f 323 328 327 
f 323 322 328 
f 343 342 131 
f 342 341 131 
f 317 314 318 
f 321 326 325 
f 317 319 314 
f 341 340 131 
f 315 314 313 
f 314 315 318 
f 339 338 130 
f 130 337 129 
f 313 316 315 
f 116 308 223 
f 130 338 337 
f 337 336 129 
f 129 334 333 
f 129 333 128 
f 123 335 330 
f 312 316 311 
f 313 311 316 
f 116 123 320 
f 110 303 306 
f 300 97 298 
f 97 299 298 
f 292 299 97 
f 110 323 117 
f 292 296 299 
f 110 324 323 
f 292 297 296 
f 291 290 287 
f 110 306 324 
f 285 289 288 
f 282 90 283 
f 109 224 222 
f 116 223 224 
f 116 224 115 
f 115 224 109 
f 109 222 305 
f 103 302 301 
f 90 280 283 
f 89 280 90 
f 281 96 103 
f 96 102 103 
f 279 79 275 
f 72 275 79 
f 278 91 85 
f 271 273 78 
f 271 78 269 
f 220 61 267 
f 260 56 261 
f 254 46 252 
f 91 295 97 
f 46 253 252 
f 295 294 97 
f 294 293 97 
f 26 24 246 
f 91 277 295 
f 293 292 97 
f 26 23 24 
f 27 23 26 
f 243 25 30 
f 27 25 23 
f 28 25 27 
f 251 45 50 
f 45 251 249 
f 247 35 40 
f 35 247 244 
f 263 266 60 
f 265 259 60 
f 50 255 251 
f 259 256 60 
f 55 60 256 
f 286 288 287 
f 291 287 288 
f 285 282 289 
f 282 285 90 
f 90 285 284 
f 90 284 276 
f 84 90 274 
f 77 84 270 
f 268 71 221 
f 60 266 265 
f 264 65 71 
f 65 70 71 
f 219 107 218 
f 108 218 107 
f 107 219 216 
f 107 216 106 
f 28 30 25 
f 30 28 29 
f 208 215 209 
f 209 201 208 
f 208 207 22 
f 21 22 207 
f 207 214 19 
f 20 19 214 
f 214 207 206 
f 205 213 214 
f 214 206 205 
f 204 212 213 
f 213 205 204 
f 203 211 212 
f 212 204 203 
f 202 210 211 
f 211 203 202 
f 201 209 210 
f 210 202 201 
f 201 14 13 
f 8 207 208 
f 207 8 7 
f 3 1 206 
f 198 204 205 
f 205 199 198 
f 197 203 204 
f 204 198 197 
f 196 202 203 
f 203 197 196 
f 195 201 202 
f 202 196 195 
f 194 200 195 
f 195 189 194 
f 430 200 194 
f 200 430 2 
f 1 434 199 
f 193 199 434 
f 192 198 199 
f 199 193 192 
f 191 197 198 
f 198 192 191 
f 190 196 197 
f 197 191 190 
f 189 195 196 
f 196 190 189 
f 182 188 433 
f 432 433 188 
f 188 419 429 
f 187 423 427 
f 187 193 423 
f 424 423 193 
f 193 187 186 
f 185 192 193 
f 193 186 185 
f 184 191 192 
f 192 185 184 
f 183 190 191 
f 191 184 183 
f 182 189 190 
f 190 183 182 
f 175 418 182 
f 188 182 418 
f 418 175 422 
f 415 412 188 
f 420 188 412 
f 412 415 414 
f 406 404 187 
f 179 186 187 
f 187 180 179 
f 178 185 186 
f 186 179 178 
f 177 184 185 
f 185 178 177 
f 176 183 184 
f 184 177 176 
f 175 182 183 
f 183 176 175 
f 174 181 175 
f 175 168 174 
f 399 181 174 
f 181 399 405 
f 404 392 180 
f 172 179 180 
f 180 173 172 
f 171 178 179 
f 179 172 171 
f 170 177 178 
f 178 171 170 
f 169 176 177 
f 177 170 169 
f 168 175 176 
f 176 169 168 
f 160 167 403 
f 401 403 167 
f 167 166 398 
f 395 398 166 
f 392 391 173 
f 165 173 391 
f 164 172 173 
f 173 165 164 
f 163 171 172 
f 172 164 163 
f 162 170 171 
f 171 163 162 
f 161 169 170 
f 170 162 161 
f 160 168 169 
f 169 161 160 
f 390 167 160 
f 167 390 388 
f 385 166 167 
f 166 385 384 
f 380 378 165 
f 157 164 165 
f 165 158 157 
f 156 163 164 
f 164 157 156 
f 155 162 163 
f 163 156 155 
f 154 161 162 
f 162 155 154 
f 153 160 161 
f 161 154 153 
f 152 159 153 
f 153 146 152 
f 377 159 152 
f 159 377 379 
f 378 363 158 
f 150 157 158 
f 158 151 150 
f 149 156 157 
f 157 150 149 
f 148 155 156 
f 156 149 148 
f 147 154 155 
f 155 148 147 
f 146 153 154 
f 154 147 146 
f 145 152 146 
f 146 139 145 
f 369 366 374 
f 366 369 368 
f 363 362 151 
f 143 150 151 
f 151 144 143 
f 142 149 150 
f 150 143 142 
f 141 148 149 
f 149 142 141 
f 140 147 148 
f 148 141 140 
f 139 146 147 
f 147 140 139 
f 138 145 139 
f 139 132 138 
f 355 145 138 
f 145 355 357 
f 356 346 144 
f 136 143 144 
f 144 137 136 
f 135 142 143 
f 143 136 135 
f 134 141 142 
f 142 135 134 
f 133 140 141 
f 141 134 133 
f 132 139 140 
f 140 133 132 
f 131 138 132 
f 132 124 131 
f 131 130 352 
f 349 352 130 
f 137 346 345 
f 128 136 137 
f 137 129 128 
f 127 135 136 
f 136 128 127 
f 126 134 135 
f 135 127 126 
f 125 133 134 
f 134 126 125 
f 124 132 133 
f 133 125 124 
f 332 124 118 
f 124 332 131 
f 131 332 344 
f 340 130 131 
f 130 340 339 
f 336 334 129 
f 123 128 335 
f 333 335 128 
f 128 123 122 
f 121 127 128 
f 128 122 121 
f 120 126 127 
f 127 121 120 
f 119 125 126 
f 126 120 119 
f 118 124 125 
f 125 119 118 
f 117 331 118 
f 118 111 117 
f 117 329 331 
f 330 320 123 
f 115 122 123 
f 123 116 115 
f 114 121 122 
f 122 115 114 
f 113 120 121 
f 121 114 113 
f 112 119 120 
f 120 113 112 
f 111 118 119 
f 119 112 111 
f 110 117 111 
f 111 105 110 
f 321 317 326 
f 317 321 319 
f 116 320 309 
f 308 116 309 
f 108 114 115 
f 115 109 108 
f 107 113 114 
f 114 108 107 
f 106 112 113 
f 113 107 106 
f 105 111 112 
f 112 106 105 
f 104 110 105 
f 105 98 104 
f 110 104 303 
f 304 302 103 
f 103 109 304 
f 305 304 109 
f 109 103 102 
f 101 108 109 
f 109 102 101 
f 218 108 217 
f 100 217 108 
f 108 101 100 
f 100 106 217 
f 106 100 99 
f 216 217 106 
f 98 105 106 
f 106 99 98 
f 97 104 98 
f 98 92 97 
f 300 104 97 
f 104 300 303 
f 301 281 103 
f 95 101 102 
f 102 96 95 
f 94 100 101 
f 101 95 94 
f 93 99 100 
f 100 94 93 
f 92 98 99 
f 99 93 92 
f 91 97 92 
f 92 85 91 
f 292 290 297 
f 291 297 290 
f 281 280 96 
f 89 96 280 
f 88 95 96 
f 96 89 88 
f 87 94 95 
f 95 88 87 
f 86 93 94 
f 94 87 86 
f 85 92 93 
f 93 86 85 
f 279 278 79 
f 85 79 278 
f 91 278 277 
f 276 274 90 
f 83 89 90 
f 90 84 83 
f 82 88 89 
f 89 83 82 
f 81 87 88 
f 88 82 81 
f 80 86 87 
f 87 81 80 
f 79 85 86 
f 86 80 79 
f 275 72 78 
f 78 272 275 
f 274 270 84 
f 76 83 84 
f 84 77 76 
f 75 82 83 
f 83 76 75 
f 74 81 82 
f 82 75 74 
f 73 80 81 
f 81 74 73 
f 72 79 80 
f 80 73 72 
f 269 72 66 
f 72 269 78 
f 78 273 272 
f 221 77 270 
f 77 221 71 
f 70 76 77 
f 77 71 70 
f 69 75 76 
f 76 70 69 
f 68 74 75 
f 75 69 68 
f 67 73 74 
f 74 68 67 
f 66 72 73 
f 73 67 66 
f 220 66 61 
f 66 220 269 
f 268 264 71 
f 64 69 70 
f 70 65 64 
f 63 68 69 
f 69 64 63 
f 62 67 68 
f 68 63 62 
f 61 66 67 
f 67 62 61 
f 260 61 56 
f 61 260 267 
f 264 263 65 
f 60 65 263 
f 59 64 65 
f 65 60 59 
f 58 63 64 
f 64 59 58 
f 57 62 63 
f 63 58 57 
f 56 61 62 
f 62 57 56 
f 262 261 51 
f 56 51 261 
f 54 59 60 
f 60 55 54 
f 53 58 59 
f 59 54 53 
f 52 57 58 
f 58 53 52 
f 51 56 57 
f 57 52 51 
f 254 51 46 
f 51 254 262 
f 256 255 55 
f 50 55 255 
f 49 54 55 
f 55 50 49 
f 48 53 54 
f 54 49 48 
f 47 52 53 
f 53 48 47 
f 46 51 52 
f 52 47 46 
f 250 253 41 
f 46 41 253 
f 44 49 50 
f 50 45 44 
f 43 48 49 
f 49 44 43 
f 42 47 48 
f 48 43 42 
f 41 46 47 
f 47 42 41 
f 248 250 36 
f 41 36 250 
f 247 40 249 
f 45 249 40 
f 39 44 45 
f 45 40 39 
f 38 43 44 
f 44 39 38 
f 37 42 43 
f 43 38 37 
f 36 41 42 
f 42 37 36 
f 245 248 31 
f 36 31 248 
f 34 39 40 
f 40 35 34 
f 33 38 39 
f 39 34 33 
f 32 37 38 
f 38 33 32 
f 31 36 37 
f 37 32 31 
f 246 245 26 
f 31 26 245 
f 244 30 35 
f 30 244 243 
f 29 34 35 
f 35 30 29 
f 28 33 34 
f 34 29 28 
f 27 32 33 
f 33 28 27 
f 26 31 32 
f 32 27 26 
f 233 235 24 
f 231 233 23 
f 16 242 14 
f 15 241 11 
f 13 240 241 
f 434 424 425 
f 242 18 12 
f 279 275 278 
f 275 277 278 
f 220 267 271 
f 220 271 269 
f 267 260 239 
f 259 265 225 
f 225 266 263 
f 261 262 257 
f 262 254 257 
f 255 258 227 
f 261 257 239 
f 255 227 251 
f 257 254 239 
f 252 238 239 
f 253 250 238 
f 227 249 251 
f 250 248 238 
f 227 247 249 
f 248 245 238 
f 231 25 230 
f 227 244 247 
f 229 25 243 
f 242 17 18 
f 242 241 240 
f 242 240 14 
f 242 16 17 
f 241 15 13 
f 240 13 14 
f 239 260 261 
f 254 252 239 
f 239 238 237 
f 239 237 236 
f 238 252 253 
f 245 237 238 
f 237 245 235 
f 235 245 246 
f 237 235 234 
f 236 237 234 
f 246 24 235 
f 235 233 232 
f 234 235 232 
f 24 23 233 
f 233 231 230 
f 232 233 230 
f 23 25 231 
f 25 229 230 
f 230 229 228 
f 243 244 229 
f 227 229 244 
f 229 227 226 
f 228 229 226 
f 266 225 265 
f 227 258 225 
f 226 227 225 
