# NV = 83 NF = 162
v -0.215712 -0.26974 0.939168
v -0.215712 -0.271976 1.00848
v -0.215714 0.193097 1.09568
v -0.215714 -0.109311 0.898921
v -0.215714 0.226636 1.03531
v -0.215712 0.601713 0.898921
v -0.215714 0.470351 1.03531
v -0.215712 0.604528 0.906241
v -0.215712 0.611568 0.924676
v -0.215712 0.620717 0.948951
v -0.215714 0.629868 0.973784
v -0.215714 0.557553 1.15158
v -0.215714 0.636908 0.993897
v -0.215714 0.639723 1.00401
v -0.215714 0.63757 1.01744
v -0.215714 0.632186 1.04583
v -0.215714 0.625188 1.08143
v -0.215714 0.618193 1.11647
v -0.215714 0.610656 1.15382
v -0.215714 0.612809 1.14319
v -0.130101 -0.271976 1.00848
v -0.130101 -0.269738 0.939168
v -0.101564 0.601713 0.898921
v -0.101564 0.604528 0.906241
v -0.101564 0.611568 0.924676
v -0.101564 0.620717 0.948951
v -0.101564 0.636908 0.993897
v -0.101564 0.639723 1.00401
v -0.0730263 -0.271976 1.00848
v -0.0730263 -0.269738 0.939168
v -0.0730263 0.604528 0.906241
v -0.0730263 0.611568 0.924676
v -0.0730263 0.629868 0.973784
v -0.0730263 0.639723 1.00401
v -0.0730263 0.63757 1.01744
v -0.0444892 0.611568 0.924676
v -0.0159519 0.620717 0.948951
v -0.0159519 0.629868 0.973784
v 0.0125854 -0.271976 1.00848
v 0.0125854 -0.269738 0.939168
v 0.0125854 0.604528 0.906241
v 0.0125854 0.611568 0.924676
v 0.0125854 0.639723 1.00401
v 0.0125854 0.63757 1.01744
v 0.0411227 0.611568 0.924676
v 0.0411227 0.620717 0.948951
v 0.0411227 0.632186 1.04583
v 0.0411227 0.625188 1.08143
v 0.06966 -0.271974 1.00848
v 0.06966 -0.269738 0.939168
v 0.06966 0.629868 0.973784
v 0.06966 0.618193 1.11647
v 0.0981973 -0.271976 1.00848
v 0.0981975 -0.109311 0.898921
v 0.0981973 0.632186 1.04583
v 0.126735 0.557553 1.15158
v 0.126735 0.610656 1.15382
v 0.126735 0.470351 1.03531
v 0.126735 0.226636 1.03531
v 0.126735 0.193097 1.09568
v 0.126735 -0.271976 1.00848
v 0.126735 -0.26974 0.939168
v 0.126735 -0.109311 0.898921
v 0.126735 0.601713 0.898921
v 0.126735 0.604528 0.906241
v 0.126735 0.611568 0.924676
v 0.126735 0.620717 0.948951
v 0.126735 0.629868 0.973784
v 0.126735 0.636908 0.993897
v 0.126735 0.639723 1.00401
v 0.126735 0.63757 1.01744
v 0.126735 0.632186 1.04583
v 0.126735 0.62519 1.08143
v 0.126735 0.618193 1.11647
v 0.126735 0.612809 1.14319
v -0.179973 0.470351 1.03531
v -0.180233 0.545912 1.13606
v -0.179045 0.200823 1.08178
v -0.179134 0.226636 1.03531
v 0.0900659 0.545712 1.13579
v 0.0912533 0.200943 1.08156
v 0.0903254 0.470351 1.03531
v 0.0911649 0.226636 1.03531
f 2 3 1 
f 7 6 5 
f 18 12 20 
f 56 57 12 
f 56 80 58 
f 79 76 5 
f 3 78 5 
f 53 61 49 
f 22 21 1 
f 1 4 22 
f 6 23 4 
f 8 24 6 
f 9 25 8 
f 10 26 9 
f 33 26 11 
f 13 27 11 
f 14 28 13 
f 35 28 15 
f 15 16 35 
f 17 48 16 
f 52 48 18 
f 75 52 20 
f 19 57 20 
f 22 30 21 
f 31 23 24 
f 65 64 41 
f 31 36 41 
f 25 26 32 
f 38 37 33 
f 34 27 28 
f 70 69 43 
f 43 34 44 
f 30 40 29 
f 45 42 46 
f 51 46 38 
f 50 49 40 
f 41 45 65 
f 67 66 46 
f 68 67 51 
f 44 71 43 
f 73 55 48 
f 62 53 50 
f 63 62 54 
f 74 73 52 
f 82 83 58 
f 61 53 62 
f 72 55 73 
f 66 67 65 
f 70 71 69 
f 57 56 75 
f 76 79 77 
f 81 80 78 
f 81 83 80 
f 5 4 3 
f 4 1 3 
f 4 5 6 
f 6 7 8 
f 8 7 9 
f 9 7 10 
f 10 7 11 
f 7 12 11 
f 11 12 13 
f 13 12 14 
f 14 12 15 
f 15 12 16 
f 16 12 17 
f 17 12 18 
f 19 20 12 
f 19 12 57 
f 76 77 7 
f 7 77 12 
f 12 77 56 
f 77 80 56 
f 82 58 80 
f 7 5 76 
f 83 81 59 
f 59 81 60 
f 60 81 3 
f 81 78 3 
f 79 5 78 
f 3 2 60 
f 2 21 60 
f 21 29 60 
f 29 39 60 
f 39 49 60 
f 60 49 61 
f 2 1 21 
f 54 50 4 
f 50 40 4 
f 40 30 4 
f 30 22 4 
f 63 54 64 
f 64 54 23 
f 54 4 23 
f 23 6 24 
f 32 24 25 
f 24 8 25 
f 25 9 26 
f 10 11 26 
f 68 51 69 
f 69 51 27 
f 51 38 27 
f 38 33 27 
f 33 11 27 
f 27 13 28 
f 14 15 28 
f 72 71 55 
f 71 44 55 
f 55 44 47 
f 47 44 16 
f 44 35 16 
f 47 16 48 
f 17 18 48 
f 74 52 75 
f 18 20 52 
f 75 20 57 
f 29 21 30 
f 23 31 64 
f 31 41 64 
f 24 32 31 
f 32 36 31 
f 42 41 36 
f 37 36 26 
f 36 32 26 
f 26 33 37 
f 27 34 69 
f 34 43 69 
f 28 35 34 
f 35 44 34 
f 39 29 40 
f 36 37 42 
f 37 46 42 
f 37 38 46 
f 39 40 49 
f 42 45 41 
f 66 65 45 
f 45 46 66 
f 46 51 67 
f 70 43 71 
f 47 48 55 
f 49 50 53 
f 50 54 62 
f 48 52 73 
f 59 58 83 
f 68 58 67 
f 61 62 60 
f 62 63 60 
f 60 63 59 
f 63 64 59 
f 59 64 58 
f 58 64 67 
f 64 65 67 
f 56 58 71 
f 58 68 71 
f 68 69 71 
f 71 72 56 
f 72 73 56 
f 73 74 56 
f 74 75 56 
f 78 77 79 
f 77 78 80 
f 82 80 83 
