# NV = 748 NF = 1492
v -0.913593 0.0130921 0.82884
v -0.917192 0.0130921 0.834101
v -0.914828 0.0130921 0.830833
v -0.915919 0.0130921 0.832547
v -0.915514 0.0130921 0.831937
v -0.918455 0.0130921 0.835647
v -0.918016 0.0130921 0.835109
v -0.918592 0.0130921 0.835775
v -0.915801 0.0130921 0.832403
v -0.948669 0.590663 0.831905
v -0.948668 0.590663 0.843102
v -0.948668 0.590663 0.845067
v -0.948533 0.559673 0.845089
v -0.947134 0.508692 0.845317
v -0.94497 0.510134 0.84567
v -0.943535 0.510322 0.845714
v -0.94407 0.510252 0.845698
v -0.947585 0.508391 0.845243
v -0.944411 0.510208 0.845688
v -0.936609 0.509017 0.845385
v -0.940226 0.510467 0.845746
v -0.94078 0.510691 0.845802
v -0.939695 0.510252 0.845694
v -0.936886 0.509131 0.845413
v -0.940479 0.510571 0.845772
v -0.943478 0.590663 0.830295
v -0.948066 0.590663 0.830295
v -0.945702 0.590663 0.830295
v -0.941311 0.590663 0.830295
v -0.936838 0.590663 0.830295
v -0.939123 0.590663 0.830295
v -0.936637 0.590663 0.830953
v -0.936637 0.590663 0.845213
v -0.936609 0.58406 0.845385
v -0.936635 0.589989 0.845387
v -0.936621 0.586952 0.845387
v -0.936637 0.590663 0.845387
v -0.917643 0.498524 0.792871
v -0.92689 0.590663 0.797727
v -0.917384 0.580852 0.793145
v -0.917354 0.590663 0.793178
v -0.917188 0.498524 0.792652
v -0.917483 0.498524 0.792795
v -0.919071 0.498524 0.786479
v -0.917858 0.498524 0.789017
v -0.918433 0.498524 0.787814
v -0.918183 0.498524 0.788339
v -0.9164 0.498524 0.792065
v -0.916675 0.498524 0.791493
v -0.920516 0.498524 0.783457
v -0.920749 0.498524 0.782972
v -0.920456 0.498524 0.783583
v -0.930289 0.590663 0.792017
v -0.928705 0.590663 0.795337
v -0.932214 0.590663 0.78798
v -0.926766 0.498524 0.783892
v -0.925962 0.498524 0.783509
v -0.926588 0.498524 0.783808
v -0.928513 0.498524 0.784726
v -0.923739 0.498524 0.782448
v -0.928368 0.526202 0.78479
v -0.928033 0.590663 0.784943
v -0.931737 0.590663 0.786709
v -0.961418 0.498524 0.7822
v -0.955721 0.498524 0.784917
v -0.955719 0.498831 0.784917
v -0.955282 0.590663 0.78468
v -0.955066 0.590663 0.784784
v -0.964331 0.498524 0.786485
v -0.964931 0.498524 0.787744
v -0.964588 0.498524 0.787024
v -0.963146 0.498524 0.78399
v -0.962136 0.498524 0.781865
v -0.962248 0.498524 0.782104
v -0.966695 0.498524 0.791453
v -0.966426 0.498524 0.79089
v -0.967242 0.498524 0.792606
v -0.966146 0.498524 0.790298
v -0.952427 0.590663 0.790585
v -0.954125 0.590663 0.794146
v -0.955559 0.590663 0.797154
v -0.967004 0.498524 0.792865
v -0.966342 0.498524 0.793182
v -0.966294 0.515345 0.793123
v -0.96608 0.590663 0.792861
v -0.962394 0.590663 0.794619
v -0.953157 0.0212006 0.784269
v -0.949259 0.0171463 0.782795
v -0.947146 0.0252546 0.782168
v -0.95025 -0.0418688 0.786948
v -0.942708 -0.0968316 0.798796
v -0.8873 0.0252546 0.813976
v -0.887116 0.0252546 0.821272
v -0.887886 0.0252546 0.828529
v -0.889596 0.0252546 0.835625
v -0.892219 0.0252546 0.842436
v -0.895708 0.0252546 0.848846
v -0.900003 0.0252546 0.854747
v -0.905031 0.0252546 0.860036
v -0.910708 0.0252546 0.864622
v -0.916935 0.0252546 0.86843
v -0.923606 0.0252546 0.871393
v -0.930606 0.0252546 0.873458
v -0.937814 0.0252546 0.874593
v -0.945111 0.0252546 0.874778
v -0.952369 0.0252546 0.874008
v -0.959463 0.0252546 0.872297
v -0.966274 0.0252546 0.869675
v -0.972684 0.0252546 0.866186
v -0.978585 0.0252546 0.861891
v -0.983874 0.0252546 0.85686
v -0.988462 0.0252546 0.851184
v -0.99227 0.0252546 0.844958
v -0.995231 0.0252546 0.838288
v -0.997298 0.0252546 0.831288
v -0.998433 0.0252546 0.824078
v -0.998616 0.0252546 0.816783
v -0.997846 0.0252546 0.809525
v -0.996135 0.0252546 0.802429
v -0.993513 0.0252546 0.79562
v -0.990024 0.0252546 0.789208
v -0.985729 0.0252546 0.783309
v -0.9807 0.0252546 0.778019
v -0.975024 0.0252546 0.773432
v -0.968798 0.0252546 0.769624
v -0.962128 0.0252546 0.766663
v -0.955128 0.0252546 0.764595
v -0.947918 0.0252546 0.76346
v -0.940621 0.0252546 0.763276
v -0.933365 0.0252546 0.764046
v -0.926269 0.0252546 0.765758
v -0.919458 0.0252546 0.768379
v -0.913048 0.0252546 0.771868
v -0.907147 0.0252546 0.776165
v -0.901857 0.0252546 0.781193
v -0.89727 0.0252546 0.78687
v -0.893462 0.0252546 0.793095
v -0.890501 0.0252546 0.799766
v -0.888435 0.0252546 0.806766
v -0.8873 0.498524 0.813976
v -0.887116 0.498524 0.821272
v -0.887886 0.498524 0.828529
v -0.889596 0.498524 0.835625
v -0.892219 0.498524 0.842436
v -0.895708 0.498524 0.848846
v -0.900003 0.498524 0.854747
v -0.905031 0.498524 0.860034
v -0.910708 0.498524 0.864622
v -0.916935 0.498524 0.86843
v -0.923606 0.498524 0.871393
v -0.930606 0.498524 0.873458
v -0.937814 0.498524 0.874593
v -0.945111 0.498524 0.874778
v -0.952369 0.498524 0.874008
v -0.959463 0.498524 0.872297
v -0.966274 0.498524 0.869675
v -0.972684 0.498524 0.866186
v -0.978585 0.498524 0.861889
v -0.983874 0.498524 0.85686
v -0.988462 0.498524 0.851184
v -0.99227 0.498524 0.844958
v -0.995231 0.498524 0.838288
v -0.997296 0.498524 0.831288
v -0.998433 0.498524 0.824078
v -0.998616 0.498524 0.816783
v -0.997846 0.498524 0.809525
v -0.996135 0.498524 0.802429
v -0.993513 0.498524 0.795618
v -0.990024 0.498524 0.789208
v -0.985729 0.498524 0.783309
v -0.9807 0.498524 0.778019
v -0.975024 0.498524 0.773432
v -0.968798 0.498524 0.769624
v -0.962128 0.498524 0.766661
v -0.955128 0.498524 0.764595
v -0.947918 0.498524 0.76346
v -0.940621 0.498524 0.763276
v -0.933363 0.498524 0.764046
v -0.926269 0.498524 0.765758
v -0.919458 0.498524 0.768379
v -0.913048 0.498524 0.771868
v -0.907147 0.498524 0.776165
v -0.901857 0.498524 0.781193
v -0.89727 0.498524 0.78687
v -0.893462 0.498524 0.793095
v -0.890501 0.498524 0.799766
v -0.888435 0.498524 0.806766
v -0.910269 0.590663 0.808508
v -0.909851 0.590663 0.812679
v -0.909982 0.590663 0.816867
v -0.910658 0.590663 0.821004
v -0.911869 0.590663 0.825018
v -0.913593 0.590663 0.828838
v -0.915801 0.590663 0.832401
v -0.918455 0.590663 0.835645
v -0.921511 0.590663 0.838516
v -0.924913 0.590663 0.840962
v -0.928607 0.590663 0.842943
v -0.932529 0.590663 0.844427
v -0.936609 0.590663 0.845385
v -0.949107 0.590663 0.844994
v -0.953119 0.590663 0.843783
v -0.95694 0.590663 0.842059
v -0.960503 0.590663 0.839851
v -0.963748 0.590663 0.837197
v -0.966617 0.590663 0.834143
v -0.969065 0.590663 0.830738
v -0.971046 0.590663 0.827045
v -0.972528 0.590663 0.823125
v -0.973486 0.590663 0.819043
v -0.973903 0.590663 0.814872
v -0.973773 0.590663 0.810684
v -0.973095 0.590663 0.806547
v -0.971886 0.590663 0.802533
v -0.970162 0.590663 0.798714
v -0.967952 0.590663 0.795151
v -0.955146 0.590663 0.784608
v -0.951226 0.590663 0.783124
v -0.947146 0.590663 0.782166
v -0.942975 0.590663 0.781749
v -0.938785 0.590663 0.781881
v -0.934648 0.590663 0.782557
v -0.930636 0.590663 0.783768
v -0.917138 0.590663 0.793408
v -0.91469 0.590663 0.796813
v -0.912709 0.590663 0.800506
v -0.911227 0.590663 0.804426
v -0.941876 0.590663 0.813776
v -0.909916 0.498524 0.812043
v -0.909851 0.498524 0.812679
v -0.910269 0.498524 0.808508
v -0.910415 0.498524 0.807887
v -0.911454 0.498524 0.803828
v -0.911227 0.498524 0.804426
v -0.913011 0.498524 0.799943
v -0.912709 0.498524 0.800506
v -0.915063 0.498524 0.796293
v -0.91469 0.498524 0.796813
v -0.917575 0.498524 0.792943
v -0.917138 0.498524 0.793408
v -0.931247 0.498524 0.783583
v -0.930636 0.498524 0.783768
v -0.934648 0.498524 0.782557
v -0.935278 0.498524 0.782454
v -0.938785 0.498524 0.781881
v -0.939424 0.498524 0.781861
v -0.943611 0.498524 0.781813
v -0.942975 0.498524 0.781749
v -0.947146 0.498524 0.782166
v -0.947767 0.498524 0.782312
v -0.951226 0.498524 0.783124
v -0.951824 0.498524 0.783351
v -0.955146 0.498524 0.784608
v -0.955709 0.498524 0.784911
v -0.968289 0.498524 0.795694
v -0.967952 0.498524 0.795151
v -0.970424 0.498524 0.799295
v -0.970162 0.498524 0.798714
v -0.971886 0.498524 0.802533
v -0.972071 0.498524 0.803145
v -0.973199 0.498524 0.807177
v -0.973095 0.498524 0.806547
v -0.973773 0.498524 0.810684
v -0.973793 0.498524 0.811321
v -0.973903 0.498524 0.814872
v -0.973839 0.498524 0.815508
v -0.97334 0.498524 0.819664
v -0.973486 0.498524 0.819043
v -0.972528 0.498524 0.823125
v -0.972301 0.498524 0.823723
v -0.970743 0.498524 0.827608
v -0.971046 0.498524 0.827045
v -0.969065 0.498524 0.830738
v -0.968692 0.498524 0.831258
v -0.96618 0.498524 0.834608
v -0.966617 0.498524 0.834143
v -0.963748 0.498524 0.837197
v -0.963252 0.498524 0.837602
v -0.960503 0.498524 0.839851
v -0.95996 0.498524 0.840188
v -0.956359 0.498524 0.842322
v -0.95694 0.498524 0.842059
v -0.953119 0.498524 0.843783
v -0.952507 0.498524 0.843968
v -0.949107 0.498524 0.844994
v -0.948477 0.498524 0.845099
v -0.94497 0.498524 0.84567
v -0.944331 0.498524 0.84569
v -0.94078 0.498524 0.845802
v -0.940144 0.498524 0.845738
v -0.935987 0.498524 0.845239
v -0.936609 0.498524 0.845385
v -0.931931 0.498524 0.8442
v -0.932529 0.498524 0.844427
v -0.928607 0.498524 0.842943
v -0.928043 0.498524 0.84264
v -0.924913 0.498524 0.840962
v -0.924394 0.498524 0.840589
v -0.921511 0.498524 0.838516
v -0.921046 0.498524 0.838079
v -0.91805 0.498524 0.835152
v -0.918455 0.498524 0.835645
v -0.915464 0.498524 0.831857
v -0.915801 0.498524 0.832401
v -0.91333 0.498524 0.828256
v -0.913593 0.498524 0.828838
v -0.911869 0.498524 0.825018
v -0.910555 0.498524 0.820374
v -0.910658 0.498524 0.821004
v -0.911684 0.498524 0.824406
v -0.909962 0.498524 0.81623
v -0.909982 0.498524 0.816867
v -0.909851 0.0252546 0.812679
v -0.909859 0.0252546 0.812949
v -0.910269 0.0252546 0.808508
v -0.910242 0.0252546 0.808779
v -0.911227 0.0252546 0.804426
v -0.911165 0.0252546 0.804691
v -0.912612 0.0252546 0.800761
v -0.912709 0.0252546 0.800506
v -0.914561 0.0252546 0.797051
v -0.91469 0.0252546 0.796813
v -0.916979 0.0252546 0.793629
v -0.917138 0.0252546 0.793408
v -0.919821 0.0252546 0.790553
v -0.920007 0.0252546 0.790354
v -0.923041 0.0252546 0.787872
v -0.923251 0.0252546 0.7877
v -0.926584 0.0252546 0.785634
v -0.926814 0.0252546 0.785492
v -0.930636 0.0252546 0.783768
v -0.930389 0.0252546 0.78388
v -0.934648 0.0252546 0.782557
v -0.934387 0.0252546 0.782635
v -0.938785 0.0252546 0.781881
v -0.938516 0.0252546 0.781925
v -0.942975 0.0252546 0.781751
v -0.942704 0.0252546 0.781759
v -0.946875 0.0252546 0.78214
v -0.950961 0.0252546 0.783062
v -0.951226 0.0252546 0.783124
v -0.954891 0.0252546 0.784512
v -0.955146 0.0252546 0.784608
v -0.958841 0.0252546 0.786589
v -0.958603 0.0252546 0.786461
v -0.962244 0.0252546 0.789035
v -0.962023 0.0252546 0.788877
v -0.965101 0.0252546 0.79172
v -0.9653 0.0252546 0.791906
v -0.96778 0.0252546 0.79494
v -0.967952 0.0252546 0.795151
v -0.970019 0.0252546 0.798483
v -0.970162 0.0252546 0.798714
v -0.971774 0.0252546 0.802287
v -0.971886 0.0252546 0.802533
v -0.973095 0.0252546 0.806547
v -0.973017 0.0252546 0.806287
v -0.973773 0.0252546 0.810684
v -0.973729 0.0252546 0.810415
v -0.973895 0.0252546 0.814602
v -0.973903 0.0252546 0.814872
v -0.973486 0.0252546 0.819045
v -0.973512 0.0252546 0.818774
v -0.972528 0.0252546 0.823125
v -0.97259 0.0252546 0.822861
v -0.971046 0.0252546 0.827045
v -0.971142 0.0252546 0.82679
v -0.969193 0.0252546 0.8305
v -0.969065 0.0252546 0.830738
v -0.966617 0.0252546 0.834143
v -0.966775 0.0252546 0.833922
v -0.963748 0.0252546 0.837197
v -0.963934 0.0252546 0.836998
v -0.960503 0.0252546 0.839851
v -0.960714 0.0252546 0.839679
v -0.957171 0.0252546 0.841917
v -0.95694 0.0252546 0.842059
v -0.953119 0.0252546 0.843783
v -0.953365 0.0252546 0.843671
v -0.949367 0.0252546 0.844916
v -0.949107 0.0252546 0.844994
v -0.94497 0.0252546 0.845672
v -0.945239 0.0252546 0.845628
v -0.94105 0.0252546 0.845794
v -0.94078 0.0252546 0.845802
v -0.93688 0.0252546 0.845411
v -0.936609 0.0252546 0.845385
v -0.932529 0.0252546 0.844427
v -0.932793 0.0252546 0.844489
v -0.928861 0.0252546 0.843042
v -0.928607 0.0252546 0.842945
v -0.924913 0.0252546 0.840962
v -0.925152 0.0252546 0.841091
v -0.921511 0.0252546 0.838516
v -0.921731 0.0252546 0.838674
v -0.918654 0.0252546 0.835833
v -0.918455 0.0252546 0.835647
v -0.915973 0.0252546 0.832613
v -0.915801 0.0252546 0.832403
v -0.913593 0.0252546 0.82884
v -0.913735 0.0252546 0.82907
v -0.911981 0.0252546 0.825265
v -0.911869 0.0252546 0.825018
v -0.910658 0.0252546 0.821006
v -0.910736 0.0252546 0.821266
v -0.909982 0.0252546 0.816867
v -0.910026 0.0252546 0.817136
v -0.910587 0.498524 0.807155
v -0.910587 0.0252546 0.807155
v -0.911861 0.498524 0.802752
v -0.911861 0.0252546 0.802752
v -0.913777 0.498524 0.798513
v -0.913777 0.0252546 0.798513
v -0.916324 0.498524 0.794539
v -0.916324 0.0252546 0.794539
v -0.919458 0.0252546 0.790938
v -0.923125 0.0252546 0.787804
v -0.927271 0.0252546 0.785286
v -0.931773 0.498524 0.783425
v -0.931773 0.0252546 0.783425
v -0.936511 0.498524 0.782252
v -0.936511 0.0252546 0.782252
v -0.941367 0.498524 0.781799
v -0.941367 0.0252546 0.781801
v -0.946225 0.498524 0.782073
v -0.950967 0.498524 0.783064
v -0.955465 0.0252546 0.784778
v -0.955465 0.498524 0.784778
v -0.959605 0.0252546 0.787138
v -0.963313 0.0252546 0.790038
v -0.966517 0.498524 0.793394
v -0.966517 0.0252546 0.793394
v -0.969167 0.498524 0.797109
v -0.969167 0.0252546 0.797109
v -0.971235 0.498524 0.80109
v -0.971235 0.0252546 0.80109
v -0.9727 0.498524 0.805238
v -0.9727 0.0252546 0.805238
v -0.973572 0.498524 0.809459
v -0.973572 0.0252546 0.809459
v -0.973865 0.498524 0.813669
v -0.973865 0.0252546 0.813669
v -0.973613 0.498524 0.81779
v -0.973613 0.0252546 0.81779
v -0.972851 0.498524 0.821752
v -0.972851 0.0252546 0.821752
v -0.971628 0.498524 0.825505
v -0.971628 0.0252546 0.825505
v -0.969995 0.498524 0.829006
v -0.969995 0.0252546 0.829006
v -0.968 0.498524 0.83222
v -0.968 0.0252546 0.83222
v -0.965693 0.498524 0.835126
v -0.965693 0.0252546 0.835126
v -0.963118 0.498524 0.837712
v -0.963118 0.0252546 0.837712
v -0.957291 0.498524 0.84184
v -0.960317 0.0252546 0.839968
v -0.957291 0.0252546 0.84184
v -0.960317 0.498524 0.839968
v -0.954103 0.498524 0.84334
v -0.954103 0.0252546 0.84334
v -0.950797 0.498524 0.844483
v -0.950797 0.0252546 0.844483
v -0.947402 0.498524 0.845273
v -0.947402 0.0252546 0.845273
v -0.94394 0.498524 0.845702
v -0.94394 0.0252546 0.845704
v -0.936922 0.498524 0.845418
v -0.936922 0.0252546 0.845418
v -0.940435 0.0252546 0.845768
v -0.940435 0.498524 0.845768
v -0.933445 0.498524 0.844642
v -0.933445 0.0252546 0.844642
v -0.93003 0.498524 0.843483
v -0.93003 0.0252546 0.843483
v -0.926714 0.498524 0.841929
v -0.926714 0.0252546 0.841929
v -0.92354 0.498524 0.839974
v -0.92354 0.0252546 0.839976
v -0.920556 0.498524 0.83762
v -0.920556 0.0252546 0.83762
v -0.917818 0.498524 0.834867
v -0.917818 0.0252546 0.834867
v -0.915383 0.498524 0.831729
v -0.915383 0.0252546 0.831729
v -0.91332 0.498524 0.828232
v -0.91332 0.0252546 0.828234
v -0.911686 0.0252546 0.824416
v -0.911686 0.498524 0.824416
v -0.910547 0.498524 0.820328
v -0.910547 0.0252546 0.820328
v -0.909956 0.498524 0.816035
v -0.909956 0.0252546 0.816035
v -0.909958 0.498524 0.811614
v -0.909958 0.0252546 0.811614
v -0.941245 -0.151792 0.813216
v -0.941185 -0.151792 0.81301
v -0.941211 -0.151792 0.812793
v -0.941317 -0.151792 0.812605
v -0.941487 -0.151792 0.812472
v -0.941696 -0.151792 0.812414
v -0.94191 -0.151792 0.81244
v -0.942099 -0.151792 0.812544
v -0.942233 -0.151792 0.812715
v -0.942291 -0.151792 0.812923
v -0.942265 -0.151792 0.813138
v -0.942159 -0.151792 0.813326
v -0.941989 -0.151792 0.813461
v -0.941782 -0.151792 0.813519
v -0.941566 -0.151792 0.813493
v -0.941377 -0.151792 0.813387
v -0.902367 0.0130921 0.83293
v -0.897723 0.0130921 0.816342
v -0.899782 0.0130921 0.799243
v -0.908227 0.0130921 0.784231
v -0.921776 0.0130921 0.773594
v -0.938361 0.0130921 0.76895
v -0.970475 0.0130921 0.779455
v -0.981111 0.0130921 0.793003
v -0.985753 0.0130921 0.809589
v -0.983696 0.0130921 0.82669
v -0.975251 0.0130921 0.841702
v -0.961702 0.0130921 0.852339
v -0.945115 0.0130921 0.856981
v -0.928013 0.0130921 0.854924
v -0.913001 0.0130921 0.846478
v -0.941738 -0.151792 0.812966
v -0.948946 0.654226 0.868217
v -0.948716 0.601557 0.868217
v -0.948918 0.647906 0.830295
v -0.936916 0.654278 0.868217
v -0.936685 0.601611 0.868217
v -0.936888 0.647958 0.830295
v -0.893093 0.654226 0.781913
v -0.893193 0.601557 0.781707
v -0.927334 0.647906 0.798214
v -0.898274 0.654278 0.771054
v -0.898372 0.601611 0.770847
v -0.932513 0.647958 0.787355
v -0.984769 0.654226 0.77031
v -0.984869 0.601557 0.770516
v -0.950554 0.647906 0.786659
v -0.98995 0.654278 0.781167
v -0.990048 0.601611 0.781376
v -0.955733 0.647958 0.797518
v -0.92744 0.590663 0.79799
v -0.931137 0.590663 0.790238
v -0.932621 0.590663 0.787128
v -0.950663 0.590663 0.786884
v -0.95436 0.590663 0.794635
v -0.955842 0.590663 0.797745
v -0.948669 0.590663 0.830295
v -0.940082 0.590663 0.830295
v -0.936637 0.590663 0.830295
v -0.911712 0.0130921 0.803145
v -0.916318 0.498524 0.792237
v -0.917938 0.0130921 0.792556
v -0.919797 0.498524 0.784965
v -0.921509 0.498524 0.781384
v -0.927622 0.0130921 0.785127
v -0.939352 0.0130921 0.781863
v -0.962132 0.498524 0.781859
v -0.962252 0.0130921 0.789043
v -0.965594 0.498524 0.789141
v -0.967299 0.498524 0.792724
v -0.970088 0.0130921 0.798593
v -0.973745 0.0130921 0.810509
v -0.972548 0.0130921 0.823043
v -0.966537 0.0130921 0.834229
v -0.956573 0.0130921 0.842225
v -0.948309 0.507912 0.845127
v -0.941205 0.510633 0.845788
v -0.944248 0.0130921 0.845694
v -0.93628 0.508706 0.845307
v -0.931566 0.0130921 0.844062
v -0.920579 0.0130921 0.837642
v -0.913005 0.0130921 0.827536
v -0.909936 0.0130921 0.815406
v -0.912869 0.0130921 0.827236
v -0.911742 0.0130921 0.824603
v -0.911869 0.0130921 0.825018
v -0.911947 0.0130921 0.825188
v -0.909964 0.0130921 0.816294
v -0.910371 0.0130921 0.819253
v -0.910581 0.0130921 0.820539
v -0.910712 0.0130921 0.821186
v -0.910012 0.0130921 0.817052
v -0.909982 0.0130921 0.816867
v -0.910658 0.0130921 0.821006
v -0.911367 0.0130921 0.823358
v -0.911227 0.0130921 0.804426
v -0.911185 0.0130921 0.804608
v -0.911664 0.0130921 0.803271
v -0.910786 0.0130921 0.806307
v -0.910269 0.0130921 0.808508
v -0.910489 0.0130921 0.807576
v -0.909926 0.0130921 0.811945
v -0.909857 0.0130921 0.812865
v -0.909851 0.0130921 0.812679
v -0.91025 0.0130921 0.808695
v -0.910054 0.0130921 0.81065
v -0.909924 0.0130921 0.814993
v -0.917138 0.0130921 0.793408
v -0.91703 0.0130921 0.793561
v -0.91406 0.0130921 0.797986
v -0.91469 0.0130921 0.796813
v -0.916576 0.0130921 0.794188
v -0.913445 0.0130921 0.799133
v -0.914601 0.0130921 0.796977
v -0.915817 0.0130921 0.795245
v -0.912709 0.0130921 0.800506
v -0.912643 0.0130921 0.800682
v -0.912123 0.0130921 0.802054
v -0.926814 0.0130921 0.785492
v -0.927129 0.0130921 0.78535
v -0.923251 0.0130921 0.7877
v -0.923165 0.0130921 0.787772
v -0.925549 0.0130921 0.786276
v -0.926656 0.0130921 0.78559
v -0.923107 0.0130921 0.787818
v -0.922098 0.0130921 0.788642
v -0.919628 0.0130921 0.790757
v -0.919879 0.0130921 0.790491
v -0.918738 0.0130921 0.791706
v -0.920007 0.0130921 0.790354
v -0.930636 0.0130921 0.783768
v -0.930466 0.0130921 0.783846
v -0.928316 0.0130921 0.784814
v -0.9386 0.0130921 0.781911
v -0.937217 0.0130921 0.782138
v -0.935933 0.0130921 0.782346
v -0.934648 0.0130921 0.782557
v -0.932665 0.0130921 0.783156
v -0.934468 0.0130921 0.782611
v -0.938785 0.0130921 0.781881
v -0.93142 0.0130921 0.783531
v -0.942789 0.0130921 0.781757
v -0.942975 0.0130921 0.781751
v -0.941866 0.0130921 0.781785
v -0.940565 0.0130921 0.781825
v -0.960425 0.0130921 0.787728
v -0.962091 0.0130921 0.788927
v -0.962244 0.0130921 0.789035
v -0.959369 0.0130921 0.786968
v -0.958841 0.0130921 0.786589
v -0.969476 0.0130921 0.797607
v -0.970064 0.0130921 0.798555
v -0.965163 0.0130921 0.791778
v -0.96393 0.0130921 0.790617
v -0.9653 0.0130921 0.791906
v -0.96879 0.0130921 0.796502
v -0.96614 0.0130921 0.792933
v -0.966962 0.0130921 0.793939
v -0.967834 0.0130921 0.795006
v -0.967952 0.0130921 0.795151
v -0.962982 0.0130921 0.789727
v -0.970902 0.0130921 0.800352
v -0.970162 0.0130921 0.798714
v -0.971437 0.0130921 0.801539
v -0.973743 0.0130921 0.810499
v -0.971808 0.0130921 0.802363
v -0.972448 0.0130921 0.804398
v -0.971886 0.0130921 0.802533
v -0.973095 0.0130921 0.806547
v -0.973635 0.0130921 0.80984
v -0.973041 0.0130921 0.806367
v -0.973424 0.0130921 0.808554
v -0.972823 0.0130921 0.805645
v -0.973773 0.0130921 0.810684
v -0.973837 0.0130921 0.812743
v -0.973486 0.0130921 0.819045
v -0.973897 0.0130921 0.814686
v -0.973903 0.0130921 0.814872
v -0.973572 0.0130921 0.818179
v -0.973877 0.0130921 0.814042
v -0.973703 0.0130921 0.816883
v -0.97275 0.0130921 0.822179
v -0.973504 0.0130921 0.818858
v -0.97257 0.0130921 0.822943
v -0.973047 0.0130921 0.820912
v -0.972528 0.0130921 0.823125
v -0.971112 0.0130921 0.826869
v -0.971447 0.0130921 0.825982
v -0.971046 0.0130921 0.827045
v -0.971906 0.0130921 0.824765
v -0.970322 0.0130921 0.828396
v -0.969707 0.0130921 0.829543
v -0.969065 0.0130921 0.830738
v -0.968331 0.0130921 0.831761
v -0.969153 0.0130921 0.830574
v -0.966725 0.0130921 0.833991
v -0.966617 0.0130921 0.834143
v -0.967571 0.0130921 0.832818
v -0.965979 0.0130921 0.834821
v -0.965089 0.0130921 0.835769
v -0.963876 0.0130921 0.83706
v -0.963313 0.0130921 0.837552
v -0.963748 0.0130921 0.837197
v -0.960503 0.0130921 0.839851
v -0.962306 0.0130921 0.838376
v -0.957099 0.0130921 0.841961
v -0.960375 0.0130921 0.839932
v -0.960648 0.0130921 0.839733
v -0.958288 0.0130921 0.841223
v -0.95694 0.0130921 0.842059
v -0.957183 0.0130921 0.841909
v -0.951519 0.0130921 0.844267
v -0.953798 0.0130921 0.843479
v -0.954983 0.0130921 0.842943
v -0.953119 0.0130921 0.843783
v -0.953289 0.0130921 0.843705
v -0.94426 0.0130921 0.845694
v -0.950272 0.0130921 0.844642
v -0.949107 0.0130921 0.844994
v -0.947932 0.0130921 0.845187
v -0.946646 0.0130921 0.845397
v -0.945155 0.0130921 0.845642
v -0.949287 0.0130921 0.84494
v -0.94497 0.0130921 0.845672
v -0.942959 0.0130921 0.845734
v -0.936609 0.0130921 0.845385
v -0.940541 0.0130921 0.845778
v -0.936826 0.0130921 0.845407
v -0.939248 0.0130921 0.84565
v -0.932529 0.0130921 0.844427
v -0.936796 0.0130921 0.845403
v -0.940966 0.0130921 0.845796
v -0.94078 0.0130921 0.845802
v -0.932711 0.0130921 0.844469
v -0.934428 0.0130921 0.844872
v -0.93316 0.0130921 0.844575
v -0.921511 0.0130921 0.838516
v -0.928783 0.0130921 0.843011
v -0.92291 0.0130921 0.839523
v -0.924913 0.0130921 0.840962
v -0.928607 0.0130921 0.842945
v -0.921663 0.0130921 0.838624
v -0.920853 0.0130921 0.837899
v -0.925078 0.0130921 0.84105
v -0.923967 0.0130921 0.840283
v -0.930806 0.0130921 0.843775
v -0.929589 0.0130921 0.843316
v -0.926155 0.0130921 0.841628
v -0.927302 0.0130921 0.842243
v -0.919905 0.0130921 0.837006
v -0.913691 0.0130921 0.828998
v -0.913404 0.0130921 0.828423
f 201 463 285 
f 475 198 199 
f 461 203 281 
f 225 414 224 
f 281 203 282 
f 66 217 254 
f 125 126 427 
f 86 216 228 
f 218 252 217 
f 512 513 527 
f 305 193 306 
f 228 205 204 
f 172 123 171 
f 198 32 199 
f 167 439 261 
f 180 132 131 
f 500 528 501 
f 443 211 266 
f 146 302 481 
f 205 455 204 
f 203 280 457 
f 194 195 483 
f 145 304 483 
f 501 528 502 
f 207 451 206 
f 479 197 298 
f 727 724 722 
f 525 526 724 
f 470 725 724 
f 228 195 194 
f 389 474 732 
f 480 741 735 
f 395 480 735 
f 526 511 527 
f 488 402 95 
f 96 400 95 
f 492 93 404 
f 587 404 405 
f 587 590 404 
f 142 94 93 
f 580 583 402 
f 747 400 401 
f 193 487 192 
f 394 482 98 
f 147 99 98 
f 392 480 99 
f 390 391 101 
f 103 151 152 
f 290 152 469 
f 471 470 104 
f 105 384 104 
f 394 738 733 
f 5 486 399 
f 746 8 396 
f 304 145 144 
f 745 526 744 
f 526 731 722 
f 527 739 733 
f 389 102 474 
f 6 8 527 
f 388 389 730 
f 469 151 292 
f 527 738 735 
f 576 526 742 
f 721 525 728 
f 390 476 743 
f 387 727 722 
f 747 3 513 
f 5 9 513 
f 2 7 527 
f 390 743 734 
f 302 146 145 
f 526 743 742 
f 582 583 513 
f 514 586 590 
f 581 582 513 
f 588 407 585 
f 526 737 734 
f 101 478 100 
f 228 214 213 
f 637 627 517 
f 516 604 605 
f 289 152 472 
f 418 330 616 
f 587 591 513 
f 519 646 518 
f 328 618 617 
f 516 605 608 
f 517 618 621 
f 333 131 334 
f 514 588 585 
f 245 178 177 
f 639 638 518 
f 562 636 518 
f 422 631 336 
f 497 512 528 
f 640 638 338 
f 619 617 517 
f 329 330 132 
f 3 5 513 
f 578 748 513 
f 634 517 518 
f 146 98 97 
f 332 629 628 
f 636 630 518 
f 333 633 632 
f 337 128 129 
f 516 608 611 
f 332 131 132 
f 517 616 615 
f 134 416 325 
f 133 134 327 
f 337 129 338 
f 639 337 638 
f 331 628 627 
f 133 417 328 
f 305 487 193 
f 491 190 191 
f 191 308 491 
f 493 189 190 
f 184 237 238 
f 424 640 338 
f 183 49 48 
f 177 248 423 
f 535 539 538 
f 228 39 547 
f 56 180 242 
f 514 585 586 
f 316 139 496 
f 536 41 40 
f 137 185 186 
f 133 328 329 
f 63 549 540 
f 393 478 744 
f 55 548 540 
f 559 44 181 
f 133 329 132 
f 631 630 336 
f 211 210 228 
f 27 28 228 
f 235 185 184 
f 537 547 39 
f 134 325 326 
f 184 238 412 
f 306 193 485 
f 135 322 415 
f 230 493 140 
f 231 187 186 
f 181 60 560 
f 377 109 376 
f 377 108 109 
f 378 108 379 
f 378 107 108 
f 381 107 380 
f 381 106 107 
f 155 463 284 
f 465 572 286 
f 153 467 288 
f 159 278 277 
f 159 455 278 
f 372 111 373 
f 370 112 371 
f 369 113 368 
f 366 114 367 
f 635 634 518 
f 251 218 426 
f 459 376 109 
f 156 155 283 
f 162 271 272 
f 392 740 736 
f 16 17 467 
f 289 16 467 
f 287 154 153 
f 17 19 467 
f 390 101 476 
f 163 447 270 
f 205 206 453 
f 160 275 276 
f 531 27 553 
f 225 412 238 
f 12 11 201 
f 533 35 37 
f 12 13 530 
f 44 182 181 
f 20 575 533 
f 228 193 192 
f 182 49 183 
f 228 213 212 
f 172 71 69 
f 531 26 28 
f 458 109 110 
f 158 460 279 
f 155 284 283 
f 189 495 188 
f 581 591 489 
f 526 732 731 
f 748 1 513 
f 232 231 186 
f 589 584 406 
f 322 136 321 
f 593 592 317 
f 489 405 94 
f 389 732 730 
f 149 101 100 
f 514 587 513 
f 588 406 407 
f 183 557 240 
f 597 409 315 
f 595 593 318 
f 514 600 599 
f 597 595 409 
f 141 140 312 
f 600 598 313 
f 106 105 154 
f 514 603 579 
f 486 96 399 
f 150 102 101 
f 4 527 513 
f 601 596 315 
f 135 323 324 
f 515 597 596 
f 156 461 281 
f 156 282 157 
f 532 531 529 
f 449 208 271 
f 447 209 270 
f 161 451 274 
f 23 21 290 
f 228 204 203 
f 718 720 382 
f 160 453 275 
f 714 719 380 
f 701 375 456 
f 714 708 524 
f 148 298 297 
f 679 522 672 
f 711 708 378 
f 366 687 450 
f 701 698 523 
f 140 311 312 
f 696 695 523 
f 699 697 523 
f 369 690 452 
f 705 459 458 
f 706 702 524 
f 703 700 524 
f 569 680 522 
f 610 516 607 
f 570 693 523 
f 158 157 280 
f 686 682 522 
f 117 363 116 
f 525 729 728 
f 364 686 448 
f 160 159 453 
f 718 382 383 
f 525 725 723 
f 706 571 377 
f 531 530 529 
f 514 602 598 
f 694 690 523 
f 367 684 683 
f 717 716 525 
f 681 678 446 
f 372 698 456 
f 594 556 411 
f 697 696 523 
f 370 695 454 
f 612 609 320 
f 370 570 695 
f 161 274 273 
f 680 678 522 
f 693 692 523 
f 687 685 522 
f 710 571 524 
f 685 683 522 
f 134 324 416 
f 715 719 525 
f 148 297 477 
f 707 705 524 
f 718 717 525 
f 234 408 186 
f 691 688 523 
f 470 103 104 
f 705 703 524 
f 690 689 523 
f 422 632 631 
f 4 9 399 
f 712 709 524 
f 154 155 106 
f 164 269 445 
f 114 162 163 
f 33 37 200 
f 289 22 573 
f 198 477 197 
f 242 61 59 
f 396 397 98 
f 199 294 293 
f 114 113 162 
f 362 681 446 
f 307 192 487 
f 609 515 606 
f 234 185 233 
f 713 720 525 
f 151 103 102 
f 195 481 302 
f 115 114 163 
f 646 639 518 
f 709 379 462 
f 202 461 283 
f 268 165 164 
f 165 116 164 
f 290 21 472 
f 704 701 524 
f 153 288 287 
f 32 555 534 
f 675 677 522 
f 226 228 227 
f 31 554 534 
f 721 574 525 
f 161 160 451 
f 198 555 32 
f 371 694 692 
f 228 224 39 
f 704 700 374 
f 392 100 393 
f 716 715 525 
f 573 16 289 
f 122 123 350 
f 179 243 419 
f 650 649 348 
f 430 650 348 
f 656 652 351 
f 481 196 300 
f 258 170 169 
f 259 169 168 
f 120 121 354 
f 686 684 448 
f 669 667 357 
f 436 121 353 
f 666 661 359 
f 440 666 359 
f 263 167 166 
f 167 263 439 
f 673 361 360 
f 124 125 347 
f 643 346 347 
f 674 677 361 
f 438 120 355 
f 644 564 346 
f 646 645 344 
f 430 124 346 
f 89 339 340 
f 175 251 426 
f 249 425 176 
f 418 332 132 
f 673 521 674 
f 519 644 643 
f 654 519 520 
f 655 654 520 
f 656 655 520 
f 388 730 726 
f 440 119 356 
f 434 647 352 
f 669 663 521 
f 668 665 521 
f 663 520 521 
f 429 125 344 
f 654 653 519 
f 653 651 519 
f 651 649 519 
f 747 1 400 
f 613 320 319 
f 430 657 650 
f 121 122 352 
f 652 520 647 
f 424 641 640 
f 655 351 350 
f 172 565 70 
f 171 566 77 
f 397 484 97 
f 429 645 642 
f 519 643 642 
f 333 130 131 
f 661 521 568 
f 358 119 359 
f 442 118 358 
f 166 265 441 
f 688 687 522 
f 662 660 520 
f 171 256 566 
f 361 118 360 
f 123 124 348 
f 667 665 356 
f 89 128 339 
f 712 378 379 
f 545 566 84 
f 174 254 428 
f 358 118 119 
f 434 122 351 
f 265 166 165 
f 664 662 520 
f 660 658 520 
f 671 521 676 
f 361 117 118 
f 662 355 354 
f 429 642 347 
f 516 626 624 
f 434 652 647 
f 82 84 566 
f 123 348 349 
f 514 589 588 
f 671 670 521 
f 435 214 215 
f 563 67 64 
f 128 337 339 
f 183 48 557 
f 298 197 297 
f 444 117 361 
f 340 87 342 
f 217 252 253 
f 516 558 604 
f 426 218 250 
f 440 668 666 
f 432 123 349 
f 67 542 543 
f 515 594 592 
f 516 624 623 
f 436 660 354 
f 342 87 344 
f 66 65 64 
f 648 520 567 
f 81 551 546 
f 86 552 546 
f 707 376 459 
f 552 86 228 
f 164 267 268 
f 57 60 180 
f 162 449 271 
f 85 84 216 
f 89 127 128 
f 613 614 515 
f 286 201 285 
f 386 103 470 
f 211 441 265 
f 140 139 187 
f 235 226 236 
f 236 226 410 
f 174 125 173 
f 228 198 197 
f 228 216 215 
f 453 206 275 
f 287 15 14 
f 228 222 221 
f 457 282 203 
f 543 79 550 
f 285 154 286 
f 408 188 232 
f 222 419 243 
f 412 226 235 
f 62 61 223 
f 78 172 171 
f 233 185 410 
f 177 128 176 
f 512 527 511 
f 76 545 78 
f 261 213 262 
f 234 227 408 
f 51 536 50 
f 227 228 188 
f 74 542 73 
f 173 73 563 
f 202 10 203 
f 44 536 46 
f 47 536 45 
f 45 536 49 
f 147 299 479 
f 483 195 301 
f 24 469 20 
f 184 135 183 
f 565 542 70 
f 67 66 64 
f 209 228 210 
f 179 242 180 
f 53 228 54 
f 386 470 724 
f 92 141 93 
f 143 144 95 
f 144 96 95 
f 142 143 94 
f 582 581 403 
f 150 293 294 
f 152 153 104 
f 153 105 104 
f 739 394 733 
f 2 4 398 
f 393 744 740 
f 581 489 403 
f 578 580 488 
f 385 729 723 
f 148 149 100 
f 2 398 484 
f 586 585 492 
f 105 468 384 
f 731 387 722 
f 476 576 742 
f 746 396 482 
f 99 148 100 
f 150 151 102 
f 148 99 147 
f 387 386 727 
f 500 516 499 
f 517 628 629 
f 179 130 178 
f 324 323 605 
f 323 415 608 
f 90 519 518 
f 619 328 617 
f 94 143 95 
f 528 499 498 
f 505 521 520 
f 521 505 506 
f 149 150 101 
f 394 395 738 
f 416 558 625 
f 331 332 628 
f 420 331 637 
f 330 620 615 
f 174 428 253 
f 498 515 514 
f 181 133 132 
f 180 60 181 
f 621 417 327 
f 326 626 622 
f 637 331 627 
f 169 259 435 
f 25 472 21 
f 232 188 231 
f 516 500 517 
f 250 218 219 
f 410 226 227 
f 23 25 21 
f 537 535 538 
f 224 239 40 
f 185 235 236 
f 137 136 185 
f 62 63 540 
f 138 137 186 
f 414 225 237 
f 417 621 618 
f 29 554 228 
f 554 31 228 
f 31 30 228 
f 30 555 228 
f 224 41 39 
f 170 256 171 
f 535 536 539 
f 328 417 618 
f 536 537 41 
f 536 557 48 
f 528 508 507 
f 6 7 397 
f 412 225 226 
f 559 536 44 
f 288 19 15 
f 540 537 538 
f 557 536 40 
f 110 159 111 
f 572 530 13 
f 279 204 455 
f 741 392 736 
f 38 40 239 
f 145 146 97 
f 154 287 465 
f 503 90 91 
f 10 531 553 
f 237 225 238 
f 11 202 201 
f 560 536 51 
f 42 239 240 
f 134 182 183 
f 533 22 25 
f 170 258 433 
f 228 203 553 
f 276 206 451 
f 280 204 460 
f 159 110 158 
f 207 228 208 
f 534 29 26 
f 242 223 61 
f 60 61 560 
f 135 184 136 
f 602 601 316 
f 242 179 241 
f 588 589 406 
f 598 496 313 
f 603 599 314 
f 388 576 476 
f 320 609 413 
f 175 252 251 
f 599 600 313 
f 141 142 93 
f 108 156 157 
f 115 164 116 
f 533 532 529 
f 49 536 48 
f 688 368 450 
f 382 713 468 
f 712 711 378 
f 709 712 379 
f 715 716 381 
f 707 702 376 
f 378 708 464 
f 327 134 326 
f 705 707 459 
f 365 569 364 
f 165 117 116 
f 713 574 468 
f 135 136 322 
f 569 365 680 
f 694 371 452 
f 702 706 377 
f 717 383 466 
f 372 373 697 
f 364 569 682 
f 690 694 452 
f 362 679 672 
f 613 612 320 
f 699 372 697 
f 370 371 692 
f 138 187 139 
f 748 578 488 
f 14 465 287 
f 695 696 454 
f 369 691 689 
f 366 367 683 
f 46 536 47 
f 463 202 284 
f 201 286 13 
f 716 717 466 
f 189 228 190 
f 20 292 575 
f 691 368 688 
f 301 195 302 
f 52 536 559 
f 491 141 312 
f 465 14 18 
f 696 373 454 
f 341 126 127 
f 200 473 199 
f 284 202 283 
f 129 178 130 
f 32 33 199 
f 30 31 534 
f 571 710 377 
f 33 32 534 
f 714 380 464 
f 460 204 279 
f 210 443 268 
f 698 701 456 
f 432 654 350 
f 710 709 462 
f 655 656 351 
f 352 567 353 
f 664 663 355 
f 567 352 648 
f 438 669 357 
f 168 119 167 
f 676 673 360 
f 442 676 360 
f 673 674 361 
f 643 644 346 
f 427 344 345 
f 342 344 427 
f 87 646 344 
f 469 24 290 
f 472 25 289 
f 576 388 726 
f 275 206 276 
f 174 252 175 
f 255 170 433 
f 19 288 467 
f 671 442 358 
f 119 168 120 
f 651 653 349 
f 228 197 196 
f 254 64 65 
f 659 658 353 
f 36 200 35 
f 653 432 349 
f 427 126 343 
f 85 546 545 
f 544 543 541 
f 541 542 545 
f 439 213 261 
f 668 440 356 
f 428 217 253 
f 614 613 319 
f 501 518 517 
f 501 517 500 
f 72 542 74 
f 173 74 73 
f 73 542 563 
f 218 228 219 
f 422 333 632 
f 216 431 256 
f 517 620 619 
f 79 543 546 
f 670 671 358 
f 669 438 663 
f 654 655 350 
f 125 174 126 
f 71 542 69 
f 392 393 740 
f 545 75 77 
f 502 518 501 
f 437 213 214 
f 254 217 428 
f 717 718 383 
f 196 479 299 
f 86 85 216 
f 164 115 163 
f 463 201 202 
f 195 196 481 
f 258 215 433 
f 140 187 230 
f 203 204 280 
f 174 173 254 
f 500 499 528 
f 461 202 203 
f 543 550 68 
f 544 545 546 
f 512 497 513 
f 230 229 189 
f 563 542 67 
f 177 176 248 
f 559 181 52 
f 443 210 211 
f 259 214 435 
f 447 208 209 
f 560 61 539 
f 168 262 437 
f 174 253 252 
f 272 271 208 
f 277 205 453 
f 277 278 205 
f 184 183 237 
f 228 548 55 
f 257 435 215 
f 175 426 250 
f 445 209 210 
f 267 445 210 
f 179 180 131 
f 526 510 511 
f 226 225 228 
f 207 273 274 
f 449 207 208 
f 207 449 273 
f 471 725 470 
f 386 724 727 
f 526 726 730 
f 387 731 474 
f 525 724 725 
f 474 731 732 
f 525 723 729 
f 92 93 406 
f 308 309 141 
f 488 95 400 
f 587 405 591 
f 586 404 590 
f 404 93 94 
f 583 403 402 
f 582 403 583 
f 403 95 402 
f 747 401 3 
f 3 401 486 
f 486 401 96 
f 147 98 146 
f 269 270 209 
f 394 98 99 
f 393 100 478 
f 4 399 398 
f 102 476 101 
f 388 476 102 
f 469 152 151 
f 392 741 480 
f 152 290 472 
f 395 99 480 
f 471 104 385 
f 745 737 526 
f 526 734 743 
f 96 401 400 
f 394 99 395 
f 745 478 391 
f 741 736 527 
f 576 726 526 
f 578 513 580 
f 577 527 746 
f 391 478 101 
f 398 97 484 
f 7 484 397 
f 8 397 396 
f 490 310 192 
f 746 527 8 
f 6 527 7 
f 747 513 1 
f 591 405 489 
f 577 739 527 
f 4 513 9 
f 526 722 724 
f 148 147 298 
f 395 735 738 
f 514 590 587 
f 404 94 405 
f 580 402 488 
f 580 513 583 
f 394 739 482 
f 526 730 732 
f 322 611 415 
f 622 517 621 
f 516 517 622 
f 290 24 23 
f 561 517 629 
f 516 611 607 
f 517 617 618 
f 504 528 505 
f 503 528 504 
f 497 528 498 
f 179 178 243 
f 505 528 506 
f 510 528 511 
f 509 528 510 
f 506 528 507 
f 736 740 527 
f 3 486 5 
f 527 733 738 
f 637 517 634 
f 94 95 403 
f 323 608 605 
f 324 605 604 
f 420 334 131 
f 632 518 631 
f 129 177 178 
f 178 245 421 
f 424 338 129 
f 420 131 331 
f 640 518 638 
f 561 616 517 
f 337 338 638 
f 633 518 632 
f 256 82 566 
f 635 518 633 
f 326 622 327 
f 134 135 324 
f 392 99 100 
f 641 518 640 
f 562 518 641 
f 397 97 98 
f 516 622 626 
f 418 616 561 
f 385 723 471 
f 631 518 630 
f 420 634 334 
f 418 629 332 
f 516 623 625 
f 335 630 636 
f 177 129 128 
f 330 615 616 
f 324 558 416 
f 58 180 56 
f 180 181 132 
f 476 742 743 
f 335 336 630 
f 516 625 558 
f 133 327 417 
f 135 415 323 
f 183 240 414 
f 607 611 322 
f 422 336 130 
f 228 220 219 
f 311 190 312 
f 495 231 188 
f 543 68 67 
f 189 229 495 
f 228 53 548 
f 309 308 191 
f 191 192 310 
f 309 191 310 
f 388 102 389 
f 181 51 50 
f 328 619 329 
f 230 187 229 
f 229 187 495 
f 187 231 495 
f 53 540 548 
f 234 186 185 
f 224 414 240 
f 133 182 134 
f 55 540 549 
f 320 137 319 
f 27 228 553 
f 26 228 28 
f 29 228 26 
f 136 184 185 
f 537 540 53 
f 230 189 493 
f 170 171 122 
f 181 560 51 
f 182 45 49 
f 6 397 8 
f 418 132 330 
f 138 186 187 
f 407 492 585 
f 228 225 224 
f 356 120 357 
f 315 139 316 
f 157 109 108 
f 156 108 107 
f 155 107 106 
f 468 105 382 
f 157 282 457 
f 159 277 453 
f 163 272 447 
f 575 291 34 
f 540 538 539 
f 424 129 335 
f 173 64 254 
f 160 276 451 
f 164 445 267 
f 162 272 163 
f 526 740 744 
f 228 206 205 
f 12 201 13 
f 182 47 45 
f 12 530 531 
f 194 483 304 
f 490 192 307 
f 133 181 182 
f 194 303 485 
f 110 456 375 
f 34 533 575 
f 531 28 27 
f 269 209 445 
f 158 110 109 
f 157 457 280 
f 228 209 208 
f 159 158 455 
f 111 456 110 
f 182 46 47 
f 57 180 58 
f 527 735 741 
f 396 98 482 
f 614 411 556 
f 603 314 494 
f 331 131 332 
f 489 94 403 
f 594 317 592 
f 593 317 318 
f 390 734 391 
f 515 593 595 
f 194 304 303 
f 385 104 384 
f 514 579 584 
f 515 592 593 
f 594 411 317 
f 391 734 737 
f 97 399 96 
f 534 531 532 
f 514 601 602 
f 103 474 102 
f 515 601 514 
f 471 723 725 
f 493 311 140 
f 614 556 515 
f 597 315 596 
f 514 599 603 
f 610 515 516 
f 158 279 455 
f 115 116 365 
f 105 153 154 
f 610 606 515 
f 527 740 526 
f 713 382 720 
f 268 443 165 
f 703 458 374 
f 705 458 703 
f 714 464 708 
f 716 466 381 
f 681 672 522 
f 701 523 524 
f 715 381 719 
f 688 450 687 
f 714 525 719 
f 569 522 682 
f 718 525 720 
f 710 462 377 
f 711 524 708 
f 365 678 680 
f 613 515 612 
f 702 377 376 
f 533 529 530 
f 704 375 701 
f 570 523 695 
f 364 682 686 
f 713 525 574 
f 599 313 314 
f 515 596 601 
f 362 672 681 
f 373 696 697 
f 515 595 597 
f 365 446 678 
f 366 683 685 
f 534 26 531 
f 714 524 525 
f 496 598 602 
f 138 139 315 
f 163 269 164 
f 706 524 571 
f 193 194 485 
f 370 692 693 
f 387 474 103 
f 704 524 700 
f 686 522 684 
f 163 270 269 
f 398 399 97 
f 710 524 709 
f 367 448 684 
f 694 523 692 
f 681 522 678 
f 688 522 523 
f 369 689 690 
f 712 524 711 
f 152 104 103 
f 5 399 9 
f 312 190 491 
f 235 184 412 
f 200 36 34 
f 35 200 37 
f 205 278 455 
f 295 296 198 
f 2 484 7 
f 293 475 199 
f 161 162 113 
f 207 274 451 
f 2 527 4 
f 232 186 408 
f 684 522 683 
f 295 198 475 
f 29 534 554 
f 581 513 591 
f 183 135 134 
f 407 93 492 
f 200 199 33 
f 311 493 190 
f 129 130 335 
f 30 534 555 
f 84 431 216 
f 703 374 700 
f 156 281 282 
f 612 515 609 
f 536 52 50 
f 537 39 41 
f 707 524 702 
f 12 531 11 
f 122 350 351 
f 432 350 123 
f 691 523 689 
f 156 283 461 
f 121 169 170 
f 648 352 647 
f 272 208 447 
f 120 168 169 
f 120 354 355 
f 436 354 121 
f 664 355 662 
f 168 167 262 
f 438 357 120 
f 568 358 359 
f 118 166 167 
f 440 359 119 
f 429 347 125 
f 124 347 346 
f 643 347 642 
f 181 50 52 
f 657 346 564 
f 429 344 645 
f 89 340 127 
f 343 342 427 
f 126 341 342 
f 406 93 407 
f 341 127 340 
f 511 528 512 
f 87 340 339 
f 296 477 198 
f 521 522 677 
f 515 556 594 
f 657 564 519 
f 514 598 600 
f 673 676 521 
f 659 567 520 
f 121 352 353 
f 422 130 333 
f 519 645 646 
f 748 400 1 
f 415 611 608 
f 675 522 679 
f 650 519 649 
f 175 127 126 
f 174 175 126 
f 340 342 341 
f 171 123 122 
f 649 349 348 
f 172 70 71 
f 670 568 521 
f 668 521 666 
f 667 356 357 
f 179 131 130 
f 648 647 520 
f 176 127 175 
f 519 642 645 
f 119 120 356 
f 519 564 644 
f 668 356 665 
f 432 653 654 
f 657 519 650 
f 662 354 660 
f 173 124 172 
f 601 315 316 
f 124 123 172 
f 669 521 667 
f 651 349 649 
f 656 520 652 
f 436 658 660 
f 521 677 674 
f 444 363 117 
f 167 119 118 
f 173 563 64 
f 69 72 172 
f 117 165 166 
f 166 118 117 
f 666 521 661 
f 196 197 479 
f 514 584 589 
f 125 345 344 
f 659 353 567 
f 173 125 124 
f 442 360 118 
f 544 541 545 
f 433 215 216 
f 477 297 197 
f 430 348 124 
f 161 449 162 
f 335 130 336 
f 252 218 251 
f 228 55 549 
f 721 468 574 
f 80 546 551 
f 434 352 122 
f 260 437 214 
f 155 285 463 
f 216 256 255 
f 161 273 449 
f 719 381 380 
f 664 520 663 
f 158 280 460 
f 182 44 46 
f 343 126 342 
f 259 260 214 
f 699 523 698 
f 176 128 127 
f 502 528 503 
f 81 546 552 
f 670 358 568 
f 659 520 658 
f 667 521 665 
f 427 345 125 
f 65 66 254 
f 185 236 410 
f 216 255 433 
f 196 299 300 
f 256 431 82 
f 183 414 237 
f 258 257 215 
f 75 545 76 
f 565 545 542 
f 211 212 441 
f 287 288 15 
f 544 546 543 
f 228 549 222 
f 154 465 286 
f 202 11 10 
f 38 43 40 
f 42 557 40 
f 228 555 198 
f 196 195 228 
f 437 262 213 
f 408 227 188 
f 560 539 536 
f 421 221 222 
f 504 520 519 
f 503 504 519 
f 215 214 228 
f 508 524 523 
f 189 188 228 
f 247 425 220 
f 207 206 228 
f 79 80 228 
f 504 505 520 
f 721 728 384 
f 745 744 478 
f 746 482 577 
f 384 728 385 
f 514 513 497 
f 497 498 514 
f 510 526 525 
f 492 404 586 
f 142 307 143 
f 142 490 307 
f 141 491 308 
f 142 141 309 
f 488 400 748 
f 144 485 303 
f 143 305 306 
f 143 306 144 
f 145 483 301 
f 300 299 146 
f 147 146 299 
f 148 477 296 
f 151 291 292 
f 151 473 291 
f 482 739 577 
f 150 475 293 
f 143 487 305 
f 721 384 468 
f 295 475 149 
f 147 479 298 
f 145 96 144 
f 385 728 729 
f 148 296 149 
f 289 467 153 
f 289 153 152 
f 296 295 149 
f 145 301 302 
f 294 473 150 
f 150 473 151 
f 494 579 603 
f 584 579 494 
f 610 321 606 
f 517 615 620 
f 386 387 103 
f 517 627 628 
f 329 619 620 
f 324 604 558 
f 91 90 518 
f 421 245 221 
f 149 475 150 
f 246 177 423 
f 625 623 416 
f 416 623 325 
f 325 623 624 
f 310 490 142 
f 245 177 246 
f 87 339 88 
f 142 309 310 
f 334 635 333 
f 635 633 333 
f 335 636 562 
f 641 335 562 
f 637 634 420 
f 325 624 326 
f 606 413 609 
f 88 339 337 
f 610 322 321 
f 607 322 610 
f 334 634 635 
f 326 624 626 
f 88 337 639 
f 194 193 228 
f 192 191 228 
f 221 220 228 
f 191 190 228 
f 550 79 228 
f 222 549 63 
f 551 228 80 
f 222 63 223 
f 63 62 223 
f 228 547 54 
f 425 249 219 
f 248 247 220 
f 249 250 219 
f 423 248 220 
f 227 234 233 
f 217 67 68 
f 425 219 220 
f 622 621 327 
f 329 620 330 
f 217 68 218 
f 540 539 62 
f 218 68 550 
f 506 507 522 
f 241 419 223 
f 552 228 81 
f 81 228 551 
f 243 244 222 
f 244 421 222 
f 509 510 525 
f 561 629 418 
f 59 56 242 
f 224 240 239 
f 54 537 53 
f 516 515 499 
f 25 23 533 
f 137 411 319 
f 136 413 321 
f 54 547 537 
f 522 521 506 
f 88 639 646 
f 224 40 41 
f 535 537 536 
f 318 317 138 
f 313 92 314 
f 317 411 137 
f 419 241 179 
f 139 92 313 
f 139 313 496 
f 464 107 378 
f 466 106 381 
f 456 111 372 
f 454 112 370 
f 111 160 112 
f 454 111 112 
f 373 111 454 
f 572 18 530 
f 107 155 156 
f 542 72 69 
f 138 317 137 
f 18 572 465 
f 113 112 161 
f 368 114 450 
f 371 112 452 
f 503 519 90 
f 507 523 522 
f 379 108 462 
f 10 553 203 
f 61 57 58 
f 35 533 36 
f 36 533 34 
f 200 291 473 
f 62 539 61 
f 557 42 240 
f 24 20 533 
f 23 24 533 
f 423 220 221 
f 263 264 212 
f 22 533 530 
f 212 211 228 
f 573 22 530 
f 534 533 33 
f 33 533 37 
f 15 19 530 
f 452 113 369 
f 382 106 383 
f 383 106 466 
f 362 446 116 
f 242 241 223 
f 138 409 318 
f 462 108 377 
f 43 38 239 
f 146 481 300 
f 307 487 143 
f 374 110 375 
f 318 409 595 
f 458 110 374 
f 144 303 304 
f 494 406 584 
f 92 140 141 
f 391 737 745 
f 494 92 406 
f 97 96 145 
f 534 532 533 
f 243 178 244 
f 382 105 106 
f 319 411 614 
f 138 315 409 
f 140 92 139 
f 320 413 136 
f 507 508 523 
f 16 573 530 
f 602 316 496 
f 306 485 144 
f 245 246 221 
f 137 320 136 
f 675 363 444 
f 444 677 675 
f 679 363 675 
f 679 362 363 
f 109 157 158 
f 111 159 160 
f 60 57 61 
f 366 685 687 
f 374 375 704 
f 699 698 372 
f 368 691 369 
f 286 572 13 
f 370 693 570 
f 459 109 458 
f 364 115 365 
f 268 267 210 
f 452 112 113 
f 285 155 154 
f 116 446 365 
f 314 92 494 
f 362 116 363 
f 200 34 291 
f 25 22 289 
f 17 16 530 
f 473 294 199 
f 368 113 114 
f 244 178 421 
f 20 469 292 
f 498 499 515 
f 367 114 115 
f 11 531 10 
f 380 107 464 
f 364 448 115 
f 292 291 575 
f 112 160 161 
f 439 212 213 
f 424 335 641 
f 18 14 530 
f 43 42 40 
f 218 550 228 
f 115 448 367 
f 436 353 658 
f 169 121 120 
f 568 359 661 
f 430 346 657 
f 444 361 677 
f 528 509 508 
f 434 351 652 
f 671 676 442 
f 508 509 524 
f 170 122 121 
f 76 171 75 
f 78 565 172 
f 78 171 76 
f 88 646 87 
f 262 167 261 
f 176 175 250 
f 258 169 257 
f 265 165 266 
f 266 165 443 
f 260 168 437 
f 173 172 74 
f 77 566 545 
f 74 172 72 
f 61 56 59 
f 19 17 530 
f 509 525 524 
f 249 176 250 
f 259 168 260 
f 85 545 84 
f 541 543 542 
f 247 176 425 
f 246 423 221 
f 263 166 264 
f 248 176 247 
f 71 70 542 
f 227 233 410 
f 450 114 366 
f 67 217 66 
f 86 546 85 
f 83 431 84 
f 79 546 80 
f 439 263 212 
f 545 565 78 
f 502 503 91 
f 264 166 441 
f 257 169 435 
f 502 91 518 
f 42 43 239 
f 84 82 83 
f 264 441 212 
f 58 56 61 
f 222 223 419 
f 14 15 530 
f 321 413 606 
f 83 82 431 
f 77 75 171 
f 438 355 663 
f 170 255 256 
f 265 266 211 
