# NV = 88 NF = 172
v 0.0746383 -0.376825 0.0102852
v 0.0746383 -0.376825 0.0321467
v 0.067361 -0.373995 0.0102852
v 0.0824439 -0.37698 0.0102852
v 0.0824439 -0.37698 0.0321467
v 0.0897288 -0.374501 0.0102852
v 0.0897288 -0.374501 0.0321467
v 0.0958194 -0.369615 0.0321467
v 0.0958194 -0.369615 0.0102852
v 0.101353 -0.355383 0.0102852
v 0.101353 -0.355383 0.0321467
v 0.0998577 -0.362931 0.0102852
v 0.0982809 -0.348127 0.0540084
v 0.0901044 -0.350131 0.07587
v 0.0672782 -0.357902 0.07587
v 0.069732 -0.362357 0.07587
v 0.0683774 -0.37232 0.0540084
v 0.067361 -0.373995 0.0321467
v 0.0750184 -0.3749 0.0540084
v 0.0821425 -0.375044 0.0540084
v 0.0887854 -0.372782 0.0540084
v 0.0943425 -0.368323 0.0540084
v 0.0980289 -0.362225 0.0540084
v 0.0998577 -0.362931 0.0321467
v 0.0993924 -0.35534 0.0540084
v 0.0908775 -0.355158 0.07587
v 0.076673 -0.366545 0.07587
v 0.087934 -0.362712 0.07587
v 0.0900873 -0.359147 0.07587
v 0.0626242 -0.369848 0.0102852
v 0.0593427 -0.364881 0.0102852
v 0.0593427 -0.364881 0.0141873
v 0.0578032 -0.362087 0.0102852
v 0.0529273 -0.323441 0.00184728
v 0.0522671 -0.319178 -0.0142552
v 0.0542178 -0.331781 0.0102852
v 0.0571941 -0.351003 -0.0142552
v 0.0571941 -0.351003 0.0102852
v 0.0550268 -0.337002 0.0102852
v 0.0596576 -0.366917 0.0136352
v 0.0604005 -0.366801 0.0136352
v 0.0605486 -0.36707 0.0133474
v 0.0615702 -0.368925 0.0113585
v 0.0614609 -0.378565 0.00184728
v 0.0961578 -0.373195 0.00184728
v 0.0948672 -0.364856 0.0102852
v 0.0700313 -0.368701 0.0102852
v 0.0940581 -0.359634 0.0102852
v 0.0918909 -0.345633 -0.0142552
v 0.0869641 -0.313807 -0.0142552
v 0.0876242 -0.31807 0.00184728
v 0.0876242 -0.31807 -0.0303584
v 0.0918909 -0.345633 -0.0464615
v 0.0894275 -0.329719 -0.0421462
v 0.0943542 -0.361545 -0.0421462
v 0.0961578 -0.373195 -0.0303584
v 0.0621211 -0.382829 -0.0142552
v 0.0968175 -0.37746 -0.0142552
v 0.0614609 -0.378565 -0.0303584
v 0.0596576 -0.366917 -0.0421462
v 0.0571941 -0.351003 -0.0464615
v 0.0547312 -0.335092 -0.0421462
v 0.0529273 -0.323441 -0.0303584
v 0.0136383 -0.093501 0.0321467
v 0.100165 -0.347666 0.0321467
v 0.0136383 -0.093501 0.0102852
v 0.0918909 -0.345633 0.0102852
v 0.0889141 -0.326408 0.0102852
v 0.100165 -0.347666 0.0102852
v 0.0117193 -0.093852 0.0540084
v 0.0694274 -0.263369 0.0540084
v -0.00495864 -0.177726 0.0321467
v -0.00313075 -0.177104 0.0540084
v -0.0287219 -0.107922 0.0321467
v -0.0287219 -0.107922 0.0102852
v 0.00338034 -0.0953829 0.07587
v 0.0611965 -0.265216 0.07587
v 0.0846868 -0.365318 0.07587
v 0.0727916 -0.365036 0.07587
v 0.0808364 -0.366629 0.07587
v -0.0269864 -0.10703 0.0540084
v -0.0194459 -0.103153 0.07587
v 0.0378638 -0.297526 0.0540084
v 0.0360366 -0.298147 0.0321467
v 0.0578032 -0.362087 0.0321467
v 0.0595761 -0.361303 0.0540084
v 0.063098 -0.367697 0.0540084
v 0.0615702 -0.368925 0.0321467
f 64 65 66 
f 67 68 69 
f 70 71 64 
f 72 73 74 
f 74 75 72 
f 76 77 70 
f 78 79 80 
f 81 73 82 
f 83 73 84 
f 85 86 84 
f 86 85 87 
f 87 85 88 
f 1 2 3 
f 4 5 1 
f 6 7 4 
f 8 7 9 
f 10 11 12 
f 11 10 65 
f 13 11 65 
f 13 65 71 
f 14 13 77 
f 15 83 86 
f 15 86 16 
f 16 86 87 
f 16 87 79 
f 79 87 17 
f 87 88 17 
f 17 88 18 
f 17 18 19 
f 19 18 2 
f 19 2 20 
f 20 2 5 
f 7 21 5 
f 21 7 22 
f 22 7 8 
f 22 8 23 
f 23 8 24 
f 8 9 24 
f 23 24 25 
f 25 24 11 
f 25 11 13 
f 14 25 13 
f 26 25 14 
f 79 17 27 
f 27 17 19 
f 27 19 80 
f 80 19 20 
f 21 78 20 
f 78 21 28 
f 28 21 22 
f 28 22 29 
f 29 22 23 
f 29 23 26 
f 26 23 25 
f 3 18 30 
f 31 32 33 
f 34 35 36 
f 37 38 39 
f 38 37 31 
f 40 41 32 
f 40 42 41 
f 30 43 44 
f 45 46 47 
f 48 46 49 
f 67 48 49 
f 67 49 68 
f 49 50 51 
f 49 52 50 
f 53 54 49 
f 49 55 53 
f 49 56 55 
f 57 56 58 
f 59 56 57 
f 37 60 59 
f 37 61 60 
f 37 62 61 
f 35 63 37 
f 35 50 63 
f 62 63 54 
f 62 54 61 
f 61 53 60 
f 60 55 59 
f 44 37 57 
f 57 58 44 
f 59 55 56 
f 60 53 55 
f 61 54 53 
f 63 50 52 
f 35 51 50 
f 34 51 35 
f 45 58 49 
f 44 58 45 
f 37 44 40 
f 51 34 68 
f 69 66 65 
f 31 33 38 
f 33 75 38 
f 38 75 39 
f 39 75 36 
f 30 47 3 
f 3 47 1 
f 47 46 1 
f 1 46 4 
f 4 46 6 
f 6 46 9 
f 9 46 12 
f 46 48 12 
f 12 48 10 
f 48 67 10 
f 10 67 69 
f 75 66 36 
f 36 66 68 
f 66 69 68 
f 65 64 71 
f 81 74 73 
f 85 84 33 
f 33 84 75 
f 84 72 75 
f 13 71 77 
f 71 70 77 
f 82 15 76 
f 76 15 77 
f 77 15 14 
f 14 15 26 
f 15 16 26 
f 26 16 29 
f 29 16 28 
f 28 16 78 
f 16 79 78 
f 27 80 79 
f 15 82 83 
f 83 82 73 
f 72 84 73 
f 83 84 86 
f 18 3 2 
f 2 1 5 
f 5 4 7 
f 6 9 7 
f 24 12 11 
f 69 65 10 
f 20 5 21 
f 12 24 9 
f 80 20 78 
f 88 43 18 
f 43 30 18 
f 43 88 42 
f 42 88 41 
f 88 85 41 
f 41 85 32 
f 85 33 32 
f 37 39 35 
f 39 36 35 
f 32 31 40 
f 40 31 37 
f 45 47 44 
f 47 30 44 
f 40 44 42 
f 42 44 43 
f 45 49 46 
f 51 68 49 
f 52 49 54 
f 62 37 63 
f 52 54 63 
f 59 57 37 
f 56 49 58 
f 36 68 34 
f 74 64 75 
f 70 64 74 
f 81 70 74 
f 76 70 81 
f 82 76 81 
f 64 66 75 
