# NV = 88 NF = 172
v -0.239787 0.0877391 0.0540084
v -0.129179 0.0625613 0.0321467
v -0.130287 0.0609797 0.0540084
v -0.0687763 0.0202663 0.0321467
v -0.0687763 0.0202663 0.0102852
v -0.0872763 -0.00881114 0.07587
v -0.234236 0.0940914 0.07587
v -0.312313 0.160996 0.07587
v -0.302547 0.167793 0.07587
v -0.30998 0.164327 0.07587
v -0.0696498 0.0185212 0.0540084
v -0.0734453 0.0109407 0.07587
v -0.23449 0.133943 0.0540084
v -0.233382 0.135525 0.0321467
v -0.28871 0.174266 0.0321467
v -0.289678 0.172588 0.0540084
v -0.296296 0.175665 0.0540084
v -0.29579 0.177559 0.0321467
v -0.311 0.176216 0.0102852
v -0.311 0.176216 0.0321467
v -0.303456 0.178229 0.0102852
v -0.317391 0.171732 0.0102852
v -0.317391 0.171732 0.0321467
v -0.321805 0.165427 0.0102852
v -0.321805 0.165427 0.0321467
v -0.323833 0.157889 0.0321467
v -0.323833 0.157889 0.0102852
v -0.319892 0.143136 0.0102852
v -0.319892 0.143136 0.0321467
v -0.323145 0.15011 0.0102852
v -0.31313 0.139094 0.0540084
v -0.307714 0.145542 0.07587
v -0.293885 0.165294 0.07587
v -0.298496 0.16744 0.07587
v -0.303286 0.176278 0.0540084
v -0.303456 0.178229 0.0321467
v -0.31017 0.174439 0.0540084
v -0.316004 0.170347 0.0540084
v -0.320028 0.164599 0.0540084
v -0.321879 0.157718 0.0540084
v -0.321253 0.15062 0.0540084
v -0.323145 0.15011 0.0321467
v -0.318287 0.144259 0.0540084
v -0.311308 0.149141 0.07587
v -0.306571 0.16672 0.07587
v -0.313394 0.156975 0.07587
v -0.313026 0.152827 0.07587
v -0.297185 0.177682 0.0102852
v -0.291603 0.175612 0.0102852
v -0.291603 0.175612 0.0141873
v -0.28871 0.174266 0.0102852
v -0.261952 0.145961 0.00184728
v -0.258901 0.14291 -0.0142552
v -0.267917 0.151927 0.0102852
v -0.281673 0.165682 -0.0142552
v -0.281673 0.165682 0.0102852
v -0.271655 0.155664 0.0102852
v -0.293059 0.177069 0.0136352
v -0.293592 0.176538 0.0136352
v -0.29387 0.176667 0.0133474
v -0.29579 0.177559 0.0113585
v -0.301394 0.185404 0.00184728
v -0.326222 0.160577 0.00184728
v -0.320255 0.154612 0.0102852
v -0.302485 0.172382 0.0102852
v -0.316518 0.150874 0.0102852
v -0.3065 0.140855 -0.0142552
v -0.283727 0.118084 -0.0142552
v -0.286777 0.121133 0.00184728
v -0.286777 0.121133 -0.0303584
v -0.3065 0.140855 -0.0464615
v -0.295113 0.129469 -0.0421462
v -0.317886 0.152243 -0.0421462
v -0.326222 0.160577 -0.0303584
v -0.304446 0.188455 -0.0142552
v -0.329273 0.163629 -0.0142552
v -0.301394 0.185404 -0.0303584
v -0.293059 0.177069 -0.0421462
v -0.281673 0.165682 -0.0464615
v -0.270288 0.154296 -0.0421462
v -0.261952 0.145961 -0.0303584
v -0.0944424 -0.0163891 0.0321467
v -0.314376 0.137611 0.0321467
v -0.0944424 -0.0163891 0.0102852
v -0.3065 0.140855 0.0102852
v -0.292744 0.127101 0.0102852
v -0.314376 0.137611 0.0102852
v -0.0931014 -0.014971 0.0540084
f 82 83 84 
f 85 86 87 
f 88 1 82 
f 2 3 4 
f 4 5 2 
f 6 7 88 
f 8 9 10 
f 11 3 12 
f 13 3 14 
f 15 16 14 
f 16 15 17 
f 17 15 18 
f 19 20 21 
f 22 23 19 
f 24 25 22 
f 26 25 27 
f 28 29 30 
f 29 28 83 
f 31 29 83 
f 31 83 1 
f 32 31 7 
f 33 13 16 
f 33 16 34 
f 34 16 17 
f 34 17 9 
f 9 17 35 
f 17 18 35 
f 35 18 36 
f 35 36 37 
f 37 36 20 
f 37 20 38 
f 38 20 23 
f 25 39 23 
f 39 25 40 
f 40 25 26 
f 40 26 41 
f 41 26 42 
f 26 27 42 
f 41 42 43 
f 43 42 29 
f 43 29 31 
f 32 43 31 
f 44 43 32 
f 9 35 45 
f 45 35 37 
f 45 37 10 
f 10 37 38 
f 39 8 38 
f 8 39 46 
f 46 39 40 
f 46 40 47 
f 47 40 41 
f 47 41 44 
f 44 41 43 
f 21 36 48 
f 49 50 51 
f 52 53 54 
f 55 56 57 
f 56 55 49 
f 58 59 50 
f 58 60 59 
f 48 61 62 
f 63 64 65 
f 66 64 67 
f 85 66 67 
f 85 67 86 
f 67 68 69 
f 67 70 68 
f 71 72 67 
f 67 73 71 
f 67 74 73 
f 75 74 76 
f 77 74 75 
f 55 78 77 
f 55 79 78 
f 55 80 79 
f 53 81 55 
f 53 68 81 
f 80 81 72 
f 80 72 79 
f 79 71 78 
f 78 73 77 
f 62 55 75 
f 75 76 62 
f 77 73 74 
f 78 71 73 
f 79 72 71 
f 81 68 70 
f 53 69 68 
f 52 69 53 
f 63 76 67 
f 62 76 63 
f 55 62 58 
f 69 52 86 
f 87 84 83 
f 49 51 56 
f 51 5 56 
f 56 5 57 
f 57 5 54 
f 48 65 21 
f 21 65 19 
f 65 64 19 
f 19 64 22 
f 22 64 24 
f 24 64 27 
f 27 64 30 
f 64 66 30 
f 30 66 28 
f 66 85 28 
f 28 85 87 
f 5 84 54 
f 54 84 86 
f 84 87 86 
f 83 82 1 
f 11 4 3 
f 15 14 51 
f 51 14 5 
f 14 2 5 
f 31 1 7 
f 1 88 7 
f 12 33 6 
f 6 33 7 
f 7 33 32 
f 32 33 44 
f 33 34 44 
f 44 34 47 
f 47 34 46 
f 46 34 8 
f 34 9 8 
f 45 10 9 
f 33 12 13 
f 13 12 3 
f 2 14 3 
f 13 14 16 
f 36 21 20 
f 20 19 23 
f 23 22 25 
f 24 27 25 
f 42 30 29 
f 87 83 28 
f 38 23 39 
f 30 42 27 
f 10 38 8 
f 18 61 36 
f 61 48 36 
f 61 18 60 
f 60 18 59 
f 18 15 59 
f 59 15 50 
f 15 51 50 
f 55 57 53 
f 57 54 53 
f 50 49 58 
f 58 49 55 
f 63 65 62 
f 65 48 62 
f 58 62 60 
f 60 62 61 
f 63 67 64 
f 69 86 67 
f 70 67 72 
f 80 55 81 
f 70 72 81 
f 77 75 55 
f 74 67 76 
f 54 86 52 
f 4 82 5 
f 88 82 4 
f 11 88 4 
f 6 88 11 
f 12 6 11 
f 82 84 5 
