# NV = 8 NF = 12
v -1.05175 0.512717 0.554583
v -1.05175 0.512717 0.636011
v -1.05175 -0.517246 0.636011
v -1.05175 -0.517246 0.554583
v -1.07228 0.512717 0.554583
v -1.07228 -0.517246 0.554583
v -1.07228 -0.517246 0.636011
v -1.07228 0.512717 0.636011
f 1 2 3 
f 3 4 1 
f 5 6 7 
f 7 8 5 
f 1 4 6 
f 6 5 1 
f 4 3 7 
f 7 6 4 
f 3 2 8 
f 8 7 3 
f 2 1 5 
f 5 8 2 
