# NV = 8 NF = 12
v -1.05193 0.512717 1.80956
v -1.05193 0.512717 1.89098
v -1.05193 -0.517246 1.89098
v -1.05193 -0.517246 1.80956
v -1.07237 0.512717 1.80956
v -1.07237 -0.517246 1.80956
v -1.07237 -0.517246 1.89098
v -1.07237 0.512717 1.89098
f 1 2 3 
f 3 4 1 
f 5 6 7 
f 7 8 5 
f 1 4 6 
f 6 5 1 
f 4 3 7 
f 7 6 4 
f 3 2 8 
f 8 7 3 
f 2 1 5 
f 5 8 2 
