# 3ds Max Wavefront OBJ Exporter v0.97b - (c)2007 guruware
# File Created: 16.12.2013 11:00:55

#
# object left
#

v  -29.8054 1.0563 -19.0289
v  20.1575 1.0563 -19.0289
v  -29.8054 1.0563 -20.1084
v  20.1575 1.0563 -20.1084
v  -29.8054 10.0340 -19.0289
v  20.1575 10.0340 -19.0289
v  -29.8054 10.0340 -20.1084
v  20.1575 10.0340 -20.1084
# 8 vertices

g left
f 1 3 4 
f 4 2 1 
f 5 6 8 
f 8 7 5 
f 1 2 6 
f 6 5 1 
f 2 4 8 
f 8 6 2 
f 4 3 7 
f 7 8 4 
f 3 1 5 
f 5 7 3 
# 12 faces

#
# object back
#

v  -29.7762 0.0000 9.8107
v  20.1377 0.0000 9.8107
v  -29.7762 0.0000 -20.1377
v  20.1377 0.0000 -20.1377
v  -29.7762 1.0327 9.8107
v  20.1377 1.0327 9.8107
v  -29.7762 1.0327 -20.1377
v  20.1377 1.0327 -20.1377
# 8 vertices

g back
f 9 11 12 
f 12 10 9 
f 13 14 16 
f 16 15 13 
f 9 10 14 
f 14 13 9 
f 10 12 16 
f 16 14 10 
f 12 11 15 
f 15 16 12 
f 11 9 13 
f 13 15 11 
# 12 faces

#
# object right
#

v  -29.8054 1.0065 9.8782
v  20.1575 1.0065 9.8782
v  -29.8054 1.0065 8.7987
v  20.1575 1.0065 8.7987
v  -29.8054 9.9841 9.8782
v  20.1575 9.9841 9.8782
v  -29.8054 9.9841 8.7987
v  20.1575 9.9841 8.7987
# 8 vertices

g right
f 17 19 20 
f 20 18 17 
f 21 22 24 
f 24 23 21 
f 17 18 22 
f 22 21 17 
f 18 20 24 
f 24 22 18 
f 20 19 23 
f 23 24 20 
f 19 17 21 
f 21 23 19 
# 12 faces

#
# object bottom
#

v  -16.8020 1.1745 8.6757
v  -15.8282 1.1745 8.6757
v  -16.8020 1.1745 -18.8643
v  -15.8282 1.1745 -18.8643
v  -16.8020 9.8828 8.6757
v  -15.8282 9.8828 8.6757
v  -16.8020 9.8828 -18.8643
v  -15.8282 9.8828 -18.8643
# 8 vertices

g bottom
f 25 27 28 
f 28 26 25 
f 29 30 32 
f 32 31 29 
f 25 26 30 
f 30 29 25 
f 26 28 32 
f 32 30 26 
f 28 27 31 
f 31 32 28 
f 27 25 29 
f 29 31 27 
# 12 faces

#
# object top
#

v  4.3853 1.1745 8.6757
v  5.3591 1.1745 8.6757
v  4.3853 1.1745 -18.8643
v  5.3591 1.1745 -18.8643
v  4.3853 9.8828 8.6757
v  5.3591 9.8828 8.6757
v  4.3853 9.8828 -18.8643
v  5.3591 9.8828 -18.8643
# 8 vertices

g top
f 33 35 36 
f 36 34 33 
f 37 38 40 
f 40 39 37 
f 33 34 38 
f 38 37 33 
f 34 36 40 
f 40 38 34 
f 36 35 39 
f 39 40 36 
f 35 33 37 
f 37 39 35 
# 12 faces

