# NV = 8 NF = 12
v -10.1094 -40.3542 0.6046
v -10.0035 -40.5103 0.7686
v -5.9706 -37.5487 0.6046
v -5.8648 -37.7048 0.7686
v -12.6875 -36.5509 5.8855
v -12.5817 -36.707 6.0496
v -8.5488 -33.7453 5.8855
v -8.4429 -33.9015 6.0496
f 1 3 4 
f 4 2 1 
f 5 6 8 
f 8 7 5 
f 1 2 6 
f 6 5 1 
f 2 4 8 
f 8 6 2 
f 4 3 7 
f 7 8 4 
f 3 1 5 
f 5 7 3 
