# NV = 8 NF = 12
v -26.6295 17.1168 10.7487
v 2.0324 17.1553 10.7487
v -26.6521 33.9768 10.7487
v 2.0098 34.0152 10.7487
v -26.6295 17.1168 11.3107
v 2.0324 17.1553 11.3107
v -26.6521 33.9768 11.3107
v 2.0098 34.0152 11.3107
f 1 3 4 
f 4 2 1 
f 5 6 8 
f 8 7 5 
f 1 2 6 
f 6 5 1 
f 2 4 8 
f 8 6 2 
f 4 3 7 
f 7 8 4 
f 3 1 5 
f 5 7 3 
