# NV = 8 NF = 12
v -14.5147 -4.8194 9.824
v -18.9522 -4.8194 0.3078
v -14.5147 5.8485 9.824
v -18.9522 5.8485 0.3078
v -14.9679 -4.8194 10.0354
v -19.4054 -4.8194 0.5191
v -14.9679 5.8485 10.0354
v -19.4054 5.8485 0.5191
f 4 3 1 
f 1 2 4 
f 8 6 5 
f 5 7 8 
f 6 2 1 
f 1 5 6 
f 8 4 2 
f 2 6 8 
f 7 3 4 
f 4 8 7 
f 5 1 3 
f 3 7 5 
