# NV = 8 NF = 12
v 25.6992 17.6887 0.2401
v 25.696 17.3215 0.2401
v 35.1909 17.4916 0.2401
v 35.1877 17.1244 0.2401
v 25.6992 17.6887 11.2565
v 25.696 17.3215 11.2565
v 35.1909 17.4916 11.2565
v 35.1877 17.1244 11.2565
f 1 3 4 
f 4 2 1 
f 5 6 8 
f 8 7 5 
f 1 2 6 
f 6 5 1 
f 2 4 8 
f 8 6 2 
f 4 3 7 
f 7 8 4 
f 3 1 5 
f 5 7 3 
