# NV = 8 NF = 12
v 25.5928 5.4132 7.5844
v 25.5896 5.0461 7.5844
v 35.0844 5.2162 7.5844
v 35.0813 4.849 7.5844
v 25.5928 5.4132 29.617
v 25.5896 5.0461 29.617
v 35.0844 5.2162 29.617
v 35.0813 4.849 29.617
f 1 3 4 
f 4 2 1 
f 5 6 8 
f 8 7 5 
f 1 2 6 
f 6 5 1 
f 2 4 8 
f 8 6 2 
f 4 3 7 
f 7 8 4 
f 3 1 5 
f 5 7 3 
