# NV = 110 NF = 216
v 0.577928 0.711339 0.458572
v 0.576618 0.712436 0.458572
v 0.575013 0.713022 0.458572
v 0.573303 0.713022 0.458572
v 0.571699 0.712436 0.458572
v 0.570389 0.711339 0.458572
v 0.569535 0.709858 0.458572
v 0.569238 0.708176 0.458572
v 0.569535 0.706493 0.458572
v 0.570389 0.705011 0.458572
v 0.571699 0.703913 0.458572
v 0.573303 0.703329 0.458572
v 0.575013 0.703329 0.458572
v 0.576618 0.703913 0.458572
v 0.577928 0.705011 0.458572
v 0.578783 0.706493 0.458572
v 0.579079 0.708176 0.580072
v 0.578783 0.709858 0.580072
v 0.577928 0.711339 0.580072
v 0.576618 0.712436 0.580072
v 0.575013 0.713022 0.580072
v 0.573303 0.713022 0.580072
v 0.571699 0.712436 0.580072
v 0.570389 0.711339 0.580072
v 0.569535 0.709858 0.580072
v 0.569238 0.708176 0.580072
v 0.569535 0.706493 0.580072
v 0.570389 0.705011 0.580072
v 0.571699 0.703913 0.580072
v 0.573303 0.703329 0.580072
v 0.575013 0.703329 0.580072
v 0.576618 0.703913 0.580072
v 0.577928 0.705011 0.580072
v 0.578783 0.706493 0.580072
v 0.579079 0.708176 0.701573
v 0.578783 0.709858 0.701573
v 0.577928 0.711339 0.701573
v 0.576618 0.712436 0.701573
v 0.575013 0.713022 0.701573
v 0.573303 0.713022 0.701573
v 0.571699 0.712436 0.701573
v 0.570389 0.711339 0.701573
v 0.569535 0.709858 0.701573
v 0.569238 0.708176 0.701573
v 0.569535 0.706493 0.701573
v 0.570389 0.705011 0.701573
v 0.571699 0.703913 0.701573
v 0.573303 0.703329 0.701573
v 0.575013 0.703329 0.701573
v 0.576618 0.703913 0.701573
v 0.577928 0.705011 0.701573
v 0.578783 0.706493 0.701573
v 0.574158 0.708176 0.701573
v 0.574158 0.708176 0.0940726
v 0.579079 0.708176 0.0940726
v 0.578783 0.709858 0.0940726
v 0.577928 0.711339 0.0940726
v 0.576618 0.712436 0.0940726
v 0.575013 0.713022 0.0940726
v 0.573303 0.713022 0.0940726
v 0.571699 0.712436 0.0940726
v 0.570389 0.711339 0.0940726
v 0.569535 0.709858 0.0940726
v 0.569238 0.708176 0.0940726
v 0.569535 0.706493 0.0940726
v 0.570389 0.705011 0.0940726
v 0.571699 0.703913 0.0940726
v 0.573303 0.703329 0.0940726
v 0.575013 0.703329 0.0940726
v 0.576618 0.703913 0.0940726
v 0.577928 0.705011 0.0940726
v 0.578783 0.706493 0.0940726
v 0.579079 0.708176 0.215573
v 0.578783 0.709858 0.215573
v 0.577928 0.711339 0.215573
v 0.576618 0.712436 0.215573
v 0.575013 0.713022 0.215573
v 0.573303 0.713022 0.215573
v 0.571699 0.712436 0.215573
v 0.570389 0.711339 0.215573
v 0.569535 0.709858 0.215573
v 0.569238 0.708176 0.215573
v 0.569535 0.706493 0.215573
v 0.570389 0.705011 0.215573
v 0.571699 0.703913 0.215573
v 0.573303 0.703329 0.215573
v 0.575013 0.703329 0.215573
v 0.576618 0.703913 0.215573
v 0.577928 0.705011 0.215573
v 0.578783 0.706493 0.215573
v 0.579079 0.708176 0.337073
v 0.578783 0.709858 0.337073
v 0.577928 0.711339 0.337073
v 0.576618 0.712436 0.337073
v 0.575013 0.713022 0.337073
v 0.573303 0.713022 0.337073
v 0.571699 0.712436 0.337073
v 0.570389 0.711339 0.337073
v 0.569535 0.709858 0.337073
v 0.569238 0.708176 0.337073
v 0.569535 0.706493 0.337073
v 0.570389 0.705011 0.337073
v 0.571699 0.703913 0.337073
v 0.573303 0.703329 0.337073
v 0.575013 0.703329 0.337073
v 0.576618 0.703913 0.337073
v 0.577928 0.705011 0.337073
v 0.578783 0.706493 0.337073
v 0.579079 0.708176 0.458572
v 0.578783 0.709858 0.458572
f 52 35 53 
f 51 52 53 
f 50 51 53 
f 49 50 53 
f 48 49 53 
f 47 48 53 
f 46 47 53 
f 45 46 53 
f 44 45 53 
f 43 44 53 
f 42 43 53 
f 41 42 53 
f 40 41 53 
f 39 40 53 
f 38 39 53 
f 37 38 53 
f 36 37 53 
f 35 36 53 
f 17 35 34 
f 35 52 34 
f 34 52 33 
f 52 51 33 
f 33 51 32 
f 51 50 32 
f 32 50 31 
f 50 49 31 
f 31 49 30 
f 49 48 30 
f 30 48 29 
f 48 47 29 
f 29 47 28 
f 47 46 28 
f 28 46 27 
f 46 45 27 
f 27 45 26 
f 45 44 26 
f 26 44 25 
f 44 43 25 
f 25 43 24 
f 43 42 24 
f 24 42 23 
f 42 41 23 
f 23 41 22 
f 41 40 22 
f 22 40 21 
f 40 39 21 
f 21 39 20 
f 39 38 20 
f 20 38 19 
f 38 37 19 
f 19 37 18 
f 37 36 18 
f 18 36 17 
f 36 35 17 
f 109 17 16 
f 17 34 16 
f 16 34 15 
f 34 33 15 
f 15 33 14 
f 33 32 14 
f 14 32 13 
f 32 31 13 
f 13 31 12 
f 31 30 12 
f 12 30 11 
f 30 29 11 
f 11 29 10 
f 29 28 10 
f 10 28 9 
f 28 27 9 
f 9 27 8 
f 27 26 8 
f 8 26 7 
f 26 25 7 
f 7 25 6 
f 25 24 6 
f 6 24 5 
f 24 23 5 
f 5 23 4 
f 23 22 4 
f 4 22 3 
f 22 21 3 
f 3 21 2 
f 21 20 2 
f 2 20 1 
f 20 19 1 
f 1 19 110 
f 19 18 110 
f 110 18 109 
f 18 17 109 
f 91 109 108 
f 109 16 108 
f 108 16 107 
f 16 15 107 
f 107 15 106 
f 15 14 106 
f 106 14 105 
f 14 13 105 
f 105 13 104 
f 13 12 104 
f 104 12 103 
f 12 11 103 
f 103 11 102 
f 11 10 102 
f 102 10 101 
f 10 9 101 
f 101 9 100 
f 9 8 100 
f 100 8 99 
f 8 7 99 
f 99 7 98 
f 7 6 98 
f 98 6 97 
f 6 5 97 
f 97 5 96 
f 5 4 96 
f 96 4 95 
f 4 3 95 
f 95 3 94 
f 3 2 94 
f 94 2 93 
f 2 1 93 
f 93 1 92 
f 1 110 92 
f 92 110 91 
f 110 109 91 
f 73 91 90 
f 91 108 90 
f 90 108 89 
f 108 107 89 
f 89 107 88 
f 107 106 88 
f 88 106 87 
f 106 105 87 
f 87 105 86 
f 105 104 86 
f 86 104 85 
f 104 103 85 
f 85 103 84 
f 103 102 84 
f 84 102 83 
f 102 101 83 
f 83 101 82 
f 101 100 82 
f 82 100 81 
f 100 99 81 
f 81 99 80 
f 99 98 80 
f 80 98 79 
f 98 97 79 
f 79 97 78 
f 97 96 78 
f 78 96 77 
f 96 95 77 
f 77 95 76 
f 95 94 76 
f 76 94 75 
f 94 93 75 
f 75 93 74 
f 93 92 74 
f 74 92 73 
f 92 91 73 
f 55 73 72 
f 73 90 72 
f 72 90 71 
f 90 89 71 
f 71 89 70 
f 89 88 70 
f 70 88 69 
f 88 87 69 
f 69 87 68 
f 87 86 68 
f 68 86 67 
f 86 85 67 
f 67 85 66 
f 85 84 66 
f 66 84 65 
f 84 83 65 
f 65 83 64 
f 83 82 64 
f 64 82 63 
f 82 81 63 
f 63 81 62 
f 81 80 62 
f 62 80 61 
f 80 79 61 
f 61 79 60 
f 79 78 60 
f 60 78 59 
f 78 77 59 
f 59 77 58 
f 77 76 58 
f 58 76 57 
f 76 75 57 
f 57 75 56 
f 75 74 56 
f 56 74 55 
f 74 73 55 
f 55 72 54 
f 72 71 54 
f 71 70 54 
f 70 69 54 
f 69 68 54 
f 68 67 54 
f 67 66 54 
f 66 65 54 
f 65 64 54 
f 64 63 54 
f 63 62 54 
f 62 61 54 
f 61 60 54 
f 60 59 54 
f 59 58 54 
f 58 57 54 
f 57 56 54 
f 56 55 54 
