# NV = 110 NF = 216
v 0.708409 -0.316066 0.580072
v 0.706927 -0.31692 0.580072
v 0.70583 -0.31823 0.580072
v 0.705244 -0.319836 0.580072
v 0.705244 -0.321545 0.580072
v 0.70583 -0.32315 0.580072
v 0.706927 -0.32446 0.580072
v 0.708409 -0.325314 0.580072
v 0.71009 -0.32561 0.580072
v 0.711774 -0.325314 0.580072
v 0.713255 -0.32446 0.580072
v 0.714352 -0.32315 0.580072
v 0.714936 -0.321545 0.580072
v 0.714936 -0.319836 0.580072
v 0.714352 -0.31823 0.580072
v 0.713255 -0.31692 0.580072
v 0.711774 -0.316066 0.580072
v 0.71009 -0.31577 0.701573
v 0.708409 -0.316066 0.701573
v 0.706927 -0.31692 0.701573
v 0.70583 -0.31823 0.701573
v 0.705244 -0.319836 0.701573
v 0.705244 -0.321545 0.701573
v 0.70583 -0.32315 0.701573
v 0.706927 -0.32446 0.701573
v 0.708409 -0.325314 0.701573
v 0.71009 -0.32561 0.701573
v 0.711774 -0.325314 0.701573
v 0.713255 -0.32446 0.701573
v 0.714352 -0.32315 0.701573
v 0.714936 -0.321545 0.701573
v 0.714936 -0.319836 0.701573
v 0.714352 -0.31823 0.701573
v 0.713255 -0.31692 0.701573
v 0.711774 -0.316066 0.701573
v 0.71009 -0.320691 0.701573
v 0.71009 -0.320691 0.0940726
v 0.71009 -0.31577 0.0940726
v 0.708409 -0.316066 0.0940726
v 0.706927 -0.31692 0.0940726
v 0.70583 -0.31823 0.0940726
v 0.705244 -0.319836 0.0940726
v 0.705244 -0.321545 0.0940726
v 0.70583 -0.32315 0.0940726
v 0.706927 -0.32446 0.0940726
v 0.708409 -0.325314 0.0940726
v 0.71009 -0.32561 0.0940726
v 0.711774 -0.325314 0.0940726
v 0.713255 -0.32446 0.0940726
v 0.714352 -0.32315 0.0940726
v 0.714936 -0.321545 0.0940726
v 0.714936 -0.319836 0.0940726
v 0.714352 -0.31823 0.0940726
v 0.713255 -0.31692 0.0940726
v 0.711774 -0.316066 0.0940726
v 0.71009 -0.31577 0.215573
v 0.708409 -0.316066 0.215573
v 0.706927 -0.31692 0.215573
v 0.70583 -0.31823 0.215573
v 0.705244 -0.319836 0.215573
v 0.705244 -0.321545 0.215573
v 0.70583 -0.32315 0.215573
v 0.706927 -0.32446 0.215573
v 0.708409 -0.325314 0.215573
v 0.71009 -0.32561 0.215573
v 0.711774 -0.325314 0.215573
v 0.713255 -0.32446 0.215573
v 0.714352 -0.32315 0.215573
v 0.714936 -0.321545 0.215573
v 0.714936 -0.319836 0.215573
v 0.714352 -0.31823 0.215573
v 0.713255 -0.31692 0.215573
v 0.711774 -0.316066 0.215573
v 0.71009 -0.31577 0.337073
v 0.708409 -0.316066 0.337073
v 0.706927 -0.31692 0.337073
v 0.70583 -0.31823 0.337073
v 0.705244 -0.319836 0.337073
v 0.705244 -0.321545 0.337073
v 0.70583 -0.32315 0.337073
v 0.706927 -0.32446 0.337073
v 0.708409 -0.325314 0.337073
v 0.71009 -0.32561 0.337073
v 0.711774 -0.325314 0.337073
v 0.713255 -0.32446 0.337073
v 0.714352 -0.32315 0.337073
v 0.714936 -0.321545 0.337073
v 0.714936 -0.319836 0.337073
v 0.714352 -0.31823 0.337073
v 0.713255 -0.31692 0.337073
v 0.711774 -0.316066 0.337073
v 0.71009 -0.31577 0.458572
v 0.708409 -0.316066 0.458572
v 0.706927 -0.31692 0.458572
v 0.70583 -0.31823 0.458572
v 0.705244 -0.319836 0.458572
v 0.705244 -0.321545 0.458572
v 0.70583 -0.32315 0.458572
v 0.706927 -0.32446 0.458572
v 0.708409 -0.325314 0.458572
v 0.71009 -0.32561 0.458572
v 0.711774 -0.325314 0.458572
v 0.713255 -0.32446 0.458572
v 0.714352 -0.32315 0.458572
v 0.714936 -0.321545 0.458572
v 0.714936 -0.319836 0.458572
v 0.714352 -0.31823 0.458572
v 0.713255 -0.31692 0.458572
v 0.711774 -0.316066 0.458572
v 0.71009 -0.31577 0.580072
f 35 18 36 
f 34 35 36 
f 33 34 36 
f 32 33 36 
f 31 32 36 
f 30 31 36 
f 29 30 36 
f 28 29 36 
f 27 28 36 
f 26 27 36 
f 25 26 36 
f 24 25 36 
f 23 24 36 
f 22 23 36 
f 21 22 36 
f 20 21 36 
f 19 20 36 
f 18 19 36 
f 110 18 17 
f 18 35 17 
f 17 35 16 
f 35 34 16 
f 16 34 15 
f 34 33 15 
f 15 33 14 
f 33 32 14 
f 14 32 13 
f 32 31 13 
f 13 31 12 
f 31 30 12 
f 12 30 11 
f 30 29 11 
f 11 29 10 
f 29 28 10 
f 10 28 9 
f 28 27 9 
f 9 27 8 
f 27 26 8 
f 8 26 7 
f 26 25 7 
f 7 25 6 
f 25 24 6 
f 6 24 5 
f 24 23 5 
f 5 23 4 
f 23 22 4 
f 4 22 3 
f 22 21 3 
f 3 21 2 
f 21 20 2 
f 2 20 1 
f 20 19 1 
f 1 19 110 
f 19 18 110 
f 92 110 109 
f 110 17 109 
f 109 17 108 
f 17 16 108 
f 108 16 107 
f 16 15 107 
f 107 15 106 
f 15 14 106 
f 106 14 105 
f 14 13 105 
f 105 13 104 
f 13 12 104 
f 104 12 103 
f 12 11 103 
f 103 11 102 
f 11 10 102 
f 102 10 101 
f 10 9 101 
f 101 9 100 
f 9 8 100 
f 100 8 99 
f 8 7 99 
f 99 7 98 
f 7 6 98 
f 98 6 97 
f 6 5 97 
f 97 5 96 
f 5 4 96 
f 96 4 95 
f 4 3 95 
f 95 3 94 
f 3 2 94 
f 94 2 93 
f 2 1 93 
f 93 1 92 
f 1 110 92 
f 74 92 91 
f 92 109 91 
f 91 109 90 
f 109 108 90 
f 90 108 89 
f 108 107 89 
f 89 107 88 
f 107 106 88 
f 88 106 87 
f 106 105 87 
f 87 105 86 
f 105 104 86 
f 86 104 85 
f 104 103 85 
f 85 103 84 
f 103 102 84 
f 84 102 83 
f 102 101 83 
f 83 101 82 
f 101 100 82 
f 82 100 81 
f 100 99 81 
f 81 99 80 
f 99 98 80 
f 80 98 79 
f 98 97 79 
f 79 97 78 
f 97 96 78 
f 78 96 77 
f 96 95 77 
f 77 95 76 
f 95 94 76 
f 76 94 75 
f 94 93 75 
f 75 93 74 
f 93 92 74 
f 56 74 73 
f 74 91 73 
f 73 91 72 
f 91 90 72 
f 72 90 71 
f 90 89 71 
f 71 89 70 
f 89 88 70 
f 70 88 69 
f 88 87 69 
f 69 87 68 
f 87 86 68 
f 68 86 67 
f 86 85 67 
f 67 85 66 
f 85 84 66 
f 66 84 65 
f 84 83 65 
f 65 83 64 
f 83 82 64 
f 64 82 63 
f 82 81 63 
f 63 81 62 
f 81 80 62 
f 62 80 61 
f 80 79 61 
f 61 79 60 
f 79 78 60 
f 60 78 59 
f 78 77 59 
f 59 77 58 
f 77 76 58 
f 58 76 57 
f 76 75 57 
f 57 75 56 
f 75 74 56 
f 38 56 55 
f 56 73 55 
f 55 73 54 
f 73 72 54 
f 54 72 53 
f 72 71 53 
f 53 71 52 
f 71 70 52 
f 52 70 51 
f 70 69 51 
f 51 69 50 
f 69 68 50 
f 50 68 49 
f 68 67 49 
f 49 67 48 
f 67 66 48 
f 48 66 47 
f 66 65 47 
f 47 65 46 
f 65 64 46 
f 46 64 45 
f 64 63 45 
f 45 63 44 
f 63 62 44 
f 44 62 43 
f 62 61 43 
f 43 61 42 
f 61 60 42 
f 42 60 41 
f 60 59 41 
f 41 59 40 
f 59 58 40 
f 40 58 39 
f 58 57 39 
f 39 57 38 
f 57 56 38 
f 38 55 37 
f 55 54 37 
f 54 53 37 
f 53 52 37 
f 52 51 37 
f 51 50 37 
f 50 49 37 
f 49 48 37 
f 48 47 37 
f 47 46 37 
f 46 45 37 
f 45 44 37 
f 44 43 37 
f 43 42 37 
f 42 41 37 
f 41 40 37 
f 40 39 37 
f 39 38 37 
