# NV = 110 NF = 216
v 0.445743 -0.7069 0.337073
v 0.444137 -0.707484 0.337073
v 0.442827 -0.708583 0.337073
v 0.441972 -0.710063 0.337073
v 0.441676 -0.711746 0.337073
v 0.441972 -0.71343 0.337073
v 0.442827 -0.714909 0.337073
v 0.444137 -0.716008 0.337073
v 0.445743 -0.716592 0.337073
v 0.447452 -0.716592 0.337073
v 0.449058 -0.716008 0.337073
v 0.450366 -0.714909 0.337073
v 0.45122 -0.71343 0.337073
v 0.451517 -0.711746 0.458572
v 0.45122 -0.710063 0.458572
v 0.450366 -0.708583 0.458572
v 0.449058 -0.707484 0.458572
v 0.447452 -0.7069 0.458572
v 0.445743 -0.7069 0.458572
v 0.444137 -0.707484 0.458572
v 0.442827 -0.708583 0.458572
v 0.441972 -0.710063 0.458572
v 0.441676 -0.711746 0.458572
v 0.441972 -0.71343 0.458572
v 0.442827 -0.714909 0.458572
v 0.444137 -0.716008 0.458572
v 0.445743 -0.716592 0.458572
v 0.447452 -0.716592 0.458572
v 0.449058 -0.716008 0.458572
v 0.450366 -0.714909 0.458572
v 0.45122 -0.71343 0.458572
v 0.451517 -0.711746 0.580072
v 0.45122 -0.710063 0.580072
v 0.450366 -0.708583 0.580072
v 0.449058 -0.707484 0.580072
v 0.447452 -0.7069 0.580072
v 0.445743 -0.7069 0.580072
v 0.444137 -0.707484 0.580072
v 0.442827 -0.708583 0.580072
v 0.441972 -0.710063 0.580072
v 0.441676 -0.711746 0.580072
v 0.441972 -0.71343 0.580072
v 0.442827 -0.714909 0.580072
v 0.444137 -0.716008 0.580072
v 0.445743 -0.716592 0.580072
v 0.447452 -0.716592 0.580072
v 0.449058 -0.716008 0.580072
v 0.450366 -0.714909 0.580072
v 0.45122 -0.71343 0.580072
v 0.451517 -0.711746 0.701573
v 0.45122 -0.710063 0.701573
v 0.450366 -0.708583 0.701573
v 0.449058 -0.707484 0.701573
v 0.447452 -0.7069 0.701573
v 0.445743 -0.7069 0.701573
v 0.444137 -0.707484 0.701573
v 0.442827 -0.708583 0.701573
v 0.441972 -0.710063 0.701573
v 0.441676 -0.711746 0.701573
v 0.441972 -0.71343 0.701573
v 0.442827 -0.714909 0.701573
v 0.444137 -0.716008 0.701573
v 0.445743 -0.716592 0.701573
v 0.447452 -0.716592 0.701573
v 0.449058 -0.716008 0.701573
v 0.450366 -0.714909 0.701573
v 0.45122 -0.71343 0.701573
v 0.446598 -0.711746 0.701573
v 0.446598 -0.711746 0.0940726
v 0.451517 -0.711746 0.0940726
v 0.45122 -0.710063 0.0940726
v 0.450366 -0.708583 0.0940726
v 0.449058 -0.707484 0.0940726
v 0.447452 -0.7069 0.0940726
v 0.445743 -0.7069 0.0940726
v 0.444137 -0.707484 0.0940726
v 0.442827 -0.708583 0.0940726
v 0.441972 -0.710063 0.0940726
v 0.441676 -0.711746 0.0940726
v 0.441972 -0.71343 0.0940726
v 0.442827 -0.714909 0.0940726
v 0.444137 -0.716008 0.0940726
v 0.445743 -0.716592 0.0940726
v 0.447452 -0.716592 0.0940726
v 0.449058 -0.716008 0.0940726
v 0.450366 -0.714909 0.0940726
v 0.45122 -0.71343 0.0940726
v 0.451517 -0.711746 0.215573
v 0.45122 -0.710063 0.215573
v 0.450366 -0.708583 0.215573
v 0.449058 -0.707484 0.215573
v 0.447452 -0.7069 0.215573
v 0.445743 -0.7069 0.215573
v 0.444137 -0.707484 0.215573
v 0.442827 -0.708583 0.215573
v 0.441972 -0.710063 0.215573
v 0.441676 -0.711746 0.215573
v 0.441972 -0.71343 0.215573
v 0.442827 -0.714909 0.215573
v 0.444137 -0.716008 0.215573
v 0.445743 -0.716592 0.215573
v 0.447452 -0.716592 0.215573
v 0.449058 -0.716008 0.215573
v 0.450366 -0.714909 0.215573
v 0.45122 -0.71343 0.215573
v 0.451517 -0.711746 0.337073
v 0.45122 -0.710063 0.337073
v 0.450366 -0.708583 0.337073
v 0.449058 -0.707484 0.337073
v 0.447452 -0.7069 0.337073
f 67 50 68 
f 66 67 68 
f 65 66 68 
f 64 65 68 
f 63 64 68 
f 62 63 68 
f 61 62 68 
f 60 61 68 
f 59 60 68 
f 58 59 68 
f 57 58 68 
f 56 57 68 
f 55 56 68 
f 54 55 68 
f 53 54 68 
f 52 53 68 
f 51 52 68 
f 50 51 68 
f 32 50 49 
f 50 67 49 
f 49 67 48 
f 67 66 48 
f 48 66 47 
f 66 65 47 
f 47 65 46 
f 65 64 46 
f 46 64 45 
f 64 63 45 
f 45 63 44 
f 63 62 44 
f 44 62 43 
f 62 61 43 
f 43 61 42 
f 61 60 42 
f 42 60 41 
f 60 59 41 
f 41 59 40 
f 59 58 40 
f 40 58 39 
f 58 57 39 
f 39 57 38 
f 57 56 38 
f 38 56 37 
f 56 55 37 
f 37 55 36 
f 55 54 36 
f 36 54 35 
f 54 53 35 
f 35 53 34 
f 53 52 34 
f 34 52 33 
f 52 51 33 
f 33 51 32 
f 51 50 32 
f 14 32 31 
f 32 49 31 
f 31 49 30 
f 49 48 30 
f 30 48 29 
f 48 47 29 
f 29 47 28 
f 47 46 28 
f 28 46 27 
f 46 45 27 
f 27 45 26 
f 45 44 26 
f 26 44 25 
f 44 43 25 
f 25 43 24 
f 43 42 24 
f 24 42 23 
f 42 41 23 
f 23 41 22 
f 41 40 22 
f 22 40 21 
f 40 39 21 
f 21 39 20 
f 39 38 20 
f 20 38 19 
f 38 37 19 
f 19 37 18 
f 37 36 18 
f 18 36 17 
f 36 35 17 
f 17 35 16 
f 35 34 16 
f 16 34 15 
f 34 33 15 
f 15 33 14 
f 33 32 14 
f 106 14 13 
f 14 31 13 
f 13 31 12 
f 31 30 12 
f 12 30 11 
f 30 29 11 
f 11 29 10 
f 29 28 10 
f 10 28 9 
f 28 27 9 
f 9 27 8 
f 27 26 8 
f 8 26 7 
f 26 25 7 
f 7 25 6 
f 25 24 6 
f 6 24 5 
f 24 23 5 
f 5 23 4 
f 23 22 4 
f 4 22 3 
f 22 21 3 
f 3 21 2 
f 21 20 2 
f 2 20 1 
f 20 19 1 
f 1 19 110 
f 19 18 110 
f 110 18 109 
f 18 17 109 
f 109 17 108 
f 17 16 108 
f 108 16 107 
f 16 15 107 
f 107 15 106 
f 15 14 106 
f 88 106 105 
f 106 13 105 
f 105 13 104 
f 13 12 104 
f 104 12 103 
f 12 11 103 
f 103 11 102 
f 11 10 102 
f 102 10 101 
f 10 9 101 
f 101 9 100 
f 9 8 100 
f 100 8 99 
f 8 7 99 
f 99 7 98 
f 7 6 98 
f 98 6 97 
f 6 5 97 
f 97 5 96 
f 5 4 96 
f 96 4 95 
f 4 3 95 
f 95 3 94 
f 3 2 94 
f 94 2 93 
f 2 1 93 
f 93 1 92 
f 1 110 92 
f 92 110 91 
f 110 109 91 
f 91 109 90 
f 109 108 90 
f 90 108 89 
f 108 107 89 
f 89 107 88 
f 107 106 88 
f 70 88 87 
f 88 105 87 
f 87 105 86 
f 105 104 86 
f 86 104 85 
f 104 103 85 
f 85 103 84 
f 103 102 84 
f 84 102 83 
f 102 101 83 
f 83 101 82 
f 101 100 82 
f 82 100 81 
f 100 99 81 
f 81 99 80 
f 99 98 80 
f 80 98 79 
f 98 97 79 
f 79 97 78 
f 97 96 78 
f 78 96 77 
f 96 95 77 
f 77 95 76 
f 95 94 76 
f 76 94 75 
f 94 93 75 
f 75 93 74 
f 93 92 74 
f 74 92 73 
f 92 91 73 
f 73 91 72 
f 91 90 72 
f 72 90 71 
f 90 89 71 
f 71 89 70 
f 89 88 70 
f 70 87 69 
f 87 86 69 
f 86 85 69 
f 85 84 69 
f 84 83 69 
f 83 82 69 
f 82 81 69 
f 81 80 69 
f 80 79 69 
f 79 78 69 
f 78 77 69 
f 77 76 69 
f 76 75 69 
f 75 74 69 
f 74 73 69 
f 73 72 69 
f 72 71 69 
f 71 70 69 
