# NV = 8 NF = 12
v 255 47.5044 173.649
v 255 42.8996 174.488
v 255 49.5427 184.832
v 255 44.938 185.671
v -255 47.5044 173.648
v -255 42.8997 174.488
v -255 49.5428 184.831
v -255 44.938 185.671
f 1 3 4 
f 4 2 1 
f 5 6 8 
f 8 7 5 
f 1 2 6 
f 6 5 1 
f 2 4 8 
f 8 6 2 
f 4 3 7 
f 7 8 4 
f 3 1 5 
f 5 7 3 
