# NV = 8 NF = 12
v 255 52.5253 200.99
v 255 47.9206 201.829
v 255 54.5637 212.173
v 255 49.959 213.012
v -255 52.5254 200.99
v -255 47.9206 201.829
v -255 54.5638 212.173
v -255 49.959 213.012
f 1 3 4 
f 4 2 1 
f 5 6 8 
f 8 7 5 
f 1 2 6 
f 6 5 1 
f 2 4 8 
f 8 6 2 
f 4 3 7 
f 7 8 4 
f 3 1 5 
f 5 7 3 
