# NV = 8 NF = 12
v 85.8099 49.7197 110
v 77.3661 49.7197 110
v 77.3661 33.6138 110
v 85.8099 33.6138 110
v 79.216 64.2484 -0.0001
v 83.9601 64.2484 -0.0001
v 83.9601 72.0047 -0.0001
v 79.216 72.0047 -0.0001
f 4 1 2 
f 2 3 4 
f 5 8 7 
f 7 6 5 
f 2 1 7 
f 7 8 2 
f 6 7 1 
f 1 4 6 
f 5 6 4 
f 4 3 5 
f 5 3 2 
f 2 8 5 
