# NV = 8 NF = 12
v 85.8098 -62.6091 110
v 77.3661 -62.6091 110
v 85.8098 -45.8199 110
v 77.3661 -45.8199 110
v 83.9601 -63.5583 -0.0001
v 79.216 -63.5583 -0.0001
v 79.216 -71.7334 -0.0001
v 83.9601 -71.7334 -0.0001
f 4 2 1 
f 1 3 4 
f 5 3 1 
f 1 8 5 
f 3 5 6 
f 6 4 3 
f 6 7 2 
f 2 4 6 
f 8 1 2 
f 2 7 8 
f 5 8 7 
f 7 6 5 
