# NV = 8 NF = 12
v -71.7284 -62.6339 110
v -86.7284 -62.6338 110
v -71.7284 -51.0954 110
v -86.7284 -51.0954 110
v -75.0146 -63.2862 0
v -83.4422 -63.2862 0
v -83.4422 -68.9046 0
v -75.0146 -68.9046 0
f 4 2 1 
f 1 3 4 
f 5 3 1 
f 1 8 5 
f 3 5 6 
f 6 4 3 
f 6 7 2 
f 2 4 6 
f 8 1 2 
f 2 7 8 
f 5 8 7 
f 7 6 5 
