# NV = 10 NF = 16
v -71.7283 -61.0954 130
v -86.7283 -61.0954 130
v -86.7283 48.9046 120
v -71.7283 48.9046 120
v -71.7283 -62.6338 110
v -86.7283 50.5713 110
v -71.7283 50.5713 110
v -86.7283 -62.6338 110
v -86.7283 50.5713 130
v -71.7283 50.5713 130
f 6 5 8 
f 4 5 7 
f 3 8 2 
f 3 7 6 
f 1 8 5 
f 9 1 10 
f 3 10 4 
f 5 6 7 
f 1 4 10 
f 5 4 1 
f 3 2 9 
f 8 3 6 
f 7 3 4 
f 8 1 2 
f 1 9 2 
f 10 3 9 
