# NV = 6 NF = 8
v -0.290459 0.214148 0.836721
v 0.288205 0.172076 0.82077
v -0.290487 0.174054 0.820976
v 0.288208 0.173645 0.854193
v -0.290483 0.175621 0.8544
v 0.288232 0.212173 0.836514
f 1 2 3 
f 3 4 5 
f 5 6 1 
f 5 1 3 
f 4 2 6 
f 6 2 1 
f 2 4 3 
f 4 6 5 
