# NV = 21 NF = 38
v -0.279385 0.0670903 0.627891
v -0.298114 0.0671831 0.627898
v -0.288749 0.0703614 0.588047
v -0.279293 0.164804 0.648539
v -0.298022 0.164912 0.648544
v -0.288651 0.172792 0.609388
v -0.289083 -0.274332 0.545577
v -0.279793 -0.349854 0.559474
v -0.279746 -0.299372 0.51467
v -0.298521 -0.349744 0.559481
v -0.298475 -0.299265 0.514677
v -0.28912 -0.312524 0.572259
v -0.279762 -0.328959 0.627359
v -0.298491 -0.32885 0.627366
v -0.289108 -0.305995 0.594892
v -0.279679 -0.237788 0.64966
v -0.298408 -0.237678 0.649667
v -0.28904 -0.238283 0.609688
v -0.279536 -0.0899441 0.626841
v -0.298264 -0.0898342 0.626849
v -0.288906 -0.0926758 0.586959
f 7 8 9 
f 9 10 11 
f 11 12 7 
f 12 13 8 
f 8 14 10 
f 10 15 12 
f 15 16 13 
f 13 17 14 
f 14 18 15 
f 18 19 16 
f 16 20 17 
f 17 21 18 
f 21 1 19 
f 19 2 20 
f 20 3 21 
f 3 4 1 
f 1 5 2 
f 2 6 3 
f 11 7 9 
f 5 4 6 
f 12 8 7 
f 8 10 9 
f 10 12 11 
f 15 13 12 
f 13 14 8 
f 14 15 10 
f 18 16 15 
f 16 17 13 
f 17 18 14 
f 21 19 18 
f 19 20 16 
f 20 21 17 
f 3 1 21 
f 1 2 19 
f 2 3 20 
f 6 4 3 
f 4 5 1 
f 5 6 2 
