# NV = 6 NF = 8
v -0.290885 -0.207187 0.627525
v 0.287782 -0.245436 0.599613
v -0.290909 -0.243437 0.599684
v 0.287777 -0.250979 0.645434
v -0.290908 -0.248995 0.645508
v 0.287806 -0.209171 0.627452
f 1 2 3 
f 3 4 5 
f 5 6 1 
f 5 1 3 
f 4 2 6 
f 6 2 1 
f 2 4 3 
f 4 6 5 
