# NV = 8 NF = 12
v 0.272393 -0.309189 0.561018
v 0.272393 0.15023 -0.00442077
v 0.272393 0.164366 -0.00442077
v 0.272393 -0.323325 0.561018
v 0.26454 0.164366 -0.00442077
v 0.26454 -0.309189 0.561018
v 0.26454 0.15023 -0.00442077
v 0.26454 -0.323325 0.561018
f 1 5 6 
f 2 3 1 
f 7 8 5 
f 8 4 1 
f 6 8 1 
f 5 3 2 
f 7 5 2 
f 4 2 1 
f 7 4 8 
f 5 8 6 
f 1 3 5 
f 7 2 4 
