# NV = 52 NF = 100
v -0.260587 0.250227 0.865248
v -0.312157 0.238396 0.869647
v -0.312876 0.245727 0.866922
v -0.259934 0.242892 0.867975
v -0.208162 0.253916 0.863875
v -0.20764 0.246571 0.866607
v -0.155679 0.256787 0.862808
v -0.155286 0.249436 0.865543
v -0.103151 0.258837 0.862045
v -0.102889 0.251481 0.864782
v -0.0505945 0.260068 0.861587
v -0.0504634 0.252708 0.864324
v 0.0019757 0.260478 0.861435
v 0.0019757 0.253117 0.864172
v 0.0544161 0.252708 0.864324
v 0.0545472 0.260068 0.861587
v 0.106843 0.251481 0.864782
v 0.107104 0.258837 0.862045
v 0.159239 0.249436 0.865543
v 0.159631 0.256787 0.862808
v 0.211591 0.246571 0.866607
v 0.212114 0.253916 0.863875
v 0.263887 0.242892 0.867975
v 0.26454 0.250227 0.865248
v 0.316108 0.238396 0.869647
v 0.316827 0.245727 0.866922
v -0.312876 0.267626 0.925808
v -0.312157 0.260295 0.928534
v -0.260587 0.272127 0.924133
v -0.208162 0.275817 0.922762
v -0.155679 0.278686 0.921694
v -0.103151 0.280738 0.920931
v -0.0505945 0.281968 0.920474
v 0.0019757 0.282379 0.920322
v 0.0545472 0.281968 0.920474
v 0.107104 0.280738 0.920931
v 0.159631 0.278687 0.921694
v 0.212114 0.275817 0.922762
v 0.26454 0.272127 0.924133
v 0.316827 0.267626 0.925808
v -0.259934 0.264791 0.926861
v -0.20764 0.268472 0.925494
v -0.155286 0.271335 0.924429
v -0.102889 0.27338 0.923668
v -0.0504634 0.274608 0.923211
v 0.0019757 0.275018 0.923059
v 0.0544161 0.274608 0.923211
v 0.106843 0.27338 0.923668
v 0.159239 0.271335 0.924429
v 0.211591 0.268472 0.925494
v 0.263887 0.264791 0.926861
v 0.316108 0.260295 0.928534
f 25 24 26 
f 23 24 25 
f 23 22 24 
f 21 22 23 
f 21 20 22 
f 19 20 21 
f 19 18 20 
f 17 18 19 
f 17 16 18 
f 15 16 17 
f 15 13 16 
f 14 13 15 
f 12 13 14 
f 12 11 13 
f 10 11 12 
f 10 9 11 
f 8 9 10 
f 8 7 9 
f 6 7 8 
f 6 5 7 
f 4 5 6 
f 4 1 5 
f 2 1 4 
f 3 1 2 
f 27 2 28 
f 2 27 3 
f 27 1 3 
f 1 27 29 
f 29 5 1 
f 5 29 30 
f 30 7 5 
f 7 30 31 
f 31 9 7 
f 9 31 32 
f 32 11 9 
f 11 32 33 
f 33 13 11 
f 13 33 34 
f 34 16 13 
f 16 34 35 
f 35 18 16 
f 18 35 36 
f 37 22 20 
f 22 37 38 
f 38 24 22 
f 24 38 39 
f 39 26 24 
f 26 39 40 
f 39 52 40 
f 39 51 52 
f 38 51 39 
f 38 50 51 
f 37 50 38 
f 37 49 50 
f 36 49 37 
f 36 48 49 
f 35 48 36 
f 35 47 48 
f 34 47 35 
f 34 46 47 
f 34 45 46 
f 33 45 34 
f 33 44 45 
f 32 44 33 
f 32 43 44 
f 31 43 32 
f 31 42 43 
f 30 42 31 
f 30 41 42 
f 29 41 30 
f 29 28 41 
f 27 28 29 
f 46 12 14 
f 12 46 45 
f 45 10 12 
f 10 45 44 
f 44 8 10 
f 8 44 43 
f 43 6 8 
f 6 43 42 
f 42 4 6 
f 4 42 41 
f 41 2 4 
f 2 41 28 
f 26 52 25 
f 52 26 40 
f 52 23 25 
f 23 52 51 
f 51 21 23 
f 21 51 50 
f 50 19 21 
f 19 50 49 
f 49 17 19 
f 17 49 48 
f 48 15 17 
f 15 48 47 
f 47 14 15 
f 14 47 46 
f 36 20 18 
f 20 36 37 
