# Exported graph model [MetalChair01] by TopoBlender

# Starting mesh BarLeft
v 0.297681 0.376889 1.09447
v 0.278952 0.376998 1.09447
v 0.288285 0.341299 1.10684
v 0.297614 0.310998 1.05449
v 0.278885 0.311107 1.05449
v 0.288231 0.286767 1.07756
v 0.278706 0.170618 0.544776
v 0.288106 0.209789 0.546893
v 0.297436 0.17051 0.54477
v 0.297434 0.156911 0.698652
v 0.278705 0.157019 0.698657
v 0.288105 0.19629 0.699307
v 0.297455 0.162079 0.845221
v 0.278726 0.162189 0.845227
v 0.288126 0.201415 0.843607
v 0.297483 0.177739 0.975158
v 0.278753 0.177848 0.975164
v 0.288153 0.216631 0.970534
v 0.297528 0.217344 1.10133
v 0.278799 0.217454 1.10134
v 0.288201 0.254917 1.09257
v 0.29758 0.262686 1.16876
v 0.27885 0.262796 1.16876
v 0.288231 0.282532 1.14341
v 0.297679 0.36987 1.16304
v 0.278951 0.369964 1.16305
v 0.288293 0.344184 1.14084
g BarLeft
f 7 8 9 
f 8 10 9 
f 9 11 7 
f 7 12 8 
f 12 13 10 
f 10 14 11 
f 11 15 12 
f 15 16 13 
f 13 17 14 
f 14 18 15 
f 18 19 16 
f 16 20 17 
f 17 21 18 
f 21 22 19 
f 19 23 20 
f 20 24 21 
f 24 25 22 
f 22 26 23 
f 23 27 24 
f 27 1 25 
f 25 2 26 
f 26 3 27 
f 3 4 1 
f 1 5 2 
f 2 6 3 
f 5 4 6 
f 12 10 8 
f 10 11 9 
f 11 12 7 
f 15 13 12 
f 13 14 10 
f 14 15 11 
f 18 16 15 
f 16 17 13 
f 17 18 14 
f 21 19 18 
f 19 20 16 
f 20 21 17 
f 24 22 21 
f 22 23 19 
f 23 24 20 
f 27 25 24 
f 25 26 22 
f 26 27 23 
f 3 1 27 
f 1 2 25 
f 2 3 26 
f 6 4 3 
f 4 5 1 
f 5 6 2 
# End of mesh BarLeft

# Starting mesh BarRight
v -0.297872 0.266032 1.16894
v -0.288489 0.285783 1.14358
v -0.279043 0.373107 1.16322
v -0.297772 0.373215 1.16323
v -0.288435 0.347435 1.141
v -0.279041 0.38014 1.09464
v -0.297771 0.380234 1.09464
v -0.288438 0.34455 1.10701
v -0.279108 0.314235 1.05465
v -0.297836 0.314344 1.05466
v -0.288498 0.29002 1.07773
v -0.298014 0.173853 0.544943
v -0.288614 0.21304 0.547059
v -0.279286 0.173761 0.544936
v -0.27929 0.160162 0.698819
v -0.298018 0.160255 0.698822
v -0.288617 0.199526 0.699473
v -0.279268 0.165332 0.845387
v -0.297997 0.16544 0.845393
v -0.288595 0.204651 0.843774
v -0.279241 0.18099 0.975323
v -0.297969 0.181084 0.97533
v -0.288569 0.219868 0.970701
v -0.279194 0.22058 1.1015
v -0.297922 0.22069 1.1015
v -0.288521 0.258168 1.09274
v -0.279143 0.265937 1.16894
g BarRight
f 39 40 41 
f 40 42 41 
f 41 43 39 
f 39 44 40 
f 44 45 42 
f 42 46 43 
f 43 47 44 
f 47 48 45 
f 45 49 46 
f 46 50 47 
f 50 51 48 
f 48 52 49 
f 49 53 50 
f 53 54 51 
f 51 28 52 
f 52 29 53 
f 29 30 54 
f 54 31 28 
f 28 32 29 
f 32 33 30 
f 30 34 31 
f 31 35 32 
f 35 36 33 
f 33 37 34 
f 34 38 35 
f 37 36 38 
f 44 42 40 
f 42 43 41 
f 43 44 39 
f 47 45 44 
f 45 46 42 
f 46 47 43 
f 50 48 47 
f 48 49 45 
f 49 50 46 
f 53 51 50 
f 51 52 48 
f 52 53 49 
f 29 54 53 
f 54 28 51 
f 28 29 52 
f 32 30 29 
f 30 31 54 
f 31 32 28 
f 35 33 32 
f 33 34 30 
f 34 35 31 
f 38 36 35 
f 36 37 33 
f 37 38 34 
# End of mesh BarRight

# Starting mesh LegBackLeft
v 0.288106 0.209789 0.550629
v 0.278706 0.170618 0.547705
v 0.288183 0.330435 -0.0142252
v 0.297486 0.257119 0.0693174
v 0.297513 0.293659 -0.0287765
v 0.278758 0.257229 0.0693223
v 0.278784 0.293767 -0.0287668
v 0.288158 0.294103 0.0832898
v 0.297452 0.214688 0.193455
v 0.278724 0.214797 0.193463
v 0.288126 0.252986 0.202981
v 0.297434 0.182726 0.387636
v 0.278705 0.182835 0.387645
v 0.288111 0.221794 0.392845
v 0.297436 0.17051 0.547698
g LegBackLeft
f 69 55 56 
f 57 58 59 
f 59 60 61 
f 61 62 57 
f 62 63 58 
f 58 64 60 
f 60 65 62 
f 65 66 63 
f 63 67 64 
f 64 68 65 
f 68 69 66 
f 66 56 67 
f 67 55 68 
f 61 57 59 
f 62 58 57 
f 58 60 59 
f 60 62 61 
f 65 63 62 
f 63 64 58 
f 64 65 60 
f 68 66 65 
f 66 67 63 
f 67 68 64 
f 55 69 68 
f 69 56 66 
f 56 55 67 
# End of mesh LegBackLeft

# Starting mesh LegFrontLeft
v 0.287517 -0.364017 -0.00976557
v 0.296939 -0.309089 0.0662681
v 0.296867 -0.383227 0.0251339
v 0.278211 -0.308981 0.066273
v 0.278137 -0.383132 0.0251436
v 0.287603 -0.278836 0.0406674
v 0.296981 -0.273536 0.15788
v 0.278251 -0.273429 0.157888
v 0.287656 -0.235072 0.149358
v 0.297003 -0.261156 0.294528
v 0.278275 -0.261047 0.294536
v 0.287676 -0.221866 0.291842
v 0.297017 -0.25451 0.442142
v 0.278288 -0.254401 0.442149
v 0.287694 -0.215418 0.43727
v 0.297064 -0.221288 0.621277
v 0.278335 -0.221193 0.621285
v 0.287733 -0.182598 0.613919
g LegFrontLeft
f 70 71 72 
f 72 73 74 
f 74 75 70 
f 75 76 71 
f 71 77 73 
f 73 78 75 
f 78 79 76 
f 76 80 77 
f 77 81 78 
f 81 82 79 
f 79 83 80 
f 80 84 81 
f 84 85 82 
f 82 86 83 
f 83 87 84 
f 74 70 72 
f 86 85 87 
f 75 71 70 
f 71 73 72 
f 73 75 74 
f 78 76 75 
f 76 77 71 
f 77 78 73 
f 81 79 78 
f 79 80 76 
f 80 81 77 
f 84 82 81 
f 82 83 79 
f 83 84 80 
f 87 85 84 
f 85 86 82 
f 86 87 83 
# End of mesh LegFrontLeft

# Starting mesh LegBackRight
v -0.297999 0.218033 0.193693
v -0.288595 0.256222 0.203211
v -0.27929 0.185978 0.387867
v -0.298018 0.186086 0.387874
v -0.288612 0.225045 0.393073
v -0.279286 0.173761 0.547927
v -0.288614 0.21304 0.550857
v -0.298014 0.173853 0.547934
v -0.288538 0.33367 -0.0139967
v -0.279234 0.26037 0.0695461
v -0.27921 0.296895 -0.028543
v -0.297963 0.260464 0.0695558
v -0.297939 0.297004 -0.0285381
v -0.288564 0.297356 0.0835136
v -0.279271 0.217924 0.193686
g LegBackRight
f 93 94 95 
f 96 97 98 
f 98 99 100 
f 100 101 96 
f 101 102 97 
f 97 88 99 
f 99 89 101 
f 89 90 102 
f 102 91 88 
f 88 92 89 
f 92 93 90 
f 90 95 91 
f 91 94 92 
f 100 96 98 
f 101 97 96 
f 97 99 98 
f 99 101 100 
f 89 102 101 
f 102 88 97 
f 88 89 99 
f 92 90 89 
f 90 91 102 
f 91 92 88 
f 94 93 92 
f 93 95 90 
f 95 94 91 
# End of mesh LegBackRight

# Starting mesh LegFrontRight
v -0.289205 -0.360766 -0.00953701
v -0.279784 -0.305839 0.0664919
v -0.279856 -0.37999 0.0253624
v -0.298512 -0.30573 0.0665016
v -0.298584 -0.379883 0.0253673
v -0.289119 -0.275602 0.040896
v -0.279744 -0.270303 0.158107
v -0.298472 -0.270193 0.158115
v -0.289067 -0.231836 0.149585
v -0.279719 -0.25792 0.294754
v -0.298447 -0.257811 0.294761
v -0.289047 -0.218615 0.292069
v -0.279705 -0.251259 0.442368
v -0.298435 -0.251166 0.442376
v -0.289029 -0.212182 0.437495
v -0.279659 -0.218051 0.621502
v -0.298387 -0.217944 0.62151
v -0.28899 -0.17935 0.614144
g LegFrontRight
f 103 104 105 
f 105 106 107 
f 107 108 103 
f 108 109 104 
f 104 110 106 
f 106 111 108 
f 111 112 109 
f 109 113 110 
f 110 114 111 
f 114 115 112 
f 112 116 113 
f 113 117 114 
f 117 118 115 
f 115 119 116 
f 116 120 117 
f 107 103 105 
f 119 118 120 
f 108 104 103 
f 104 106 105 
f 106 108 107 
f 111 109 108 
f 109 110 104 
f 110 111 106 
f 114 112 111 
f 112 113 109 
f 113 114 110 
f 117 115 114 
f 115 116 112 
f 116 117 113 
f 120 118 117 
f 118 119 115 
f 119 120 116 
# End of mesh LegFrontRight

# Starting mesh UnderBarLeft
v 0.278738 0.221667 0.276641
v 0.28808 0.202596 0.241616
v 0.287642 -0.254504 0.259538
v 0.297108 -0.148094 0.253402
v 0.297027 -0.238192 0.295911
v 0.27838 -0.147986 0.25341
v 0.278298 -0.238084 0.295918
v 0.287738 -0.152937 0.21373
v 0.297199 -0.056653 0.271977
v 0.278471 -0.056545 0.271985
v 0.287846 -0.0428781 0.234522
v 0.297283 0.0299196 0.322608
v 0.278552 0.0300281 0.322616
v 0.287931 0.041936 0.28454
v 0.297377 0.126284 0.329527
v 0.278647 0.126392 0.329535
v 0.288 0.116987 0.290691
v 0.297466 0.221559 0.276634
g UnderBarLeft
f 123 124 125 
f 125 126 127 
f 127 128 123 
f 128 129 124 
f 124 130 126 
f 126 131 128 
f 131 132 129 
f 129 133 130 
f 130 134 131 
f 134 135 132 
f 132 136 133 
f 133 137 134 
f 137 138 135 
f 135 121 136 
f 136 122 137 
f 127 123 125 
f 121 138 122 
f 128 124 123 
f 124 126 125 
f 126 128 127 
f 131 129 128 
f 129 130 124 
f 130 131 126 
f 134 132 131 
f 132 133 129 
f 133 134 130 
f 137 135 134 
f 135 136 132 
f 136 137 133 
f 122 138 137 
f 138 121 135 
f 121 122 136 
# End of mesh UnderBarLeft

# Starting mesh UnderBarRight
v -0.288983 -0.149704 0.213957
v -0.279524 -0.0534174 0.272204
v -0.298253 -0.053309 0.272212
v -0.288883 -0.0396283 0.234747
v -0.27944 0.0331552 0.322835
v -0.298168 0.0332637 0.322843
v -0.288797 0.0451716 0.284768
v -0.279348 0.129534 0.329753
v -0.298076 0.129642 0.32976
v -0.288723 0.120223 0.290918
v -0.279257 0.224808 0.276861
v -0.297985 0.224918 0.276868
v -0.288642 0.205832 0.241842
v -0.289079 -0.251268 0.259764
v -0.279615 -0.144844 0.25363
v -0.279696 -0.234941 0.296138
v -0.298343 -0.144734 0.253637
v -0.298424 -0.234832 0.296146
g UnderBarRight
f 152 153 154 
f 154 155 156 
f 156 139 152 
f 139 140 153 
f 153 141 155 
f 155 142 139 
f 142 143 140 
f 140 144 141 
f 141 145 142 
f 145 146 143 
f 143 147 144 
f 144 148 145 
f 148 149 146 
f 146 150 147 
f 147 151 148 
f 156 152 154 
f 150 149 151 
f 139 153 152 
f 153 155 154 
f 155 139 156 
f 142 140 139 
f 140 141 153 
f 141 142 155 
f 145 143 142 
f 143 144 140 
f 144 145 141 
f 148 146 145 
f 146 147 143 
f 147 148 144 
f 151 149 148 
f 149 150 146 
f 150 151 147 
# End of mesh UnderBarRight

# Starting mesh SeatbarLeft
v 0.297436 0.161567 0.64831
v 0.278705 0.161676 0.648319
v 0.288071 0.169541 0.609162
v 0.287637 -0.277568 0.54535
v 0.29693 -0.353088 0.559246
v 0.296977 -0.302624 0.514444
v 0.278202 -0.352996 0.559254
v 0.278249 -0.302515 0.514451
v 0.287602 -0.315757 0.572032
v 0.296953 -0.332209 0.627132
v 0.278231 -0.332102 0.62714
v 0.287615 -0.309229 0.594665
v 0.297044 -0.241036 0.649435
v 0.278315 -0.240928 0.64944
v 0.28768 -0.241518 0.609461
v 0.297187 -0.0931933 0.626614
v 0.278457 -0.0930854 0.626622
v 0.287818 -0.0959114 0.586733
v 0.297337 0.0638396 0.627663
v 0.278609 0.0639491 0.627671
v 0.287973 0.0671272 0.58782
g SeatbarLeft
f 160 161 162 
f 162 163 164 
f 164 165 160 
f 165 166 161 
f 161 167 163 
f 163 168 165 
f 168 169 166 
f 166 170 167 
f 167 171 168 
f 171 172 169 
f 169 173 170 
f 170 174 171 
f 174 175 172 
f 172 176 173 
f 173 177 174 
f 177 157 175 
f 175 158 176 
f 176 159 177 
f 164 160 162 
f 158 157 159 
f 165 161 160 
f 161 163 162 
f 163 165 164 
f 168 166 165 
f 166 167 161 
f 167 168 163 
f 171 169 168 
f 169 170 166 
f 170 171 167 
f 174 172 171 
f 172 173 169 
f 173 174 170 
f 177 175 174 
f 175 176 172 
f 176 177 173 
f 159 157 177 
f 157 158 175 
f 158 159 176 
# End of mesh SeatbarLeft

# Starting mesh SeatbarRight
v -0.298491 -0.32885 0.627366
v -0.289108 -0.305995 0.594892
v -0.279679 -0.237788 0.64966
v -0.298408 -0.237678 0.649667
v -0.28904 -0.238283 0.609688
v -0.279536 -0.0899441 0.626841
v -0.298264 -0.0898342 0.626849
v -0.288906 -0.0926758 0.586959
v -0.279385 0.0670903 0.627891
v -0.298114 0.0671831 0.627898
v -0.288749 0.0703614 0.588047
v -0.279293 0.164804 0.648539
v -0.298022 0.164912 0.648544
v -0.288651 0.172792 0.609388
v -0.289083 -0.274332 0.545577
v -0.279793 -0.349854 0.559474
v -0.279746 -0.299372 0.51467
v -0.298521 -0.349744 0.559481
v -0.298475 -0.299265 0.514677
v -0.28912 -0.312524 0.572259
v -0.279762 -0.328959 0.627359
g SeatbarRight
f 192 193 194 
f 194 195 196 
f 196 197 192 
f 197 198 193 
f 193 178 195 
f 195 179 197 
f 179 180 198 
f 198 181 178 
f 178 182 179 
f 182 183 180 
f 180 184 181 
f 181 185 182 
f 185 186 183 
f 183 187 184 
f 184 188 185 
f 188 189 186 
f 186 190 187 
f 187 191 188 
f 196 192 194 
f 190 189 191 
f 197 193 192 
f 193 195 194 
f 195 197 196 
f 179 198 197 
f 198 178 193 
f 178 179 195 
f 182 180 179 
f 180 181 198 
f 181 182 178 
f 185 183 182 
f 183 184 180 
f 184 185 181 
f 188 186 185 
f 186 187 183 
f 187 188 184 
f 191 189 188 
f 189 190 186 
f 190 191 187 
# End of mesh SeatbarRight

# Starting mesh SeatBar7
v 0.287691 -0.343015 0.610257
v -0.291 -0.341003 0.610725
v 0.287705 -0.308724 0.580006
v -0.290983 -0.306727 0.580488
v 0.287679 -0.351655 0.564918
v -0.291013 -0.349657 0.565385
g SeatBar7
f 202 203 204 
f 204 199 200 
f 200 201 202 
f 200 202 204 
f 199 203 201 
f 201 203 202 
f 203 199 204 
f 199 201 200 
# End of mesh SeatBar7

# Starting mesh SeatBar6
v -0.29094 -0.26001 0.616872
v 0.287736 -0.298257 0.588959
v -0.290957 -0.296274 0.589032
v 0.28773 -0.303816 0.634782
v -0.290961 -0.301817 0.634854
v 0.287752 -0.262009 0.6168
g SeatBar6
f 205 206 207 
f 207 208 209 
f 209 210 205 
f 209 205 207 
f 208 206 210 
f 210 206 205 
f 206 208 207 
f 208 210 209 
# End of mesh SeatBar6

# Starting mesh SeatBar5
v -0.290885 -0.207187 0.627525
v 0.287782 -0.245436 0.599613
v -0.290909 -0.243437 0.599684
v 0.287777 -0.250979 0.645434
v -0.290908 -0.248995 0.645508
v 0.287806 -0.209171 0.627452
g SeatBar5
f 211 212 213 
f 213 214 215 
f 215 216 211 
f 215 211 213 
f 214 212 216 
f 216 212 211 
f 212 214 213 
f 214 216 215 
# End of mesh SeatBar5

# Starting mesh SeatBar4
v -0.290826 -0.156335 0.58961
v 0.287863 -0.163877 0.63536
v -0.290829 -0.161879 0.635431
v 0.287892 -0.12207 0.617378
v -0.290801 -0.120071 0.617449
v 0.287868 -0.158319 0.589538
g SeatBar4
f 221 222 217 
f 217 218 219 
f 219 220 221 
f 219 221 217 
f 218 222 220 
f 220 222 221 
f 222 218 217 
f 218 220 219 
# End of mesh SeatBar4

# Starting mesh SeatBar3
v -0.290722 -0.0327292 0.614482
v 0.287947 -0.0709761 0.58657
v -0.290739 -0.0689937 0.586643
v 0.28795 -0.0765207 0.632392
v -0.290743 -0.0745366 0.632465
v 0.287971 -0.0347129 0.614409
g SeatBar3
f 223 224 225 
f 225 226 227 
f 227 228 223 
f 227 223 225 
f 226 224 228 
f 228 224 223 
f 224 226 225 
f 226 228 227 
# End of mesh SeatBar3

# Starting mesh SeatBar2
v -0.290636 0.0546294 0.611514
v 0.288032 0.0163805 0.583603
v -0.29066 0.0183648 0.583676
v 0.288029 0.0108212 0.629425
v -0.290659 0.012805 0.629497
v 0.288056 0.05263 0.611444
g SeatBar2
f 229 230 231 
f 231 232 233 
f 233 234 229 
f 233 229 231 
f 232 230 234 
f 234 230 229 
f 230 232 231 
f 232 234 233 
# End of mesh SeatBar2

# Starting mesh SeatBar1
v -0.290553 0.142996 0.623475
v 0.288119 0.106211 0.593746
v -0.290573 0.108207 0.593741
v 0.288114 0.0983071 0.639206
v -0.290578 0.100304 0.639202
v 0.288139 0.141 0.623479
g SeatBar1
f 235 236 237 
f 237 238 239 
f 239 240 235 
f 239 235 237 
f 238 236 240 
f 240 236 235 
f 236 238 237 
f 238 240 239 
# End of mesh SeatBar1

# Starting mesh BackBar1
v -0.290489 0.199378 0.708279
v 0.28818 0.157307 0.692341
v -0.290512 0.159283 0.692535
v 0.288184 0.158876 0.725764
v -0.290507 0.160851 0.725958
v 0.288202 0.197402 0.708084
g BackBar1
f 241 242 243 
f 243 244 245 
f 245 246 241 
f 245 241 243 
f 244 242 246 
f 246 242 241 
f 242 244 243 
f 244 246 245 
# End of mesh BackBar1

# Starting mesh BackBar2
v -0.290459 0.214148 0.836721
v 0.288205 0.172076 0.82077
v -0.290487 0.174054 0.820976
v 0.288208 0.173645 0.854193
v -0.290483 0.175621 0.8544
v 0.288232 0.212173 0.836514
g BackBar2
f 247 248 249 
f 249 250 251 
f 251 252 247 
f 251 247 249 
f 250 248 252 
f 252 248 247 
f 248 250 249 
f 250 252 251 
# End of mesh BackBar2

# Starting mesh BackBar3
v 0.288251 0.218207 0.96517
v -0.29044 0.220183 0.965367
v 0.288222 0.178111 0.949426
v -0.290471 0.180087 0.949622
v 0.288227 0.17968 0.982849
v -0.290467 0.181655 0.983046
g BackBar3
f 254 255 256 
f 256 257 258 
f 258 253 254 
f 258 254 256 
f 257 255 253 
f 253 255 254 
f 255 257 256 
f 257 253 258 
# End of mesh BackBar3

# Starting mesh BackBar4
v -0.290384 0.269895 1.09295
v 0.288287 0.227824 1.077
v -0.290406 0.2298 1.0772
v 0.28829 0.229393 1.11042
v -0.290403 0.231369 1.11063
v 0.288309 0.267905 1.09275
g BackBar4
f 259 260 261 
f 261 262 263 
f 263 264 259 
f 263 259 261 
f 262 260 264 
f 264 260 259 
f 260 262 261 
f 262 264 263 
# End of mesh BackBar4

# Starting mesh BackBar5
v -0.290322 0.325311 1.15598
v 0.288341 0.283241 1.14004
v -0.290352 0.285232 1.14023
v 0.288346 0.284808 1.17346
v -0.290347 0.286799 1.17366
v 0.28837 0.323336 1.15579
g BackBar5
f 265 266 267 
f 267 268 269 
f 269 270 265 
f 269 265 267 
f 268 266 270 
f 270 266 265 
f 266 268 267 
f 268 270 269 
# End of mesh BackBar5

