# NV = 16 NF = 28
v 6.5249 0 21.7145
v 6.5249 -10 21.7145
v 12.8781 0 32.7186
v 12.8781 -10 32.7186
v 5.9349 0 22.5739
v 11.8389 -10 32.7999
v 11.8389 0 32.7999
v 5.9349 -10 22.5739
v 5.8849 -10 22.545
v 6.4046 -10 21.645
v 5.8849 0 22.545
v 6.4046 0 21.645
v 11.8389 -10 32.8575
v 12.8781 -10 32.8575
v 11.8389 0 32.8575
v 12.8781 0 32.8575
f 6 13 15 
f 15 7 6 
f 2 10 12 
f 12 1 2 
f 8 5 11 
f 11 9 8 
f 9 11 12 
f 12 10 9 
f 5 8 6 
f 6 7 5 
f 14 16 15 
f 15 13 14 
f 16 14 4 
f 4 3 16 
f 2 1 3 
f 3 4 2 
f 8 9 10 
f 8 10 2 
f 14 13 6 
f 4 14 6 
f 2 4 6 
f 8 2 6 
f 12 11 5 
f 7 15 16 
f 7 16 3 
f 7 3 1 
f 5 7 1 
f 12 5 1 
