# NV = 16 NF = 28
v 12.1512 0 10.7788
v 12.1512 -10 10.7788
v 24.8576 0 10.7788
v 24.8576 -10 10.7788
v 12.6004 -10 11.7194
v 12.6004 0 11.7194
v 24.4084 0 11.7194
v 24.4084 -10 11.7194
v 12.5504 -10 11.7482
v 12.0308 -10 10.8482
v 12.5504 0 11.7483
v 12.0308 0 10.8483
v 24.4583 -10 11.7482
v 24.9779 -10 10.8482
v 24.4583 0 11.7482
v 24.9779 0 10.8482
f 7 8 13 
f 13 15 7 
f 7 6 5 
f 5 8 7 
f 9 5 6 
f 6 11 9 
f 10 12 1 
f 1 2 10 
f 10 9 11 
f 11 12 10 
f 13 14 16 
f 16 15 13 
f 3 16 14 
f 14 4 3 
f 2 1 3 
f 3 4 2 
f 5 9 10 
f 5 10 2 
f 14 13 8 
f 4 14 8 
f 2 4 8 
f 5 2 8 
f 12 11 6 
f 7 15 16 
f 7 16 3 
f 7 3 1 
f 6 7 1 
f 12 6 1 
