# NV = 54 NF = 104
v -0.571302 -0.372147 -0.0161403
v -0.571302 -0.275542 -0.0161403
v -0.634273 -0.275542 -0.0161403
v -0.634273 -0.312036 0.774251
v -0.634273 -0.372147 -0.0161403
v -0.600167 -0.372147 0.775516
v -0.651099 -0.305513 0.794473
v -0.577531 -0.355117 0.808158
v -0.602214 -0.324462 0.813386
v -0.572 -0.336171 0.80816
v -0.602214 -0.362355 0.808158
v -0.632426 -0.31275 0.808158
v -0.626893 -0.293805 0.80816
v -0.602214 -0.286565 0.808158
v -0.577533 -0.293801 0.808158
v -0.642147 -0.274854 0.794475
v -0.602214 -0.263144 0.794475
v -0.602214 -0.263144 0.777557
v -0.562279 -0.274855 0.794473
v -0.553325 -0.343407 0.794475
v -0.553325 -0.343407 0.777557
v -0.553325 -0.305514 0.777557
v -0.562279 -0.374065 0.777557
v -0.562279 -0.374065 0.794475
v -0.602212 -0.385776 0.794475
v -0.602212 -0.385776 0.777557
v -0.642147 -0.374066 0.794473
v -0.626893 -0.355121 0.808158
v -0.632426 -0.336171 0.80816
v -0.651099 -0.343409 0.794473
v -0.553325 -0.305514 0.794475
v -0.572 -0.31275 0.80816
v -0.571302 -0.362858 0.775388
v -0.571302 -0.336441 0.774026
v -0.571302 -0.312481 0.774026
v -0.571302 -0.286064 0.775388
v -0.571302 -0.275542 0.777035
v -0.602214 -0.275542 0.775616
v -0.562279 -0.274855 0.777557
v -0.634273 -0.275542 0.777087
v -0.642147 -0.274854 0.777557
v -0.634273 -0.277163 0.776834
v -0.634273 -0.284635 0.775663
v -0.634273 -0.297373 0.775008
v -0.651099 -0.305513 0.777557
v -0.634273 -0.336887 0.774251
v -0.651099 -0.343407 0.777557
v -0.634273 -0.343373 0.774586
v -0.634273 -0.372147 0.776895
v -0.602214 -0.372147 0.775422
v -0.642147 -0.374066 0.777557
v -0.634273 -0.364286 0.775663
v -0.571302 -0.372147 0.776842
v -0.571302 -0.367106 0.776052
f 16 17 18 
f 18 17 19 
f 20 21 22 
f 23 24 25 
f 26 25 27 
f 28 29 30 
f 20 31 32 
f 33 34 21 
f 21 34 35 
f 22 35 36 
f 37 38 18 
f 39 36 37 
f 40 41 18 
f 40 42 41 
f 43 44 45 
f 46 47 45 
f 47 46 48 
f 49 50 26 
f 51 52 49 
f 53 23 26 
f 53 54 23 
f 35 34 1 
f 2 36 35 
f 34 33 1 
f 33 54 1 
f 54 53 1 
f 2 37 36 
f 38 2 3 
f 38 37 2 
f 3 46 4 
f 3 48 46 
f 3 5 48 
f 44 43 3 
f 5 52 48 
f 43 42 3 
f 42 40 3 
f 5 49 52 
f 50 5 1 
f 50 49 5 
f 1 53 6 
f 5 3 2 
f 51 27 47 
f 47 30 45 
f 45 7 41 
f 18 41 16 
f 19 39 18 
f 39 19 22 
f 22 31 20 
f 25 26 23 
f 24 8 25 
f 32 9 10 
f 25 8 11 
f 27 51 26 
f 25 11 27 
f 27 11 28 
f 47 27 30 
f 30 27 28 
f 45 30 7 
f 30 29 7 
f 7 29 12 
f 41 7 16 
f 7 12 16 
f 16 12 13 
f 17 13 14 
f 16 13 17 
f 17 14 19 
f 19 14 15 
f 32 10 20 
f 22 19 31 
f 19 15 31 
f 31 15 32 
f 15 9 32 
f 14 9 15 
f 13 9 14 
f 12 9 13 
f 29 9 12 
f 28 9 29 
f 11 9 28 
f 8 9 11 
f 10 9 8 
f 24 10 8 
f 20 10 24 
f 23 20 24 
f 21 20 23 
f 33 23 54 
f 21 23 33 
f 35 22 21 
f 36 39 22 
f 18 39 37 
f 18 38 40 
f 41 42 43 
f 45 41 43 
f 4 45 44 
f 45 4 46 
f 48 51 47 
f 52 51 48 
f 26 51 49 
f 6 26 50 
f 26 6 53 
f 1 2 35 
f 3 40 38 
f 4 44 3 
f 1 6 50 
f 2 1 5 
