# NV = 12 NF = 20
v -0.589418 0.175213 0.615468
v -0.58942 0.156339 0.615467
v -0.604173 0.184651 0.209815
v -0.604173 0.184651 0.615468
v -0.618926 0.175213 0.209813
v -0.618926 0.175213 0.615467
v -0.618926 0.156339 0.209813
v -0.618926 0.156339 0.615467
v -0.604173 0.146902 0.209813
v -0.604173 0.146902 0.615467
v -0.58942 0.156339 0.209813
v -0.589418 0.175213 0.209815
f 11 12 1 
f 11 1 2 
f 12 3 4 
f 12 4 1 
f 3 5 6 
f 3 6 4 
f 5 7 8 
f 5 8 6 
f 7 9 10 
f 7 10 8 
f 9 11 2 
f 9 2 10 
f 12 5 3 
f 11 5 12 
f 11 7 5 
f 9 7 11 
f 1 4 6 
f 2 1 6 
f 2 6 8 
f 10 2 8 
