# NV = 12 NF = 20
v -0.393926 -0.327597 0.209815
v -0.393926 -0.327597 0.615468
v -0.403365 -0.312844 0.209813
v -0.403365 -0.312844 0.615467
v -0.422238 -0.312844 0.209813
v -0.422238 -0.312844 0.615467
v -0.431675 -0.327597 0.209813
v -0.431675 -0.327597 0.615467
v -0.422238 -0.34235 0.209813
v -0.403365 -0.342351 0.209815
v -0.403365 -0.342351 0.615468
v -0.422238 -0.34235 0.615467
f 9 10 11 
f 9 11 12 
f 10 1 2 
f 10 2 11 
f 1 3 4 
f 1 4 2 
f 3 5 6 
f 3 6 4 
f 5 7 8 
f 5 8 6 
f 7 9 12 
f 7 12 8 
f 10 3 1 
f 9 3 10 
f 9 5 3 
f 7 5 9 
f 11 2 4 
f 12 11 4 
f 12 4 6 
f 8 12 6 
