# NV = 12 NF = 20
v -0.196033 0.340758 0.615467
v -0.214907 0.340758 0.209813
v -0.214907 0.340758 0.615467
v -0.224343 0.326007 0.209813
v -0.224343 0.326007 0.615467
v -0.214907 0.311254 0.209813
v -0.196033 0.311251 0.209815
v -0.196033 0.311251 0.615468
v -0.214907 0.311254 0.615467
v -0.186595 0.326007 0.209815
v -0.186595 0.326007 0.615468
v -0.196033 0.340758 0.209813
f 6 7 8 
f 6 8 9 
f 7 10 11 
f 7 11 8 
f 10 12 1 
f 10 1 11 
f 12 2 3 
f 12 3 1 
f 2 4 5 
f 2 5 3 
f 4 6 9 
f 4 9 5 
f 7 12 10 
f 6 12 7 
f 6 2 12 
f 4 2 6 
f 8 11 1 
f 9 8 1 
f 9 1 3 
f 5 9 3 
