# NV = 12 NF = 20
v 0.573532 0.356198 0.666447
v -0.571165 0.356198 0.666447
v 0.57353 0.3562 0.613499
v -0.571167 0.3562 0.613499
v 0.573534 0.29525 0.613497
v 0.573534 0.295246 0.666449
v -0.571164 0.295246 0.666449
v -0.571164 0.29525 0.613497
v 0.573534 0.311143 0.680545
v -0.571164 0.311143 0.680545
v 0.573532 0.340299 0.680545
v -0.571165 0.340299 0.680545
f 5 6 7 
f 5 7 8 
f 6 9 10 
f 6 10 7 
f 9 11 12 
f 9 12 10 
f 11 1 2 
f 11 2 12 
f 1 3 4 
f 1 4 2 
f 3 5 8 
f 3 8 4 
f 1 5 3 
f 1 6 5 
f 11 6 1 
f 9 6 11 
f 2 4 8 
f 2 8 7 
f 12 2 7 
f 10 12 7 
