# NV = 100 NF = 196
v -0.188559 0.330333 1.04872
v -0.206979 0.300511 1.0568
v -0.206562 0.324402 1.14598
v -0.189024 0.303136 1.05601
v -0.188607 0.327028 1.14519
v -0.170617 0.329415 1.14446
v -0.171034 0.305523 1.05529
v -0.153011 0.307669 1.05463
v -0.152594 0.33156 1.1438
v -0.134543 0.333466 1.14321
v -0.13496 0.309574 1.05403
v -0.116884 0.311238 1.0535
v -0.116467 0.335129 1.14268
v -0.098784 0.312661 1.05304
v -0.0983669 0.336552 1.14221
v -0.0806652 0.313841 1.05264
v -0.0802481 0.337732 1.14181
v -0.062531 0.31478 1.0523
v -0.0621139 0.338671 1.14148
v -0.0443852 0.315476 1.05203
v -0.0439681 0.339367 1.14121
v -0.0258135 0.339822 1.141
v -0.0262306 0.31593 1.05182
v -0.00807116 0.316142 1.05168
v -0.00765408 0.340034 1.14085
v 0.0105049 0.340002 1.14078
v 0.0100878 0.316111 1.0516
v 0.0286567 0.3394 1.14085
v 0.0282396 0.315508 1.05168
v 0.0463809 0.314663 1.05182
v 0.046798 0.338554 1.141
v 0.0649257 0.337467 1.14121
v 0.0645086 0.313575 1.05203
v 0.0830361 0.336138 1.14148
v 0.082619 0.312246 1.0523
v 0.101126 0.334566 1.14181
v 0.100709 0.310676 1.05264
v 0.119192 0.332754 1.14221
v 0.118776 0.308863 1.05304
v 0.137233 0.330701 1.14268
v 0.136816 0.30681 1.0535
v 0.15524 0.328408 1.14321
v 0.154823 0.304516 1.05403
v 0.172796 0.301982 1.05463
v 0.173213 0.325873 1.1438
v 0.191151 0.3231 1.14446
v 0.190734 0.299208 1.05529
v 0.208629 0.296195 1.05601
v 0.209046 0.320087 1.14519
v -0.170572 0.332767 1.04799
v -0.152555 0.33495 1.04732
v -0.134503 0.336882 1.04672
v -0.116427 0.338561 1.04618
v -0.0983261 0.33999 1.04571
v -0.080204 0.341165 1.04531
v -0.0620671 0.342088 1.04498
v -0.0439186 0.342758 1.04472
v -0.0257618 0.343174 1.04452
v -0.00759961 0.343338 1.04439
v -0.0253448 0.367066 1.1337
v -0.00718253 0.367229 1.13357
v -0.0435016 0.366649 1.13389
v -0.06165 0.365979 1.13416
v -0.0797871 0.365057 1.13449
v -0.0979091 0.363881 1.13489
v -0.11601 0.362454 1.13536
v -0.134085 0.360774 1.13589
v -0.152138 0.358842 1.1365
v -0.170155 0.356658 1.13716
v 0.0109786 0.36714 1.13351
v 0.0291304 0.366537 1.13359
v 0.0105616 0.343247 1.04433
v 0.0287133 0.342644 1.04441
v 0.0472718 0.365692 1.13373
v 0.0468547 0.3418 1.04455
v 0.0649824 0.340713 1.04476
v 0.0653993 0.364604 1.13393
v 0.0835099 0.363275 1.13421
v 0.0830928 0.339383 1.04503
v 0.1016 0.361703 1.13454
v 0.101183 0.337812 1.04536
v 0.119667 0.359892 1.13494
v 0.119249 0.336 1.04576
v 0.137706 0.357838 1.13541
v 0.137289 0.333947 1.04623
v 0.155713 0.355545 1.13593
v 0.155296 0.331653 1.04676
v 0.173271 0.329119 1.04735
v 0.173688 0.35301 1.13653
v 0.191207 0.326345 1.04802
v 0.191624 0.350237 1.1372
v 0.209519 0.347224 1.13792
v 0.209102 0.323333 1.04874
v 0.227368 0.343972 1.1387
v 0.226952 0.320081 1.04952
v 0.226477 0.292944 1.0568
v 0.226894 0.316836 1.14598
v -0.206088 0.351538 1.1387
v -0.188143 0.354224 1.1379
v -0.206505 0.327647 1.04952
f 70 71 72 
f 73 72 71 
f 74 75 71 
f 73 71 75 
f 75 74 76 
f 77 76 74 
f 78 79 77 
f 76 77 79 
f 80 81 78 
f 79 78 81 
f 80 82 81 
f 83 81 82 
f 84 85 82 
f 83 82 85 
f 86 87 84 
f 85 84 87 
f 87 86 88 
f 89 88 86 
f 90 88 91 
f 89 91 88 
f 91 92 90 
f 93 90 92 
f 94 95 92 
f 93 92 95 
f 96 95 97 
f 94 97 95 
f 98 99 100 
f 1 100 99 
f 100 2 98 
f 3 98 2 
f 2 4 3 
f 5 3 4 
f 6 5 7 
f 4 7 5 
f 8 9 7 
f 6 7 9 
f 9 8 10 
f 11 10 8 
f 11 12 10 
f 13 10 12 
f 12 14 13 
f 15 13 14 
f 14 16 15 
f 17 15 16 
f 16 18 17 
f 19 17 18 
f 18 20 19 
f 21 19 20 
f 22 21 23 
f 20 23 21 
f 23 24 22 
f 25 22 24 
f 25 24 26 
f 27 26 24 
f 28 26 29 
f 27 29 26 
f 30 31 29 
f 28 29 31 
f 32 31 33 
f 30 33 31 
f 32 33 34 
f 35 34 33 
f 36 34 37 
f 35 37 34 
f 36 37 38 
f 39 38 37 
f 40 38 41 
f 39 41 38 
f 42 40 43 
f 41 43 40 
f 43 44 42 
f 45 42 44 
f 45 44 46 
f 47 46 44 
f 48 49 47 
f 46 47 49 
f 97 49 96 
f 48 96 49 
f 1 50 100 
f 50 51 100 
f 51 52 100 
f 52 53 100 
f 53 54 100 
f 54 55 100 
f 55 56 100 
f 56 57 100 
f 57 58 100 
f 58 2 100 
f 2 58 4 
f 4 58 7 
f 7 58 59 
f 59 8 7 
f 8 59 11 
f 11 59 72 
f 72 12 11 
f 12 72 73 
f 73 14 12 
f 14 73 16 
f 16 73 75 
f 75 18 16 
f 18 75 20 
f 20 75 76 
f 76 23 20 
f 23 76 79 
f 79 24 23 
f 24 79 81 
f 81 27 24 
f 27 81 29 
f 29 81 83 
f 83 30 29 
f 30 83 85 
f 85 33 30 
f 33 85 87 
f 87 35 33 
f 35 87 88 
f 88 37 35 
f 37 88 90 
f 90 39 37 
f 39 90 41 
f 41 90 93 
f 93 43 41 
f 43 93 95 
f 95 44 43 
f 44 95 47 
f 47 95 48 
f 48 95 96 
f 58 60 59 
f 61 59 60 
f 62 60 57 
f 58 57 60 
f 63 62 56 
f 57 56 62 
f 64 63 55 
f 56 55 63 
f 54 65 55 
f 64 55 65 
f 53 66 54 
f 65 54 66 
f 53 52 66 
f 67 66 52 
f 51 68 52 
f 67 52 68 
f 51 50 68 
f 69 68 50 
f 50 1 69 
f 99 69 1 
f 94 49 97 
f 94 46 49 
f 94 45 46 
f 94 42 45 
f 42 94 92 
f 92 40 42 
f 40 92 91 
f 91 38 40 
f 38 91 36 
f 36 91 89 
f 89 34 36 
f 34 89 86 
f 86 32 34 
f 32 86 84 
f 84 31 32 
f 31 84 82 
f 82 28 31 
f 28 82 80 
f 80 26 28 
f 26 80 25 
f 25 80 78 
f 78 22 25 
f 22 78 77 
f 77 21 22 
f 21 77 74 
f 74 19 21 
f 19 74 17 
f 17 74 71 
f 71 15 17 
f 15 71 13 
f 13 71 70 
f 70 10 13 
f 10 70 61 
f 61 9 10 
f 9 61 6 
f 6 61 60 
f 60 5 6 
f 5 60 3 
f 3 60 62 
f 62 63 3 
f 63 64 3 
f 64 65 3 
f 65 66 3 
f 66 67 3 
f 67 68 3 
f 68 69 3 
f 69 99 3 
f 99 98 3 
f 61 70 59 
f 72 59 70 
