# NV = 72 NF = 140
v 0.256905 0.19607 0.535987
v 0.224796 0.196631 0.535987
v 0.224855 0.199997 0.595431
v 0.224939 0.204785 0.654779
v 0.225047 0.210991 0.713994
v 0.225179 0.21861 0.773044
v 0.225338 0.227639 0.831896
v 0.22552 0.238073 0.890515
v 0.225726 0.249907 0.948867
v 0.225958 0.263131 1.00692
v 0.226212 0.277739 1.06464
v 0.226491 0.293725 1.12199
v 0.25799 0.258284 0.496919
v 0.25687 0.194125 0.476479
v 0.225883 0.258844 0.496919
v 0.224763 0.194685 0.476479
v 0.258704 0.299199 0.913787
v 0.258526 0.288948 0.854757
v 0.226417 0.28951 0.854757
v 0.226596 0.299759 0.913787
v 0.258372 0.28016 0.795497
v 0.226264 0.280721 0.795497
v 0.258244 0.272838 0.736034
v 0.226136 0.273399 0.736034
v 0.258141 0.266985 0.676407
v 0.226034 0.267545 0.676407
v 0.258066 0.262608 0.616654
v 0.225958 0.263168 0.616654
v 0.258015 0.259707 0.556812
v 0.225907 0.260267 0.556812
v 0.259138 0.324053 1.031
v 0.258909 0.310902 0.972543
v 0.226801 0.311462 0.972543
v 0.227031 0.324613 1.031
v 0.259393 0.338643 1.0891
v 0.227285 0.339203 1.0891
v 0.259672 0.354664 1.14683
v 0.227564 0.355225 1.14683
v 0.258811 0.305314 1.16188
v 0.258888 0.309733 1.16303
v 0.22678 0.310294 1.16303
v 0.226704 0.305874 1.16188
v 0.258967 0.314247 1.16375
v 0.22686 0.314809 1.16375
v 0.259047 0.31881 1.164
v 0.226939 0.319371 1.164
v 0.259126 0.323375 1.16381
v 0.227019 0.323936 1.16381
v 0.259206 0.327896 1.16315
v 0.227097 0.328457 1.16315
v 0.259282 0.332329 1.16203
v 0.227175 0.33289 1.16203
v 0.259358 0.336628 1.16048
v 0.22725 0.337188 1.16048
v 0.25943 0.34075 1.15851
v 0.227321 0.34131 1.15851
v 0.259498 0.344651 1.15613
v 0.22739 0.345213 1.15613
v 0.259562 0.348296 1.15337
v 0.227453 0.348856 1.15337
v 0.259619 0.351644 1.15026
v 0.227512 0.352204 1.15026
v 0.258599 0.293164 1.12199
v 0.25832 0.277179 1.06464
v 0.258065 0.262571 1.00692
v 0.257834 0.249346 0.948867
v 0.257627 0.237513 0.890515
v 0.257446 0.227079 0.831896
v 0.257288 0.21805 0.773044
v 0.257155 0.21043 0.713994
v 0.257047 0.204225 0.654779
v 0.256963 0.199437 0.595431
f 13 14 15 
f 14 16 15 
f 17 18 19 
f 20 17 19 
f 18 21 22 
f 19 18 22 
f 21 23 24 
f 22 21 24 
f 23 25 26 
f 24 23 26 
f 25 27 28 
f 26 25 28 
f 27 29 30 
f 28 27 30 
f 29 13 15 
f 30 29 15 
f 31 32 33 
f 34 31 33 
f 35 31 34 
f 36 35 34 
f 37 35 36 
f 38 37 36 
f 39 40 41 
f 42 39 41 
f 40 43 44 
f 41 40 44 
f 43 45 46 
f 44 43 46 
f 45 47 48 
f 46 45 48 
f 47 49 50 
f 48 47 50 
f 49 51 52 
f 50 49 52 
f 51 53 54 
f 52 51 54 
f 53 55 56 
f 54 53 56 
f 55 57 58 
f 56 55 58 
f 57 59 60 
f 58 57 60 
f 59 61 62 
f 60 59 62 
f 61 37 38 
f 62 61 38 
f 43 47 45 
f 43 49 47 
f 49 43 40 
f 40 51 49 
f 51 40 39 
f 39 53 51 
f 53 39 55 
f 55 39 57 
f 57 39 59 
f 59 39 61 
f 61 39 37 
f 37 39 63 
f 63 35 37 
f 35 63 64 
f 64 31 35 
f 31 64 65 
f 65 32 31 
f 32 65 66 
f 66 17 32 
f 17 66 67 
f 67 18 17 
f 18 67 68 
f 68 21 18 
f 21 68 69 
f 69 23 21 
f 23 69 70 
f 70 25 23 
f 25 70 71 
f 71 27 25 
f 27 71 72 
f 72 29 27 
f 29 72 1 
f 1 13 29 
f 13 1 14 
f 14 1 2 
f 16 14 2 
f 1 72 3 
f 2 1 3 
f 72 71 4 
f 3 72 4 
f 71 70 5 
f 4 71 5 
f 70 69 6 
f 5 70 6 
f 69 68 7 
f 6 69 7 
f 68 67 8 
f 7 68 8 
f 67 66 9 
f 8 67 9 
f 66 65 10 
f 9 66 10 
f 65 64 11 
f 10 65 11 
f 64 63 12 
f 11 64 12 
f 63 39 42 
f 12 63 42 
f 48 44 46 
f 44 48 50 
f 50 41 44 
f 41 50 52 
f 52 42 41 
f 42 52 54 
f 54 56 42 
f 56 58 42 
f 58 60 42 
f 60 62 42 
f 62 38 42 
f 38 12 42 
f 12 38 36 
f 36 11 12 
f 11 36 34 
f 34 10 11 
f 10 34 33 
f 33 9 10 
f 9 33 20 
f 20 8 9 
f 8 20 19 
f 19 7 8 
f 7 19 22 
f 22 6 7 
f 6 22 24 
f 24 5 6 
f 5 24 26 
f 26 4 5 
f 4 26 28 
f 28 3 4 
f 3 28 30 
f 30 2 3 
f 2 30 15 
f 15 16 2 
f 32 17 20 
f 33 32 20 
