# NV = 56 NF = 108
v 0.226059 0.269003 0.244802
v 0.258237 0.272466 0.206506
v 0.22613 0.273026 0.206506
v 0.258319 0.277154 0.168287
v 0.226212 0.277714 0.168287
v 0.258413 0.282506 0.130156
v 0.226305 0.283066 0.130156
v 0.258518 0.28852 0.0921225
v 0.22641 0.28908 0.0921225
v 0.258634 0.295194 0.0542001
v 0.226527 0.295755 0.0542001
v 0.258763 0.302527 0.0163993
v 0.226654 0.303087 0.0163993
v 0.258902 0.310516 -0.0212711
v 0.226794 0.311076 -0.0212711
v 0.25687 0.194125 0.388169
v 0.256879 0.194631 0.353349
v 0.256906 0.196152 0.318561
v 0.25695 0.198683 0.283829
v 0.257012 0.202225 0.249187
v 0.257092 0.206773 0.214663
v 0.257187 0.212324 0.180287
v 0.257302 0.218873 0.146086
v 0.257433 0.226415 0.11209
v 0.257582 0.234943 0.0783281
v 0.257749 0.24445 0.044829
v 0.257931 0.254929 0.0116205
v 0.258131 0.266368 -0.0212711
v 0.226024 0.266929 -0.0212711
v 0.225824 0.255489 0.0116205
v 0.225641 0.245011 0.044829
v 0.225475 0.235504 0.0783281
v 0.225326 0.226976 0.11209
v 0.225194 0.219435 0.146086
v 0.22508 0.212885 0.180287
v 0.224983 0.207334 0.214663
v 0.224905 0.202786 0.249187
v 0.224842 0.199244 0.283829
v 0.224798 0.196712 0.318561
v 0.224772 0.195192 0.353349
v 0.224763 0.194685 0.388169
v 0.25687 0.194125 0.476479
v 0.225883 0.258844 0.496919
v 0.224763 0.194685 0.476479
v 0.25799 0.258284 0.496919
v 0.257991 0.258341 0.437006
v 0.225884 0.258901 0.437006
v 0.258003 0.259023 0.398506
v 0.225895 0.259585 0.398506
v 0.258027 0.260376 0.360025
v 0.225919 0.260937 0.360025
v 0.258062 0.262396 0.321573
v 0.225954 0.262958 0.321573
v 0.258109 0.265086 0.283161
v 0.226002 0.265647 0.283161
v 0.258168 0.268443 0.244802
f 42 43 44 
f 42 45 43 
f 45 46 47 
f 43 45 47 
f 46 48 49 
f 47 46 49 
f 48 50 51 
f 49 48 51 
f 50 52 53 
f 51 50 53 
f 52 54 55 
f 53 52 55 
f 54 56 1 
f 55 54 1 
f 56 2 3 
f 1 56 3 
f 2 4 5 
f 3 2 5 
f 4 6 7 
f 5 4 7 
f 6 8 9 
f 7 6 9 
f 8 10 11 
f 9 8 11 
f 10 12 13 
f 11 10 13 
f 12 14 15 
f 13 12 15 
f 42 46 45 
f 46 42 48 
f 48 42 16 
f 16 50 48 
f 50 16 17 
f 17 52 50 
f 52 17 18 
f 18 19 52 
f 19 54 52 
f 54 19 20 
f 20 56 54 
f 56 20 21 
f 21 2 56 
f 2 21 22 
f 22 4 2 
f 4 22 23 
f 23 6 4 
f 6 23 24 
f 24 8 6 
f 8 24 25 
f 25 10 8 
f 10 25 26 
f 26 12 10 
f 12 26 27 
f 27 28 12 
f 28 14 12 
f 29 15 14 
f 28 29 14 
f 28 27 30 
f 29 28 30 
f 27 26 31 
f 30 27 31 
f 26 25 32 
f 31 26 32 
f 25 24 33 
f 32 25 33 
f 24 23 34 
f 33 24 34 
f 23 22 35 
f 34 23 35 
f 22 21 36 
f 35 22 36 
f 21 20 37 
f 36 21 37 
f 20 19 38 
f 37 20 38 
f 19 18 39 
f 38 19 39 
f 18 17 40 
f 39 18 40 
f 17 16 41 
f 40 17 41 
f 42 44 41 
f 16 42 41 
f 44 43 47 
f 47 49 44 
f 49 41 44 
f 41 49 51 
f 51 40 41 
f 40 51 53 
f 53 39 40 
f 39 53 38 
f 38 53 55 
f 55 37 38 
f 37 55 1 
f 1 36 37 
f 36 1 3 
f 3 35 36 
f 35 3 5 
f 5 34 35 
f 34 5 7 
f 7 33 34 
f 33 7 9 
f 9 32 33 
f 32 9 11 
f 11 31 32 
f 31 11 13 
f 13 30 31 
f 30 13 15 
f 15 29 30 
