# NV = 10 NF = 16
v -0.295712 -0.297939 0.476479
v -0.239522 -0.298919 -0.0212711
v -0.239522 -0.298919 0.476479
v -0.240504 -0.355109 0.476479
v -0.240504 -0.355109 -0.0212711
v -0.296201 -0.326032 -0.0212711
v -0.268597 -0.354618 -0.0212711
v -0.296201 -0.326032 0.476479
v -0.268597 -0.354618 0.476479
v -0.295712 -0.297939 -0.0212711
f 6 7 8 
f 9 8 7 
f 6 8 10 
f 1 10 8 
f 2 10 3 
f 1 3 10 
f 3 9 4 
f 1 9 3 
f 8 9 1 
f 4 9 5 
f 7 5 9 
f 7 2 5 
f 6 2 7 
f 10 2 6 
f 5 2 4 
f 3 4 2 
