# NV = 14 NF = 24
v -0.240468 -0.353102 0.323761
v 0.237136 -0.361438 0.323761
v -0.240433 -0.351095 0.325278
v 0.237171 -0.359431 0.325278
v 0.237136 -0.361438 0.326796
v -0.240468 -0.353102 0.326796
v 0.237136 -0.361438 0.381432
v -0.240468 -0.353102 0.381432
v 0.237556 -0.337357 0.314655
v 0.237556 -0.337357 0.381432
v -0.240048 -0.329021 0.314655
v -0.240048 -0.329021 0.381432
v -0.240468 -0.353102 0.314655
v 0.237136 -0.361438 0.314655
f 13 14 1 
f 2 1 14 
f 3 1 4 
f 2 4 1 
f 4 5 3 
f 6 3 5 
f 7 8 5 
f 6 5 8 
f 14 9 4 
f 2 14 4 
f 10 7 5 
f 10 5 4 
f 9 10 4 
f 13 11 14 
f 9 14 11 
f 8 12 11 
f 8 11 3 
f 6 8 3 
f 13 1 3 
f 11 13 3 
f 10 12 7 
f 8 7 12 
f 12 10 11 
f 9 11 10 
