# 3ds Max Wavefront OBJ Exporter v0.97b - (c)2007 guruware
# File Created: 31.12.2014 01:50:14

#
# object Box013
#

v  1.0000 -25.0000 0.0000
v  21.0000 -25.0000 0.0000
v  1.0000 25.0000 0.0000
v  21.0000 25.0000 0.0000
v  21.0000 -25.0000 2.0000
v  21.0000 25.0000 2.0000
v  5.0000 -25.0000 2.0000
v  1.0000 -13.0098 2.0000
v  5.0000 -25.0000 1.0000
v  1.0000 -25.0000 1.0000
v  1.0000 -13.0098 1.0000
v  5.0000 -13.0098 2.0000
v  5.0000 -13.0098 1.0000
v  5.0000 25.0000 2.0000
v  1.0000 13.0012 2.0000
v  1.0000 25.0000 1.0000
v  5.0000 25.0000 1.0000
v  1.0000 13.0012 1.0000
v  5.0000 13.0012 2.0000
v  5.0000 25.0006 2.0000
v  5.0000 13.0012 1.0000
v  1.0000 25.0006 2.0000
# 22 vertices

g Box013
f 1 3 4 
f 4 2 1 
f 2 5 7 
f 7 9 2 
f 2 4 6 
f 6 5 2 
f 3 16 17 
f 4 3 17 
f 4 17 14 
f 4 14 6 
f 3 1 10 
f 10 11 3 
f 8 11 13 
f 13 12 8 
f 7 12 13 
f 13 9 7 
f 11 10 9 
f 9 13 11 
f 7 5 6 
f 6 12 7 
f 1 2 9 
f 9 10 1 
f 6 14 19 
f 15 8 12 
f 19 15 12 
f 6 19 12 
f 11 8 15 
f 11 15 18 
f 3 11 18 
f 16 3 18 
f 19 21 18 
f 18 15 19 
f 19 14 17 
f 17 21 19 
f 21 17 16 
f 16 18 21 
# 36 faces

