# NV = 8 NF = 12
v 110.192 -47.1533 71.0595
v 112.276 -47.1533 71.0509
v 104.713 -47.1533 62.7588
v 106.798 -47.1533 62.7502
v 110.192 -39.5903 71.0595
v 112.276 -39.5903 71.0509
v 104.713 -39.5903 62.7588
v 106.798 -39.5903 62.7502
f 1 3 4 
f 4 2 1 
f 5 6 8 
f 8 7 5 
f 1 2 6 
f 6 5 1 
f 2 4 8 
f 8 6 2 
f 4 3 7 
f 7 8 4 
f 3 1 5 
f 5 7 3 
