# NV = 8 NF = 12
v -107.37 45.7131 63.0069
v -107.37 45.7131 71.3162
v -107.37 -47.1384 71.3162
v -107.37 -47.1384 63.0069
v -109.466 45.7131 63.0069
v -109.466 -47.1384 63.0069
v -109.466 -47.1384 71.3162
v -109.466 45.7131 71.3162
f 1 2 3 
f 3 4 1 
f 5 6 7 
f 7 8 5 
f 1 4 6 
f 6 5 1 
f 4 3 7 
f 7 6 4 
f 3 2 8 
f 8 7 3 
f 2 1 5 
f 5 8 2 
