# NV = 8 NF = 12
v -25.269 -14.9176 0.0807
v -24.731 -14.9176 0.0807
v -25.269 14.9176 0.0807
v -24.731 14.9176 0.0807
v -25.269 -14.9176 14.4193
v -24.731 -14.9176 14.4193
v -25.269 14.9176 14.4193
v -24.731 14.9176 14.4193
f 1 3 4 
f 4 2 1 
f 5 6 8 
f 8 7 5 
f 1 2 6 
f 6 5 1 
f 2 4 8 
f 8 6 2 
f 4 3 7 
f 7 8 4 
f 3 1 5 
f 5 7 3 
