# NV = 8 NF = 12
v 19.1067 -8.6757 1.1745
v 20.0805 -8.6757 1.1745
v 19.1067 18.8643 1.1745
v 20.0805 18.8643 1.1745
v 19.1067 -8.6757 15.513
v 20.0805 -8.6757 15.513
v 19.1067 18.8643 15.513
v 20.0805 18.8643 15.513
f 1 3 4 
f 4 2 1 
f 5 6 8 
f 8 7 5 
f 1 2 6 
f 6 5 1 
f 2 4 8 
f 8 6 2 
f 4 3 7 
f 7 8 4 
f 3 1 5 
f 5 7 3 
