# NV = 14 NF = 24
v 1.2174 -0.368254 1.42987
v -1.20621 -0.37215 1.4218
v -1.20621 -0.368254 1.42987
v 1.2174 -0.37215 1.4218
v -1.20621 -0.381056 1.41985
v 1.2174 -0.380778 1.41985
v -1.20621 -0.388014 1.42542
v 1.2174 -0.387737 1.42542
v -1.20621 -0.388014 1.43432
v 1.2174 -0.387737 1.43432
v -1.20621 -0.381056 1.43989
v 1.2174 -0.380778 1.43989
v -1.20621 -0.37215 1.43794
v 1.2174 -0.37215 1.43794
f 1 2 3 
f 1 4 2 
f 4 5 2 
f 4 6 5 
f 6 7 5 
f 6 8 7 
f 8 9 7 
f 8 10 9 
f 10 11 9 
f 10 12 11 
f 12 13 11 
f 12 14 13 
f 14 3 13 
f 14 1 3 
f 2 5 7 
f 7 9 11 
f 2 7 11 
f 2 11 13 
f 2 13 3 
f 1 14 12 
f 12 10 8 
f 1 12 8 
f 1 8 6 
f 1 6 4 
