# NV = 14 NF = 24
v 1.2174 -0.223806 0.186616
v -1.20621 -0.231876 0.190235
v -1.20621 -0.223806 0.186616
v 1.2174 -0.231876 0.190235
v -1.20621 -0.233825 0.198584
v 1.2174 -0.233825 0.198305
v -1.20621 -0.228259 0.205264
v 1.2174 -0.228259 0.204986
v -1.20621 -0.219353 0.205264
v 1.2174 -0.219353 0.204986
v -1.20621 -0.213507 0.198584
v 1.2174 -0.213786 0.198305
v -1.20621 -0.215734 0.190235
v 1.2174 -0.215734 0.190235
f 1 2 3 
f 1 4 2 
f 4 5 2 
f 4 6 5 
f 6 7 5 
f 6 8 7 
f 8 9 7 
f 8 10 9 
f 10 11 9 
f 10 12 11 
f 12 13 11 
f 12 14 13 
f 14 3 13 
f 14 1 3 
f 1 14 12 
f 12 10 8 
f 1 12 8 
f 1 8 6 
f 1 6 4 
f 2 5 7 
f 7 9 11 
f 2 7 11 
f 2 11 13 
f 2 13 3 
