# NV = 14 NF = 24
v 1.2174 -0.0696162 0.186616
v -1.20621 -0.0776875 0.190235
v -1.20621 -0.0696162 0.186616
v 1.2174 -0.0776875 0.190235
v -1.20621 -0.0796357 0.198584
v 1.2174 -0.0796357 0.198305
v -1.20621 -0.0740693 0.205264
v 1.2174 -0.0740693 0.204986
v -1.20621 -0.0648847 0.205264
v 1.2174 -0.065163 0.204986
v -1.20621 -0.0593183 0.198584
v 1.2174 -0.0593183 0.198584
v -1.20621 -0.0612665 0.190235
v 1.2174 -0.0615448 0.190235
f 1 2 3 
f 1 4 2 
f 4 5 2 
f 4 6 5 
f 6 7 5 
f 6 8 7 
f 8 9 7 
f 8 10 9 
f 10 11 9 
f 10 12 11 
f 12 13 11 
f 12 14 13 
f 14 3 13 
f 14 1 3 
f 1 14 12 
f 12 10 8 
f 1 12 8 
f 1 8 6 
f 1 6 4 
f 2 5 7 
f 7 9 11 
f 2 7 11 
f 2 11 13 
f 2 13 3 
