# NV = 68 NF = 132
v -0.271082 -0.307621 0.174121
v -0.295459 -0.307621 0.174121
v -0.275146 -0.307621 0.236073
v -0.295459 -0.307621 0.236073
v -0.279207 -0.307621 0.298025
v -0.295459 -0.307621 0.298025
v -0.283271 -0.307621 0.359979
v -0.295459 -0.307621 0.359979
v -0.287334 -0.307621 0.421928
v -0.295459 -0.307621 0.421928
v -0.291395 -0.307621 0.48388
v -0.295459 -0.307621 0.48388
v -0.258898 -0.307621 0.421928
v -0.258898 -0.307621 0.48388
v -0.258898 -0.307621 0.359979
v -0.258898 -0.307621 0.298025
v -0.258898 -0.307621 0.236073
v -0.258898 -0.307621 0.174121
v -0.258898 -0.307621 0.112169
v -0.258898 -0.307621 0.0502166
v -0.258898 -0.275123 0.0502166
v -0.258898 -0.271059 -0.0117358
v -0.258898 -0.279183 0.112169
v -0.258898 -0.283246 0.174121
v -0.258898 -0.287308 0.236073
v -0.258898 -0.291372 0.298025
v -0.258898 -0.295435 0.359979
v -0.258898 -0.299496 0.421928
v -0.258898 -0.303559 0.48388
v -0.258898 -0.271059 0.421928
v -0.258898 -0.271059 0.48388
v -0.258898 -0.271059 0.359979
v -0.258898 -0.271059 0.298025
v -0.258898 -0.271059 0.236073
v -0.258898 -0.271059 0.174121
v -0.258898 -0.271059 0.112169
v -0.258898 -0.271059 0.0502166
v -0.295459 -0.271059 -0.0117358
v -0.295459 -0.279183 0.421928
v -0.295459 -0.275123 0.48388
v -0.295459 -0.283246 0.359979
v -0.295459 -0.287308 0.298025
v -0.295459 -0.291372 0.236073
v -0.295459 -0.295435 0.174121
v -0.295459 -0.299496 0.112169
v -0.295459 -0.303559 0.0502166
v -0.295459 -0.271059 0.0502166
v -0.295459 -0.271059 0.112169
v -0.295459 -0.271059 0.174121
v -0.295459 -0.271059 0.236073
v -0.295459 -0.271059 0.298025
v -0.295459 -0.271059 0.359979
v -0.295459 -0.271059 0.421928
v -0.295459 -0.271059 0.48388
v -0.262958 -0.271059 0.0502166
v -0.267022 -0.271059 0.112169
v -0.271082 -0.271059 0.174121
v -0.275146 -0.271059 0.236073
v -0.279207 -0.271059 0.298025
v -0.283271 -0.271059 0.359979
v -0.287334 -0.271059 0.421928
v -0.291395 -0.271059 0.48388
v -0.262958 -0.307621 0.0502166
v -0.295459 -0.307621 0.0502166
v -0.295459 -0.307621 -0.0117358
v -0.258898 -0.307621 -0.0117358
v -0.267022 -0.307621 0.112169
v -0.295459 -0.307621 0.112169
f 65 63 64 
f 65 66 63 
f 64 67 68 
f 64 63 67 
f 68 1 2 
f 68 67 1 
f 2 3 4 
f 2 1 3 
f 4 5 6 
f 4 3 5 
f 6 7 8 
f 6 5 7 
f 8 9 10 
f 8 7 9 
f 10 11 12 
f 10 9 11 
f 14 9 13 
f 14 11 9 
f 13 7 15 
f 13 9 7 
f 15 5 16 
f 15 7 5 
f 16 3 17 
f 16 5 3 
f 17 1 18 
f 17 3 1 
f 18 67 19 
f 18 1 67 
f 19 63 20 
f 19 67 63 
f 20 63 66 
f 66 21 20 
f 66 22 21 
f 20 23 19 
f 20 21 23 
f 19 24 18 
f 19 23 24 
f 18 25 17 
f 18 24 25 
f 17 26 16 
f 17 25 26 
f 16 27 15 
f 16 26 27 
f 15 28 13 
f 15 27 28 
f 13 29 14 
f 13 28 29 
f 31 28 30 
f 31 29 28 
f 30 27 32 
f 30 28 27 
f 32 26 33 
f 32 27 26 
f 33 25 34 
f 33 26 25 
f 34 24 35 
f 34 25 24 
f 35 23 36 
f 35 24 23 
f 36 21 37 
f 36 23 21 
f 37 21 22 
f 38 66 65 
f 22 66 38 
f 12 39 10 
f 12 40 39 
f 10 41 8 
f 10 39 41 
f 8 42 6 
f 8 41 42 
f 6 43 4 
f 6 42 43 
f 4 44 2 
f 4 43 44 
f 2 45 68 
f 2 44 45 
f 68 46 64 
f 68 45 46 
f 64 46 65 
f 38 46 47 
f 38 65 46 
f 47 45 48 
f 47 46 45 
f 48 44 49 
f 48 45 44 
f 49 43 50 
f 49 44 43 
f 50 42 51 
f 50 43 42 
f 51 41 52 
f 51 42 41 
f 52 39 53 
f 52 41 39 
f 53 40 54 
f 53 39 40 
f 22 38 55 
f 55 38 47 
f 55 47 56 
f 56 47 48 
f 56 48 57 
f 57 48 49 
f 57 49 58 
f 58 49 50 
f 58 50 59 
f 59 50 51 
f 59 51 60 
f 60 51 52 
f 60 52 61 
f 61 52 53 
f 61 53 62 
f 62 53 54 
f 62 31 61 
f 61 31 30 
f 61 30 60 
f 60 30 32 
f 60 32 59 
f 59 32 33 
f 59 33 58 
f 58 33 34 
f 58 34 57 
f 57 34 35 
f 57 35 56 
f 56 35 36 
f 56 36 55 
f 55 36 37 
f 55 37 22 
f 14 40 11 
f 40 29 31 
f 31 62 40 
f 40 14 29 
f 54 40 62 
f 11 40 12 
