# NV = 218 NF = 432
v 0.290803 0.0260034 0.267023
v 0.293642 -0.0334096 0.266263
v 0.29137 -0.0334096 0.26687
v 0.293642 -0.0928225 0.266263
v 0.291938 -0.0928225 0.266718
v 0.293642 -0.152235 0.266263
v 0.292507 -0.152235 0.266565
v 0.293642 -0.211648 0.266263
v 0.293074 -0.211648 0.266413
v 0.293642 -0.271062 0.266263
v 0.294209 0.204244 0.266413
v 0.294775 0.144832 0.266565
v 0.295343 0.0854189 0.266718
v 0.29591 0.0260034 0.26687
v 0.296479 -0.0334071 0.267023
v 0.297047 -0.0928225 0.267175
v 0.297614 -0.152235 0.267328
v 0.298183 -0.211648 0.26748
v 0.293642 0.263658 0.276481
v 0.293642 -0.271062 0.276481
v 0.302492 0.204244 0.271372
v 0.299165 0.204244 0.268048
v 0.302492 0.263658 0.271372
v 0.29875 0.263658 0.26763
v 0.302492 0.144832 0.271372
v 0.299581 0.144832 0.268463
v 0.302492 0.0854189 0.271372
v 0.299996 0.0854189 0.268879
v 0.302492 0.0260034 0.271372
v 0.300412 0.0260034 0.269294
v 0.302492 -0.0334096 0.271372
v 0.300828 -0.0334096 0.269709
v 0.302492 -0.0928225 0.271372
v 0.301243 -0.0928225 0.270125
v 0.302492 -0.152235 0.271372
v 0.30166 -0.152235 0.27054
v 0.302492 -0.211648 0.271372
v 0.302076 -0.211648 0.270955
v 0.302492 -0.271062 0.271372
v 0.29875 -0.211648 0.267633
v 0.29875 -0.271062 0.267633
v 0.29875 -0.152235 0.267633
v 0.29875 -0.0928225 0.267633
v 0.29875 -0.0334096 0.267633
v 0.29875 0.0260034 0.26763
v 0.29875 0.0854189 0.26763
v 0.29875 0.144832 0.26763
v 0.29875 0.204244 0.26763
v 0.303861 0.204244 0.276481
v 0.302644 0.204244 0.271939
v 0.303861 0.263658 0.276481
v 0.303861 0.144832 0.276481
v 0.302794 0.144832 0.272507
v 0.303861 0.0854189 0.276481
v 0.302947 0.0854189 0.273075
v 0.303861 0.0260034 0.276481
v 0.303099 0.0260034 0.273643
v 0.303861 -0.0334096 0.276481
v 0.303251 -0.0334096 0.27421
v 0.303861 -0.0928225 0.276481
v 0.303404 -0.0928225 0.274779
v 0.303861 -0.152235 0.276481
v 0.303556 -0.152235 0.275346
v 0.303861 -0.211648 0.276481
v 0.303709 -0.211648 0.275914
v 0.303861 -0.271062 0.276481
v 0.302492 0.204244 0.28159
v 0.303709 0.204244 0.27705
v 0.302492 0.263658 0.28159
v 0.302492 0.144832 0.28159
v 0.303556 0.144832 0.277618
v 0.302492 0.0854189 0.28159
v 0.303404 0.0854189 0.278185
v 0.302492 0.0260034 0.28159
v 0.303251 0.0260034 0.278754
v 0.302492 -0.0334071 0.28159
v 0.303099 -0.0334071 0.279321
v 0.302492 -0.0928201 0.28159
v 0.302947 -0.0928201 0.279886
v 0.302492 -0.152235 0.28159
v 0.302794 -0.152235 0.280455
v 0.302492 -0.211648 0.28159
v 0.302644 -0.211648 0.281023
v 0.302492 -0.271062 0.28159
v 0.29875 0.204244 0.285331
v 0.302076 0.204244 0.282005
v 0.29875 0.263658 0.285331
v 0.29875 0.144832 0.285331
v 0.30166 0.144832 0.282421
v 0.29875 0.0854189 0.285331
v 0.301245 0.0854189 0.282839
v 0.29875 0.0260034 0.285331
v 0.300828 0.0260034 0.283255
v 0.29875 -0.0334071 0.285331
v 0.300412 -0.0334071 0.28367
v 0.29875 -0.0928201 0.285331
v 0.299996 -0.0928201 0.284085
v 0.29875 -0.152235 0.285331
v 0.299581 -0.152235 0.284501
v 0.29875 -0.211648 0.285331
v 0.299165 -0.211648 0.284916
v 0.29875 -0.271062 0.285331
v 0.293642 0.204244 0.286701
v 0.298183 0.204244 0.285484
v 0.293642 0.263658 0.286701
v 0.293642 0.144832 0.286701
v 0.297614 0.144832 0.285636
v 0.293642 0.0854189 0.286701
v 0.297047 0.0854189 0.285789
v 0.293642 0.0260034 0.286701
v 0.296479 0.0260034 0.285939
v 0.293642 -0.0334071 0.286701
v 0.29591 -0.0334071 0.286091
v 0.293642 -0.0928201 0.286701
v 0.295343 -0.0928201 0.286244
v 0.293642 -0.152235 0.286701
v 0.294775 -0.152235 0.286396
v 0.293642 -0.211648 0.286701
v 0.294209 -0.211648 0.286549
v 0.293642 -0.271062 0.286701
v 0.288532 0.204244 0.285331
v 0.293074 0.204244 0.286549
v 0.288532 0.263658 0.285331
v 0.288532 0.144832 0.285331
v 0.292507 0.144832 0.286396
v 0.288532 0.0854189 0.285331
v 0.291938 0.0854189 0.286244
v 0.288532 0.0260034 0.285331
v 0.29137 0.0260034 0.286091
v 0.288532 -0.0334071 0.285331
v 0.290803 -0.0334071 0.285941
v 0.288532 -0.0928201 0.285331
v 0.290234 -0.0928201 0.285789
v 0.288532 -0.152235 0.285331
v 0.289667 -0.152235 0.285636
v 0.288532 -0.211648 0.285331
v 0.289099 -0.211648 0.285484
v 0.288532 -0.271062 0.285331
v 0.284789 0.204244 0.28159
v 0.288116 0.204244 0.284916
v 0.284789 0.263658 0.28159
v 0.284789 0.144832 0.28159
v 0.2877 0.144832 0.284501
v 0.284789 0.0854189 0.28159
v 0.287284 0.0854189 0.284085
v 0.284789 0.0260034 0.28159
v 0.286869 0.0260034 0.28367
v 0.284789 -0.0334071 0.28159
v 0.286454 -0.0334071 0.283255
v 0.284789 -0.0928201 0.28159
v 0.286036 -0.0928201 0.282839
v 0.284789 -0.152235 0.28159
v 0.285621 -0.152235 0.282421
v 0.284789 -0.211648 0.28159
v 0.285205 -0.211648 0.282005
v 0.284789 -0.271062 0.28159
v 0.283421 0.204244 0.276481
v 0.284637 0.204244 0.281023
v 0.283421 0.263658 0.276481
v 0.283421 0.144832 0.276481
v 0.284488 0.144832 0.280455
v 0.283421 0.0854189 0.276481
v 0.284335 0.0854189 0.279886
v 0.283421 0.0260034 0.276481
v 0.284183 0.0260034 0.279319
v 0.283421 -0.0334096 0.276481
v 0.284031 -0.0334096 0.278754
v 0.283421 -0.0928225 0.276481
v 0.283878 -0.0928225 0.278185
v 0.283421 -0.152235 0.276481
v 0.283726 -0.152235 0.277618
v 0.283421 -0.211648 0.276481
v 0.283573 -0.211648 0.27705
v 0.283421 -0.271062 0.276481
v 0.284789 0.204244 0.271372
v 0.283573 0.204244 0.275914
v 0.284789 0.263658 0.271372
v 0.284789 0.144832 0.271372
v 0.283726 0.144832 0.275346
v 0.284789 0.0854189 0.271372
v 0.283878 0.0854189 0.274779
v 0.284789 0.0260034 0.271372
v 0.284031 0.0260034 0.27421
v 0.284789 -0.0334096 0.271372
v 0.284183 -0.0334096 0.273643
v 0.284789 -0.0928225 0.271372
v 0.284335 -0.0928225 0.273075
v 0.284789 -0.152235 0.271372
v 0.284488 -0.152235 0.272507
v 0.284789 -0.211648 0.271372
v 0.284637 -0.211648 0.271939
v 0.284789 -0.271062 0.271372
v 0.288532 0.204244 0.26763
v 0.285205 0.204244 0.270955
v 0.288532 0.263658 0.26763
v 0.288532 0.144832 0.26763
v 0.285621 0.144832 0.27054
v 0.288532 0.0854189 0.26763
v 0.286036 0.0854189 0.270125
v 0.288532 0.0260034 0.26763
v 0.286454 0.0260034 0.269709
v 0.288532 -0.0334096 0.267633
v 0.286869 -0.0334096 0.269294
v 0.288532 -0.0928225 0.267633
v 0.287284 -0.0928225 0.268879
v 0.288532 -0.152235 0.267633
v 0.2877 -0.152235 0.268463
v 0.288532 -0.211648 0.267633
v 0.288116 -0.211648 0.268048
v 0.288532 -0.271062 0.267633
v 0.293642 0.204244 0.266261
v 0.289099 0.204244 0.26748
v 0.293642 0.263658 0.266261
v 0.293642 0.144832 0.266261
v 0.289667 0.144832 0.267328
v 0.293642 0.0854189 0.266263
v 0.290234 0.0854189 0.267175
v 0.293642 0.0260034 0.266263
f 23 21 22 
f 23 22 24 
f 21 25 26 
f 21 26 22 
f 25 27 28 
f 25 28 26 
f 27 29 30 
f 27 30 28 
f 29 31 32 
f 29 32 30 
f 31 33 34 
f 31 34 32 
f 33 35 36 
f 33 36 34 
f 35 37 38 
f 35 38 36 
f 37 39 38 
f 41 40 38 
f 41 38 39 
f 40 42 36 
f 40 36 38 
f 42 43 34 
f 42 34 36 
f 43 44 32 
f 43 32 34 
f 44 45 30 
f 44 30 32 
f 45 46 28 
f 45 28 30 
f 46 47 26 
f 46 26 28 
f 47 48 22 
f 47 22 26 
f 48 24 22 
f 51 49 50 
f 51 50 23 
f 49 52 53 
f 49 53 50 
f 52 54 55 
f 52 55 53 
f 54 56 57 
f 54 57 55 
f 56 58 59 
f 56 59 57 
f 58 60 61 
f 58 61 59 
f 60 62 63 
f 60 63 61 
f 62 64 65 
f 62 65 63 
f 64 66 65 
f 39 37 65 
f 39 65 66 
f 37 35 63 
f 37 63 65 
f 35 33 61 
f 35 61 63 
f 33 31 59 
f 33 59 61 
f 31 29 57 
f 31 57 59 
f 29 27 55 
f 29 55 57 
f 27 25 53 
f 27 53 55 
f 25 21 50 
f 25 50 53 
f 21 23 50 
f 69 67 68 
f 69 68 51 
f 67 70 71 
f 67 71 68 
f 70 72 73 
f 70 73 71 
f 72 74 75 
f 72 75 73 
f 74 76 77 
f 74 77 75 
f 76 78 79 
f 76 79 77 
f 78 80 81 
f 78 81 79 
f 80 82 83 
f 80 83 81 
f 82 84 83 
f 66 64 83 
f 66 83 84 
f 64 62 81 
f 64 81 83 
f 62 60 79 
f 62 79 81 
f 60 58 77 
f 60 77 79 
f 58 56 75 
f 58 75 77 
f 56 54 73 
f 56 73 75 
f 54 52 71 
f 54 71 73 
f 52 49 68 
f 52 68 71 
f 49 51 68 
f 87 85 86 
f 87 86 69 
f 85 88 89 
f 85 89 86 
f 88 90 91 
f 88 91 89 
f 90 92 93 
f 90 93 91 
f 92 94 95 
f 92 95 93 
f 94 96 97 
f 94 97 95 
f 96 98 99 
f 96 99 97 
f 98 100 101 
f 98 101 99 
f 100 102 101 
f 84 82 101 
f 84 101 102 
f 82 80 99 
f 82 99 101 
f 80 78 97 
f 80 97 99 
f 78 76 95 
f 78 95 97 
f 76 74 93 
f 76 93 95 
f 74 72 91 
f 74 91 93 
f 72 70 89 
f 72 89 91 
f 70 67 86 
f 70 86 89 
f 67 69 86 
f 105 103 104 
f 105 104 87 
f 103 106 107 
f 103 107 104 
f 106 108 109 
f 106 109 107 
f 108 110 111 
f 108 111 109 
f 110 112 113 
f 110 113 111 
f 112 114 115 
f 112 115 113 
f 114 116 117 
f 114 117 115 
f 116 118 119 
f 116 119 117 
f 118 120 119 
f 102 100 119 
f 102 119 120 
f 100 98 117 
f 100 117 119 
f 98 96 115 
f 98 115 117 
f 96 94 113 
f 96 113 115 
f 94 92 111 
f 94 111 113 
f 92 90 109 
f 92 109 111 
f 90 88 107 
f 90 107 109 
f 88 85 104 
f 88 104 107 
f 85 87 104 
f 123 121 122 
f 123 122 105 
f 121 124 125 
f 121 125 122 
f 124 126 127 
f 124 127 125 
f 126 128 129 
f 126 129 127 
f 128 130 131 
f 128 131 129 
f 130 132 133 
f 130 133 131 
f 132 134 135 
f 132 135 133 
f 134 136 137 
f 134 137 135 
f 136 138 137 
f 120 118 137 
f 120 137 138 
f 118 116 135 
f 118 135 137 
f 116 114 133 
f 116 133 135 
f 114 112 131 
f 114 131 133 
f 112 110 129 
f 112 129 131 
f 110 108 127 
f 110 127 129 
f 108 106 125 
f 108 125 127 
f 106 103 122 
f 106 122 125 
f 103 105 122 
f 141 139 140 
f 141 140 123 
f 139 142 143 
f 139 143 140 
f 142 144 145 
f 142 145 143 
f 144 146 147 
f 144 147 145 
f 146 148 149 
f 146 149 147 
f 148 150 151 
f 148 151 149 
f 150 152 153 
f 150 153 151 
f 152 154 155 
f 152 155 153 
f 154 156 155 
f 138 136 155 
f 138 155 156 
f 136 134 153 
f 136 153 155 
f 134 132 151 
f 134 151 153 
f 132 130 149 
f 132 149 151 
f 130 128 147 
f 130 147 149 
f 128 126 145 
f 128 145 147 
f 126 124 143 
f 126 143 145 
f 124 121 140 
f 124 140 143 
f 121 123 140 
f 159 157 158 
f 159 158 141 
f 157 160 161 
f 157 161 158 
f 160 162 163 
f 160 163 161 
f 162 164 165 
f 162 165 163 
f 164 166 167 
f 164 167 165 
f 166 168 169 
f 166 169 167 
f 168 170 171 
f 168 171 169 
f 170 172 173 
f 170 173 171 
f 172 174 173 
f 156 154 173 
f 156 173 174 
f 154 152 171 
f 154 171 173 
f 152 150 169 
f 152 169 171 
f 150 148 167 
f 150 167 169 
f 148 146 165 
f 148 165 167 
f 146 144 163 
f 146 163 165 
f 144 142 161 
f 144 161 163 
f 142 139 158 
f 142 158 161 
f 139 141 158 
f 177 175 176 
f 177 176 159 
f 175 178 179 
f 175 179 176 
f 178 180 181 
f 178 181 179 
f 180 182 183 
f 180 183 181 
f 182 184 185 
f 182 185 183 
f 184 186 187 
f 184 187 185 
f 186 188 189 
f 186 189 187 
f 188 190 191 
f 188 191 189 
f 190 192 191 
f 174 172 191 
f 174 191 192 
f 172 170 189 
f 172 189 191 
f 170 168 187 
f 170 187 189 
f 168 166 185 
f 168 185 187 
f 166 164 183 
f 166 183 185 
f 164 162 181 
f 164 181 183 
f 162 160 179 
f 162 179 181 
f 160 157 176 
f 160 176 179 
f 157 159 176 
f 195 193 194 
f 195 194 177 
f 193 196 197 
f 193 197 194 
f 196 198 199 
f 196 199 197 
f 198 200 201 
f 198 201 199 
f 200 202 203 
f 200 203 201 
f 202 204 205 
f 202 205 203 
f 204 206 207 
f 204 207 205 
f 206 208 209 
f 206 209 207 
f 208 210 209 
f 192 190 209 
f 192 209 210 
f 190 188 207 
f 190 207 209 
f 188 186 205 
f 188 205 207 
f 186 184 203 
f 186 203 205 
f 184 182 201 
f 184 201 203 
f 182 180 199 
f 182 199 201 
f 180 178 197 
f 180 197 199 
f 178 175 194 
f 178 194 197 
f 175 177 194 
f 213 211 212 
f 213 212 195 
f 211 214 215 
f 211 215 212 
f 214 216 217 
f 214 217 215 
f 216 218 1 
f 216 1 217 
f 218 2 3 
f 218 3 1 
f 2 4 5 
f 2 5 3 
f 4 6 7 
f 4 7 5 
f 6 8 9 
f 6 9 7 
f 8 10 9 
f 210 208 9 
f 210 9 10 
f 208 206 7 
f 208 7 9 
f 206 204 5 
f 206 5 7 
f 204 202 3 
f 204 3 5 
f 202 200 1 
f 202 1 3 
f 200 198 217 
f 200 217 1 
f 198 196 215 
f 198 215 217 
f 196 193 212 
f 196 212 215 
f 193 195 212 
f 24 48 11 
f 24 11 213 
f 48 47 12 
f 48 12 11 
f 47 46 13 
f 47 13 12 
f 46 45 14 
f 46 14 13 
f 45 44 15 
f 45 15 14 
f 44 43 16 
f 44 16 15 
f 43 42 17 
f 43 17 16 
f 42 40 18 
f 42 18 17 
f 40 41 18 
f 10 8 18 
f 10 18 41 
f 8 6 17 
f 8 17 18 
f 6 4 16 
f 6 16 17 
f 4 2 15 
f 4 15 16 
f 2 218 14 
f 2 14 15 
f 218 216 13 
f 218 13 14 
f 216 214 12 
f 216 12 13 
f 214 211 11 
f 214 11 12 
f 211 213 11 
f 19 23 24 
f 19 51 23 
f 19 69 51 
f 19 87 69 
f 19 105 87 
f 19 123 105 
f 19 141 123 
f 19 159 141 
f 19 177 159 
f 19 195 177 
f 19 213 195 
f 19 24 213 
f 20 41 39 
f 20 39 66 
f 20 66 84 
f 20 84 102 
f 20 102 120 
f 20 120 138 
f 20 138 156 
f 20 156 174 
f 20 174 192 
f 20 192 210 
f 20 210 10 
f 20 10 41 
