# NV = 8 NF = 12
v 20.1575 1.0065 9.8782
v -29.8054 1.0065 8.7987
v 20.1575 1.0065 8.7987
v -29.8054 9.9841 9.8782
v 20.1575 9.9841 9.8782
v -29.8054 9.9841 8.7987
v 20.1575 9.9841 8.7987
v -29.8054 1.0065 9.8782
f 8 2 3 
f 3 1 8 
f 4 5 7 
f 7 6 4 
f 8 1 5 
f 5 4 8 
f 1 3 7 
f 7 5 1 
f 3 2 6 
f 6 7 3 
f 2 8 4 
f 4 6 2 
