# 3ds Max Wavefront OBJ Exporter v0.97b - (c)2007 guruware
# File Created: 28.05.2014 17:20:19

#
# object Box001
#

v  -30.0000 -15.0000 0.0000
v  30.0000 -15.0000 0.0000
v  -30.0000 15.0000 0.0000
v  30.0000 15.0000 0.0000
v  -30.0000 -15.0000 1.0000
v  30.0000 -15.0000 1.0000
v  -30.0000 15.0000 1.0000
v  30.0000 15.0000 1.0000
# 8 vertices

g Box001
f 1 3 4 
f 4 2 1 
f 5 6 8 
f 8 7 5 
f 1 2 6 
f 6 5 1 
f 2 4 8 
f 8 6 2 
f 4 3 7 
f 7 8 4 
f 3 1 5 
f 5 7 3 
# 12 faces

#
# object Box002
#

v  -30.0000 -15.0000 20.0000
v  30.0000 -15.0000 20.0000
v  -30.0000 15.0000 20.0000
v  30.0000 15.0000 20.0000
v  -30.0000 -15.0000 21.0000
v  30.0000 -15.0000 21.0000
v  -30.0000 15.0000 21.0000
v  30.0000 15.0000 21.0000
# 8 vertices

g Box002
f 9 11 12 
f 12 10 9 
f 13 14 16 
f 16 15 13 
f 9 10 14 
f 14 13 9 
f 10 12 16 
f 16 14 10 
f 12 11 15 
f 15 16 12 
f 11 9 13 
f 13 15 11 
# 12 faces

#
# object Box005
#

v  -18.5000 -0.5000 0.8553
v  18.5000 -0.5000 0.8553
v  -18.5000 0.5000 0.8553
v  18.5000 0.5000 0.8553
v  -18.5000 -0.5000 20.8553
v  18.5000 -0.5000 20.8553
v  -18.5000 0.5000 20.8553
v  18.5000 0.5000 20.8553
# 8 vertices

g Box005
f 17 19 20 
f 20 18 17 
f 21 22 24 
f 24 23 21 
f 17 18 22 
f 22 21 17 
f 18 20 24 
f 24 22 18 
f 20 19 23 
f 23 24 20 
f 19 17 21 
f 21 23 19 
# 12 faces

