# NV = 110 NF = 216
v 0.260823 0.147377 0.431136
v 0.261307 0.14466 0.430787
v 0.262704 0.14224 0.43049
v 0.264856 0.140466 0.430248
v 0.267491 0.139498 0.43014
v 0.270287 0.139498 0.43014
v 0.272923 0.140466 0.430248
v 0.275073 0.14224 0.43049
v 0.276472 0.14466 0.430787
v 0.276956 0.147377 0.431136
v 0.276472 0.15012 0.431486
v 0.275073 0.15254 0.431781
v 0.272923 0.154314 0.431997
v 0.270287 0.155255 0.432131
v 0.267491 0.155255 0.432131
v 0.264856 0.154314 0.431997
v 0.262704 0.15254 0.431781
v 0.261307 0.15012 0.431486
v 0.260823 0.133314 0.543154
v 0.261307 0.130571 0.542806
v 0.262704 0.128178 0.54251
v 0.264856 0.126376 0.542294
v 0.267491 0.125436 0.54216
v 0.270287 0.125436 0.54216
v 0.272923 0.126376 0.542294
v 0.275073 0.128178 0.54251
v 0.276472 0.130571 0.542806
v 0.276956 0.133314 0.543154
v 0.276472 0.136056 0.543504
v 0.275073 0.138449 0.543801
v 0.272923 0.140251 0.544016
v 0.270287 0.141192 0.54415
v 0.267491 0.141192 0.54415
v 0.264856 0.140251 0.544016
v 0.262704 0.138449 0.543801
v 0.261307 0.136056 0.543504
v 0.268889 0.133314 0.543154
v 0.268889 0.203655 -0.01694
v 0.260823 0.203655 -0.01694
v 0.261307 0.200912 -0.0172897
v 0.262704 0.19852 -0.0176128
v 0.264856 0.196718 -0.0178281
v 0.267491 0.195777 -0.0179358
v 0.270287 0.195777 -0.0179358
v 0.272923 0.196718 -0.0178281
v 0.275073 0.19852 -0.0176128
v 0.276472 0.200912 -0.0172897
v 0.276956 0.203655 -0.01694
v 0.276472 0.206398 -0.0166181
v 0.275073 0.208819 -0.0162951
v 0.272923 0.210592 -0.0160797
v 0.270287 0.211533 -0.015972
v 0.267491 0.211533 -0.015972
v 0.264856 0.210592 -0.0160797
v 0.262704 0.208819 -0.0162951
v 0.261307 0.206398 -0.0166181
v 0.260823 0.189592 0.0950782
v 0.261307 0.186849 0.0947285
v 0.262704 0.184456 0.0944332
v 0.264856 0.182654 0.0941912
v 0.267491 0.181714 0.0940835
v 0.270287 0.181714 0.0940835
v 0.272923 0.182654 0.0941912
v 0.275073 0.184456 0.0944332
v 0.276472 0.186849 0.0947285
v 0.276956 0.189592 0.0950782
v 0.276472 0.192334 0.0954012
v 0.275073 0.194728 0.0957243
v 0.272923 0.196529 0.0959385
v 0.270287 0.197471 0.0960462
v 0.267491 0.197471 0.0960462
v 0.264856 0.196529 0.0959385
v 0.262704 0.194728 0.0957243
v 0.261307 0.192334 0.0954012
v 0.260823 0.17553 0.207098
v 0.261307 0.172787 0.206748
v 0.262704 0.170367 0.206453
v 0.264856 0.168592 0.206211
v 0.267491 0.16765 0.206103
v 0.270287 0.16765 0.206103
v 0.272923 0.168592 0.206211
v 0.275073 0.170367 0.206453
v 0.276472 0.172787 0.206748
v 0.276956 0.17553 0.207098
v 0.276472 0.178272 0.207421
v 0.275073 0.180665 0.207742
v 0.272923 0.182467 0.207958
v 0.270287 0.183408 0.208066
v 0.267491 0.183408 0.208066
v 0.264856 0.182467 0.207958
v 0.262704 0.180665 0.207742
v 0.261307 0.178272 0.207421
v 0.260823 0.161466 0.319117
v 0.261307 0.158724 0.318767
v 0.262704 0.156304 0.318472
v 0.264856 0.154529 0.31823
v 0.267491 0.153561 0.318122
v 0.270287 0.153561 0.318122
v 0.272923 0.154529 0.31823
v 0.275073 0.156304 0.318472
v 0.276472 0.158724 0.318767
v 0.276956 0.161466 0.319117
v 0.276472 0.164182 0.319467
v 0.275073 0.166602 0.319762
v 0.272923 0.168376 0.319977
v 0.270287 0.169344 0.320112
v 0.267491 0.169344 0.320112
v 0.264856 0.168376 0.319977
v 0.262704 0.166602 0.319762
v 0.261307 0.164182 0.319467
f 38 40 39 
f 38 41 40 
f 38 42 41 
f 38 43 42 
f 38 44 43 
f 38 45 44 
f 38 46 45 
f 38 47 46 
f 38 48 47 
f 38 49 48 
f 38 50 49 
f 38 51 50 
f 38 52 51 
f 38 53 52 
f 38 54 53 
f 38 55 54 
f 38 56 55 
f 38 39 56 
f 39 58 57 
f 39 40 58 
f 40 59 58 
f 40 41 59 
f 41 60 59 
f 41 42 60 
f 42 61 60 
f 42 43 61 
f 43 62 61 
f 43 44 62 
f 44 63 62 
f 44 45 63 
f 45 64 63 
f 45 46 64 
f 46 65 64 
f 46 47 65 
f 47 66 65 
f 47 48 66 
f 48 67 66 
f 48 49 67 
f 49 68 67 
f 49 50 68 
f 50 69 68 
f 50 51 69 
f 51 70 69 
f 51 52 70 
f 52 71 70 
f 52 53 71 
f 53 72 71 
f 53 54 72 
f 54 73 72 
f 54 55 73 
f 55 74 73 
f 55 56 74 
f 56 57 74 
f 56 39 57 
f 57 76 75 
f 57 58 76 
f 58 77 76 
f 58 59 77 
f 59 78 77 
f 59 60 78 
f 60 79 78 
f 60 61 79 
f 61 80 79 
f 61 62 80 
f 62 81 80 
f 62 63 81 
f 63 82 81 
f 63 64 82 
f 64 83 82 
f 64 65 83 
f 65 84 83 
f 65 66 84 
f 66 85 84 
f 66 67 85 
f 67 86 85 
f 67 68 86 
f 68 87 86 
f 68 69 87 
f 69 88 87 
f 69 70 88 
f 70 89 88 
f 70 71 89 
f 71 90 89 
f 71 72 90 
f 72 91 90 
f 72 73 91 
f 73 92 91 
f 73 74 92 
f 74 75 92 
f 74 57 75 
f 75 94 93 
f 75 76 94 
f 76 95 94 
f 76 77 95 
f 77 96 95 
f 77 78 96 
f 78 97 96 
f 78 79 97 
f 79 98 97 
f 79 80 98 
f 80 99 98 
f 80 81 99 
f 81 100 99 
f 81 82 100 
f 82 101 100 
f 82 83 101 
f 83 102 101 
f 83 84 102 
f 84 103 102 
f 84 85 103 
f 85 104 103 
f 85 86 104 
f 86 105 104 
f 86 87 105 
f 87 106 105 
f 87 88 106 
f 88 107 106 
f 88 89 107 
f 89 108 107 
f 89 90 108 
f 90 109 108 
f 90 91 109 
f 91 110 109 
f 91 92 110 
f 92 93 110 
f 92 75 93 
f 93 2 1 
f 93 94 2 
f 94 3 2 
f 94 95 3 
f 95 4 3 
f 95 96 4 
f 96 5 4 
f 96 97 5 
f 97 6 5 
f 97 98 6 
f 98 7 6 
f 98 99 7 
f 99 8 7 
f 99 100 8 
f 100 9 8 
f 100 101 9 
f 101 10 9 
f 101 102 10 
f 102 11 10 
f 102 103 11 
f 103 12 11 
f 103 104 12 
f 104 13 12 
f 104 105 13 
f 105 14 13 
f 105 106 14 
f 106 15 14 
f 106 107 15 
f 107 16 15 
f 107 108 16 
f 108 17 16 
f 108 109 17 
f 109 18 17 
f 109 110 18 
f 110 1 18 
f 110 93 1 
f 1 20 19 
f 1 2 20 
f 2 21 20 
f 2 3 21 
f 3 22 21 
f 3 4 22 
f 4 23 22 
f 4 5 23 
f 5 24 23 
f 5 6 24 
f 6 25 24 
f 6 7 25 
f 7 26 25 
f 7 8 26 
f 8 27 26 
f 8 9 27 
f 9 28 27 
f 9 10 28 
f 10 29 28 
f 10 11 29 
f 11 30 29 
f 11 12 30 
f 12 31 30 
f 12 13 31 
f 13 32 31 
f 13 14 32 
f 14 33 32 
f 14 15 33 
f 15 34 33 
f 15 16 34 
f 16 35 34 
f 16 17 35 
f 17 36 35 
f 17 18 36 
f 18 19 36 
f 18 1 19 
f 37 19 20 
f 37 20 21 
f 37 21 22 
f 37 22 23 
f 37 23 24 
f 37 24 25 
f 37 25 26 
f 37 26 27 
f 37 27 28 
f 37 28 29 
f 37 29 30 
f 37 30 31 
f 37 31 32 
f 37 32 33 
f 37 33 34 
f 37 34 35 
f 37 35 36 
f 37 36 19 
