# NV = 110 NF = 216
v 0.192847 0.224091 0.614223
v 0.193331 0.226726 0.613362
v 0.192847 0.229334 0.612502
v 0.191449 0.231646 0.611748
v 0.189297 0.233368 0.611184
v 0.186663 0.234281 0.610861
v 0.183867 0.234281 0.610861
v 0.181231 0.233368 0.611184
v 0.17908 0.231646 0.611748
v 0.177681 0.229334 0.612502
v 0.177197 0.254636 0.698062
v 0.177681 0.252028 0.698923
v 0.17908 0.249716 0.699702
v 0.181231 0.247994 0.700267
v 0.183867 0.247107 0.700562
v 0.186663 0.247107 0.700562
v 0.189297 0.247994 0.700267
v 0.191449 0.249716 0.699702
v 0.192847 0.252028 0.698923
v 0.193331 0.254636 0.698062
v 0.192847 0.257271 0.697202
v 0.191449 0.259558 0.696448
v 0.189297 0.261278 0.695884
v 0.186663 0.262192 0.695588
v 0.183867 0.262192 0.695588
v 0.181231 0.261278 0.695884
v 0.17908 0.259558 0.696448
v 0.177681 0.257271 0.697202
v 0.177197 0.282547 0.782789
v 0.177681 0.279938 0.783649
v 0.17908 0.277626 0.784402
v 0.181231 0.275932 0.784967
v 0.183867 0.275018 0.785262
v 0.186663 0.275018 0.785262
v 0.189297 0.275932 0.784967
v 0.191449 0.277626 0.784402
v 0.192847 0.279938 0.783649
v 0.193331 0.282547 0.782789
v 0.192847 0.285182 0.781929
v 0.191449 0.287468 0.781148
v 0.189297 0.289189 0.780584
v 0.186663 0.290102 0.780288
v 0.183867 0.290102 0.780288
v 0.181231 0.289189 0.780584
v 0.17908 0.287468 0.781148
v 0.177681 0.285182 0.781929
v 0.177197 0.310485 0.867489
v 0.177681 0.307851 0.868349
v 0.17908 0.305537 0.869128
v 0.181231 0.303843 0.869667
v 0.183867 0.302928 0.86999
v 0.186663 0.302928 0.86999
v 0.189297 0.303843 0.869667
v 0.191449 0.305537 0.869128
v 0.192847 0.307851 0.868349
v 0.193331 0.310485 0.867489
v 0.192847 0.313092 0.866629
v 0.191449 0.315406 0.865876
v 0.189297 0.3171 0.865311
v 0.186663 0.318013 0.865014
v 0.183867 0.318013 0.865014
v 0.181231 0.3171 0.865311
v 0.17908 0.315406 0.865876
v 0.177681 0.313092 0.866629
v 0.177197 0.338396 0.952216
v 0.177681 0.33576 0.953076
v 0.17908 0.333475 0.953829
v 0.181231 0.331754 0.954394
v 0.183867 0.330841 0.95469
v 0.186663 0.330841 0.95469
v 0.189297 0.331754 0.954394
v 0.191449 0.333475 0.953829
v 0.192847 0.33576 0.953076
v 0.193331 0.338396 0.952216
v 0.192847 0.341006 0.951329
v 0.191449 0.343317 0.950576
v 0.189297 0.345039 0.950011
v 0.186663 0.345924 0.949715
v 0.183867 0.345924 0.949715
v 0.181231 0.345039 0.950011
v 0.17908 0.343317 0.950576
v 0.177681 0.341006 0.951329
v 0.185264 0.338396 0.952216
v 0.185264 0.198816 0.528662
v 0.177197 0.198816 0.528662
v 0.177681 0.19618 0.529523
v 0.17908 0.193894 0.530275
v 0.181231 0.192173 0.53084
v 0.183867 0.19126 0.531136
v 0.186663 0.19126 0.531136
v 0.189297 0.192173 0.53084
v 0.191449 0.193894 0.530275
v 0.192847 0.19618 0.529523
v 0.193331 0.198816 0.528662
v 0.192847 0.201424 0.527774
v 0.191449 0.203736 0.527022
v 0.189297 0.20543 0.526456
v 0.186663 0.206344 0.526161
v 0.183867 0.206344 0.526161
v 0.181231 0.20543 0.526456
v 0.17908 0.203736 0.527022
v 0.177681 0.201424 0.527774
v 0.177197 0.226726 0.613362
v 0.177681 0.224091 0.614223
v 0.17908 0.221805 0.614975
v 0.181231 0.220084 0.61554
v 0.183867 0.21917 0.615836
v 0.186663 0.21917 0.615836
v 0.189297 0.220084 0.61554
v 0.191449 0.221805 0.614975
f 84 86 85 
f 84 87 86 
f 84 88 87 
f 84 89 88 
f 84 90 89 
f 84 91 90 
f 84 92 91 
f 84 93 92 
f 84 94 93 
f 84 95 94 
f 84 96 95 
f 84 97 96 
f 84 98 97 
f 84 99 98 
f 84 100 99 
f 84 101 100 
f 84 102 101 
f 84 85 102 
f 85 104 103 
f 85 86 104 
f 86 105 104 
f 86 87 105 
f 87 106 105 
f 87 88 106 
f 88 107 106 
f 88 89 107 
f 89 108 107 
f 89 90 108 
f 90 109 108 
f 90 91 109 
f 91 110 109 
f 91 92 110 
f 92 1 110 
f 92 93 1 
f 93 2 1 
f 93 94 2 
f 94 3 2 
f 94 95 3 
f 95 4 3 
f 95 96 4 
f 96 5 4 
f 96 97 5 
f 97 6 5 
f 97 98 6 
f 98 7 6 
f 98 99 7 
f 99 8 7 
f 99 100 8 
f 100 9 8 
f 100 101 9 
f 101 10 9 
f 101 102 10 
f 102 103 10 
f 102 85 103 
f 103 12 11 
f 103 104 12 
f 104 13 12 
f 104 105 13 
f 105 14 13 
f 105 106 14 
f 106 15 14 
f 106 107 15 
f 107 16 15 
f 107 108 16 
f 108 17 16 
f 108 109 17 
f 109 18 17 
f 109 110 18 
f 110 19 18 
f 110 1 19 
f 1 20 19 
f 1 2 20 
f 2 21 20 
f 2 3 21 
f 3 22 21 
f 3 4 22 
f 4 23 22 
f 4 5 23 
f 5 24 23 
f 5 6 24 
f 6 25 24 
f 6 7 25 
f 7 26 25 
f 7 8 26 
f 8 27 26 
f 8 9 27 
f 9 28 27 
f 9 10 28 
f 10 11 28 
f 10 103 11 
f 11 30 29 
f 11 12 30 
f 12 31 30 
f 12 13 31 
f 13 32 31 
f 13 14 32 
f 14 33 32 
f 14 15 33 
f 15 34 33 
f 15 16 34 
f 16 35 34 
f 16 17 35 
f 17 36 35 
f 17 18 36 
f 18 37 36 
f 18 19 37 
f 19 38 37 
f 19 20 38 
f 20 39 38 
f 20 21 39 
f 21 40 39 
f 21 22 40 
f 22 41 40 
f 22 23 41 
f 23 42 41 
f 23 24 42 
f 24 43 42 
f 24 25 43 
f 25 44 43 
f 25 26 44 
f 26 45 44 
f 26 27 45 
f 27 46 45 
f 27 28 46 
f 28 29 46 
f 28 11 29 
f 29 48 47 
f 29 30 48 
f 30 49 48 
f 30 31 49 
f 31 50 49 
f 31 32 50 
f 32 51 50 
f 32 33 51 
f 33 52 51 
f 33 34 52 
f 34 53 52 
f 34 35 53 
f 35 54 53 
f 35 36 54 
f 36 55 54 
f 36 37 55 
f 37 56 55 
f 37 38 56 
f 38 57 56 
f 38 39 57 
f 39 58 57 
f 39 40 58 
f 40 59 58 
f 40 41 59 
f 41 60 59 
f 41 42 60 
f 42 61 60 
f 42 43 61 
f 43 62 61 
f 43 44 62 
f 44 63 62 
f 44 45 63 
f 45 64 63 
f 45 46 64 
f 46 47 64 
f 46 29 47 
f 47 66 65 
f 47 48 66 
f 48 67 66 
f 48 49 67 
f 49 68 67 
f 49 50 68 
f 50 69 68 
f 50 51 69 
f 51 70 69 
f 51 52 70 
f 52 71 70 
f 52 53 71 
f 53 72 71 
f 53 54 72 
f 54 73 72 
f 54 55 73 
f 55 74 73 
f 55 56 74 
f 56 75 74 
f 56 57 75 
f 57 76 75 
f 57 58 76 
f 58 77 76 
f 58 59 77 
f 59 78 77 
f 59 60 78 
f 60 79 78 
f 60 61 79 
f 61 80 79 
f 61 62 80 
f 62 81 80 
f 62 63 81 
f 63 82 81 
f 63 64 82 
f 64 65 82 
f 64 47 65 
f 83 65 66 
f 83 66 67 
f 83 67 68 
f 83 68 69 
f 83 69 70 
f 83 70 71 
f 83 71 72 
f 83 72 73 
f 83 73 74 
f 83 74 75 
f 83 75 76 
f 83 76 77 
f 83 77 78 
f 83 78 79 
f 83 79 80 
f 83 80 81 
f 83 81 82 
f 83 82 65 
