# NV = 110 NF = 216
v 0.268889 -0.308982 -0.0184731
v 0.260823 -0.308982 -0.0184731
v 0.261307 -0.311752 -0.0182577
v 0.262704 -0.31417 -0.0180968
v 0.264856 -0.315971 -0.0179624
v 0.267491 -0.316914 -0.017908
v 0.270287 -0.316914 -0.017908
v 0.272923 -0.315971 -0.0179624
v 0.275073 -0.31417 -0.0180968
v 0.276472 -0.311752 -0.0182577
v 0.276956 -0.308982 -0.0184731
v 0.276472 -0.306239 -0.0186618
v 0.275073 -0.303819 -0.0188228
v 0.272923 -0.302016 -0.0189571
v 0.270287 -0.301076 -0.0190115
v 0.267491 -0.301076 -0.0190115
v 0.264856 -0.302016 -0.0189571
v 0.262704 -0.303819 -0.0188228
v 0.261307 -0.306239 -0.0186618
v 0.260823 -0.301104 0.0941646
v 0.261307 -0.303846 0.0943522
v 0.262704 -0.306266 0.0945143
v 0.264856 -0.308066 0.0946486
v 0.267491 -0.309009 0.0947285
v 0.270287 -0.309009 0.0947285
v 0.272923 -0.308066 0.0946486
v 0.275073 -0.306266 0.0945143
v 0.276472 -0.303846 0.0943522
v 0.276956 -0.301104 0.0941646
v 0.276472 -0.298333 0.0939759
v 0.275073 -0.295914 0.0937883
v 0.272923 -0.294111 0.0936806
v 0.270287 -0.293171 0.0935995
v 0.267491 -0.293171 0.0935995
v 0.264856 -0.294111 0.0936806
v 0.262704 -0.295914 0.0937883
v 0.261307 -0.298333 0.0939759
v 0.260823 -0.293198 0.206774
v 0.261307 -0.295939 0.20699
v 0.262704 -0.298359 0.207152
v 0.264856 -0.30016 0.207286
v 0.267491 -0.301104 0.20734
v 0.270287 -0.301104 0.20734
v 0.272923 -0.30016 0.207286
v 0.275073 -0.298359 0.207152
v 0.276472 -0.295939 0.20699
v 0.276956 -0.293198 0.206774
v 0.276472 -0.290428 0.206587
v 0.275073 -0.288009 0.206426
v 0.272923 -0.286206 0.20629
v 0.270287 -0.285266 0.206237
v 0.267491 -0.285266 0.206237
v 0.264856 -0.286206 0.20629
v 0.262704 -0.288009 0.206426
v 0.261307 -0.290428 0.206587
v 0.260823 -0.285291 0.319412
v 0.261307 -0.288036 0.319601
v 0.262704 -0.290456 0.319762
v 0.264856 -0.292256 0.319896
v 0.267491 -0.293224 0.319977
v 0.270287 -0.293224 0.319977
v 0.272923 -0.292256 0.319896
v 0.275073 -0.290456 0.319762
v 0.276472 -0.288036 0.319601
v 0.276956 -0.285291 0.319412
v 0.276472 -0.282523 0.319225
v 0.275073 -0.280103 0.319036
v 0.272923 -0.278328 0.318928
v 0.270287 -0.277361 0.318848
v 0.267491 -0.277361 0.318848
v 0.264856 -0.278328 0.318928
v 0.262704 -0.280103 0.319036
v 0.261307 -0.282523 0.319225
v 0.260823 -0.277388 0.432023
v 0.261307 -0.280131 0.432239
v 0.262704 -0.28255 0.4324
v 0.264856 -0.284351 0.432534
v 0.267491 -0.28532 0.432588
v 0.270287 -0.28532 0.432588
v 0.272923 -0.284351 0.432534
v 0.275073 -0.28255 0.4324
v 0.276472 -0.280131 0.432239
v 0.276956 -0.277388 0.432023
v 0.276472 -0.274643 0.431834
v 0.275073 -0.272223 0.431674
v 0.272923 -0.270423 0.431539
v 0.270287 -0.269455 0.431486
v 0.267491 -0.269455 0.431486
v 0.264856 -0.270423 0.431539
v 0.262704 -0.272223 0.431674
v 0.261307 -0.274643 0.431834
v 0.260823 -0.269483 0.544661
v 0.261307 -0.272223 0.544849
v 0.262704 -0.274643 0.545011
v 0.264856 -0.276445 0.545145
v 0.267491 -0.277413 0.545226
v 0.270287 -0.277413 0.545226
v 0.272923 -0.276445 0.545145
v 0.275073 -0.274643 0.545011
v 0.276472 -0.272223 0.544849
v 0.276956 -0.269483 0.544661
v 0.276472 -0.26674 0.544472
v 0.275073 -0.264318 0.544311
v 0.272923 -0.262517 0.544177
v 0.270287 -0.261548 0.544096
v 0.267491 -0.261548 0.544096
v 0.264856 -0.262517 0.544177
v 0.262704 -0.264318 0.544311
v 0.261307 -0.26674 0.544472
v 0.268889 -0.269483 0.544661
f 1 3 2 
f 1 4 3 
f 1 5 4 
f 1 6 5 
f 1 7 6 
f 1 8 7 
f 1 9 8 
f 1 10 9 
f 1 11 10 
f 1 12 11 
f 1 13 12 
f 1 14 13 
f 1 15 14 
f 1 16 15 
f 1 17 16 
f 1 18 17 
f 1 19 18 
f 1 2 19 
f 2 21 20 
f 2 3 21 
f 3 22 21 
f 3 4 22 
f 4 23 22 
f 4 5 23 
f 5 24 23 
f 5 6 24 
f 6 25 24 
f 6 7 25 
f 7 26 25 
f 7 8 26 
f 8 27 26 
f 8 9 27 
f 9 28 27 
f 9 10 28 
f 10 29 28 
f 10 11 29 
f 11 30 29 
f 11 12 30 
f 12 31 30 
f 12 13 31 
f 13 32 31 
f 13 14 32 
f 14 33 32 
f 14 15 33 
f 15 34 33 
f 15 16 34 
f 16 35 34 
f 16 17 35 
f 17 36 35 
f 17 18 36 
f 18 37 36 
f 18 19 37 
f 19 20 37 
f 19 2 20 
f 20 39 38 
f 20 21 39 
f 21 40 39 
f 21 22 40 
f 22 41 40 
f 22 23 41 
f 23 42 41 
f 23 24 42 
f 24 43 42 
f 24 25 43 
f 25 44 43 
f 25 26 44 
f 26 45 44 
f 26 27 45 
f 27 46 45 
f 27 28 46 
f 28 47 46 
f 28 29 47 
f 29 48 47 
f 29 30 48 
f 30 49 48 
f 30 31 49 
f 31 50 49 
f 31 32 50 
f 32 51 50 
f 32 33 51 
f 33 52 51 
f 33 34 52 
f 34 53 52 
f 34 35 53 
f 35 54 53 
f 35 36 54 
f 36 55 54 
f 36 37 55 
f 37 38 55 
f 37 20 38 
f 38 57 56 
f 38 39 57 
f 39 58 57 
f 39 40 58 
f 40 59 58 
f 40 41 59 
f 41 60 59 
f 41 42 60 
f 42 61 60 
f 42 43 61 
f 43 62 61 
f 43 44 62 
f 44 63 62 
f 44 45 63 
f 45 64 63 
f 45 46 64 
f 46 65 64 
f 46 47 65 
f 47 66 65 
f 47 48 66 
f 48 67 66 
f 48 49 67 
f 49 68 67 
f 49 50 68 
f 50 69 68 
f 50 51 69 
f 51 70 69 
f 51 52 70 
f 52 71 70 
f 52 53 71 
f 53 72 71 
f 53 54 72 
f 54 73 72 
f 54 55 73 
f 55 56 73 
f 55 38 56 
f 56 75 74 
f 56 57 75 
f 57 76 75 
f 57 58 76 
f 58 77 76 
f 58 59 77 
f 59 78 77 
f 59 60 78 
f 60 79 78 
f 60 61 79 
f 61 80 79 
f 61 62 80 
f 62 81 80 
f 62 63 81 
f 63 82 81 
f 63 64 82 
f 64 83 82 
f 64 65 83 
f 65 84 83 
f 65 66 84 
f 66 85 84 
f 66 67 85 
f 67 86 85 
f 67 68 86 
f 68 87 86 
f 68 69 87 
f 69 88 87 
f 69 70 88 
f 70 89 88 
f 70 71 89 
f 71 90 89 
f 71 72 90 
f 72 91 90 
f 72 73 91 
f 73 74 91 
f 73 56 74 
f 74 93 92 
f 74 75 93 
f 75 94 93 
f 75 76 94 
f 76 95 94 
f 76 77 95 
f 77 96 95 
f 77 78 96 
f 78 97 96 
f 78 79 97 
f 79 98 97 
f 79 80 98 
f 80 99 98 
f 80 81 99 
f 81 100 99 
f 81 82 100 
f 82 101 100 
f 82 83 101 
f 83 102 101 
f 83 84 102 
f 84 103 102 
f 84 85 103 
f 85 104 103 
f 85 86 104 
f 86 105 104 
f 86 87 105 
f 87 106 105 
f 87 88 106 
f 88 107 106 
f 88 89 107 
f 89 108 107 
f 89 90 108 
f 90 109 108 
f 90 91 109 
f 91 92 109 
f 91 74 92 
f 110 92 93 
f 110 93 94 
f 110 94 95 
f 110 95 96 
f 110 96 97 
f 110 97 98 
f 110 98 99 
f 110 99 100 
f 110 100 101 
f 110 101 102 
f 110 102 103 
f 110 103 104 
f 110 104 105 
f 110 105 106 
f 110 106 107 
f 110 107 108 
f 110 108 109 
f 110 109 92 
