# NV = 24 NF = 44
v -1.02452 0.553462 -0.0237033
v -1.04102 0.557883 0.768033
v -1.05752 0.553462 0.767536
v -1.0696 0.541378 0.766669
v -1.07402 0.52488 0.765674
v -1.0696 0.508375 0.764814
v -1.05753 0.496292 0.764316
v -1.04102 0.491871 0.764316
v -1.02452 0.496292 0.764819
v -1.01244 0.50837 0.76568
v -1.00801 0.524874 0.766675
v -1.01243 0.541378 0.767536
v -1.02452 0.553462 0.768033
v -1.04102 0.557883 -0.0237033
v -1.05752 0.553462 -0.0237033
v -1.0696 0.541378 -0.0237033
v -1.07402 0.52488 -0.0237033
v -1.0696 0.508375 -0.0237033
v -1.05753 0.496292 -0.0237033
v -1.04102 0.491871 -0.0237033
v -1.02452 0.496292 -0.0237033
v -1.01244 0.50837 -0.0237033
v -1.00801 0.524874 -0.0237033
v -1.01243 0.541378 -0.0237033
f 2 15 3 
f 15 2 14 
f 3 16 4 
f 16 3 15 
f 4 17 5 
f 17 4 16 
f 5 18 6 
f 18 5 17 
f 6 19 7 
f 19 6 18 
f 7 20 8 
f 20 7 19 
f 8 21 9 
f 21 8 20 
f 9 22 10 
f 22 9 21 
f 10 23 11 
f 23 10 22 
f 11 24 12 
f 24 11 23 
f 12 1 13 
f 1 12 24 
f 13 14 2 
f 14 13 1 
f 16 15 14 
f 23 14 24 
f 22 14 23 
f 21 14 22 
f 20 14 21 
f 19 14 20 
f 18 14 19 
f 17 14 18 
f 17 16 14 
f 1 24 14 
f 7 5 6 
f 7 8 9 
f 7 9 5 
f 4 5 3 
f 11 13 9 
f 11 12 13 
f 3 13 2 
f 13 5 9 
f 11 9 10 
f 13 3 5 
