# NV = 231 NF = 458
v 1.10822 -0.078674 0.96916
v 1.09617 -0.230718 0.96916
v 1.07147 -0.382762 0.96916
v 1.03393 -0.534806 0.96916
v -1.03372 -0.534806 0.96916
v -1.07103 -0.382762 0.96916
v -1.09592 -0.230718 0.96916
v -1.10836 -0.078674 0.96916
v -1.10836 0.07337 0.96916
v -1.09592 0.225414 0.96916
v -1.07103 0.377458 0.96916
v -1.03372 0.529502 0.96916
v -1.08722 0.380761 0.973581
v -1.04666 0.546001 0.973581
v 1.04693 0.546006 0.973581
v -1.05613 0.558084 0.985664
v 1.05645 0.558084 0.985664
v 1.08668 0.380716 0.973581
v 1.09853 0.383097 0.985664
v 1.11158 0.22742 0.973581
v 1.12358 0.228896 0.985664
v 1.12434 0.0740742 0.973581
v 1.13641 0.074594 0.985664
v 1.12473 -0.0793055 0.973581
v 1.13681 -0.0797694 0.985664
v 1.11257 -0.232696 0.973581
v 1.12457 -0.234144 0.985664
v 1.08765 -0.386065 0.973581
v 1.09949 -0.388485 0.985664
v 1.04685 -0.55131 0.973581
v 1.05631 -0.563388 0.985664
v -1.04666 -0.55131 0.973581
v -1.05613 -0.563388 0.985664
v -1.08722 -0.386065 0.973581
v -1.09906 -0.388485 0.985664
v -1.11231 -0.232724 0.973581
v -1.12431 -0.234194 0.985664
v -1.12486 -0.0793502 0.973581
v -1.13694 -0.0798421 0.985664
v -1.12486 0.0740407 0.973581
v -1.13694 0.0745381 0.985664
v -1.11231 0.22742 0.973581
v -1.12431 0.22889 0.985664
v -1.09906 0.383181 0.985664
v -1.12871 0.229432 1.00217
v -1.1034 0.384064 1.00217
v -1.0596 0.562505 1.00217
v -1.09906 0.383181 1.01867
v -1.05613 0.558084 1.01867
v 1.05994 0.562505 1.00217
v 1.05645 0.558084 1.01867
v 1.10287 0.383969 1.00217
v 1.09853 0.383097 1.01867
v 1.12798 0.229432 1.00217
v 1.12358 0.228896 1.01867
v 1.14084 0.074784 1.00217
v 1.13641 0.074594 1.01867
v 1.14123 -0.0799371 1.00217
v 1.13681 -0.0797694 1.01867
v 1.12896 -0.234675 1.00217
v 1.12457 -0.234144 1.01867
v 1.10383 -0.389374 1.00217
v 1.09949 -0.388485 1.01867
v 1.05978 -0.567809 1.00217
v 1.05631 -0.563388 1.01867
v -1.0596 -0.567809 1.00217
v -1.05613 -0.563388 1.01867
v -1.1034 -0.389374 1.00217
v -1.09906 -0.388485 1.01867
v -1.1287 -0.234736 1.00217
v -1.12431 -0.234194 1.01867
v -1.14136 -0.0800209 1.00217
v -1.13694 -0.0798421 1.01867
v -1.14136 0.0747169 1.00217
v -1.13694 0.0745381 1.01867
v -1.12431 0.22889 1.01867
v -1.12486 0.0740407 1.03075
v -1.11231 0.22742 1.03075
v -1.08722 0.380761 1.03075
v -1.09592 0.225414 1.03517
v -1.07103 0.377458 1.03517
v -1.04666 0.546001 1.03075
v -1.03372 0.529502 1.03517
v 1.04693 0.546006 1.03075
v 1.03393 0.529502 1.03517
v 1.08668 0.380716 1.03075
v 1.07049 0.377458 1.03517
v 1.11158 0.22742 1.03075
v 1.09519 0.225414 1.03517
v 1.12434 0.0740742 1.03075
v 1.10783 0.07337 1.03517
v 1.12473 -0.0793055 1.03075
v 1.10822 -0.078674 1.03517
v 1.11257 -0.232696 1.03075
v 1.09617 -0.230718 1.03517
v 1.08765 -0.386065 1.03075
v 1.07147 -0.382762 1.03517
v 1.04685 -0.55131 1.03075
v 1.03393 -0.534806 1.03517
v -1.04666 -0.55131 1.03075
v -1.03372 -0.534806 1.03517
v -1.08722 -0.386065 1.03075
v -1.07103 -0.382762 1.03517
v -1.11231 -0.232724 1.03075
v -1.09592 -0.230718 1.03517
v -1.12486 -0.0793502 1.03075
v -1.10836 -0.078674 1.03517
v -1.10836 0.07337 1.03517
v -1.09185 -0.0779977 1.03075
v -1.09185 0.0726937 1.03075
v -1.07952 0.223402 1.03075
v -1.07978 0.0722019 1.01867
v -1.06752 0.221932 1.01867
v -1.05485 0.374149 1.03075
v -1.04301 0.371735 1.01867
v -1.02077 0.512997 1.03075
v -1.0113 0.500914 1.01867
v 1.02092 0.512997 1.03075
v 1.0114 0.500914 1.01867
v 1.0543 0.374199 1.03075
v 1.04245 0.371813 1.01867
v 1.0788 0.223402 1.03075
v 1.0668 0.221932 1.01867
v 1.09133 0.0726658 1.03075
v 1.07925 0.072146 1.01867
v 1.09172 -0.0780424 1.03075
v 1.07964 -0.0775785 1.01867
v 1.07977 -0.228739 1.03075
v 1.06776 -0.227292 1.01867
v 1.05528 -0.379453 1.03075
v 1.04344 -0.377033 1.01867
v 1.021 -0.518301 1.03075
v 1.01154 -0.506218 1.01867
v -1.02077 -0.518301 1.03075
v -1.0113 -0.506218 1.01867
v -1.05485 -0.379459 1.03075
v -1.04301 -0.377039 1.01867
v -1.07952 -0.228711 1.03075
v -1.06752 -0.227236 1.01867
v -1.07978 -0.0775059 1.01867
v 1.0279 0.521588 0.962056
v -1.02774 0.521588 0.962056
v -1.06449 0.371824 0.962056
v -1.089 0.222038 0.962056
v -1.10125 0.0722466 0.962056
v -1.10125 -0.0775506 0.962056
v -1.089 -0.227348 0.962056
v -1.06449 -0.377128 0.962056
v -1.02774 -0.526892 0.962056
v 1.02796 -0.526892 0.962056
v 1.06493 -0.377134 0.962056
v 1.08925 -0.227359 0.962056
v 1.10111 -0.0775673 0.962056
v 1.10072 0.0722298 0.962056
v 1.08825 0.222027 0.962056
v 1.06392 0.371813 0.962056
v 1.01041 0.499656 1.01397
v -1.01031 0.499656 1.01397
v 1.02769 0.521588 0.971278
v -1.02751 0.521588 0.971278
v -1.0191 0.463859 1.01397
v -1.04178 0.371478 1.01397
v -1.02774 0.521588 0.971222
v -1.04759 0.440664 0.971222
v -1.06348 0.375915 0.971222
v -1.04874 0.328906 1.01397
v -1.06627 0.221781 1.01397
v -1.06449 0.371824 0.971133
v -1.08859 0.224514 0.971133
v -1.06975 0.179226 1.01397
v -1.07851 0.0721516 1.01397
v -1.089 0.222038 0.971082
v -1.09582 0.1386 0.971082
v -1.10118 0.0730738 0.971082
v -1.07851 -0.0774556 1.01397
v -1.10125 0.0722466 0.971066
v -1.10125 -0.0775506 0.971066
v -1.10118 -0.0783833 0.971082
v -1.07504 -0.12001 1.01397
v -1.06627 -0.227085 1.01397
v -1.09415 -0.164337 0.971082
v -1.089 -0.227348 0.971082
v -1.08859 -0.229818 0.971133
v -1.0593 -0.269662 1.01397
v -1.04178 -0.376787 1.01397
v -1.06449 -0.377128 0.971133
v -1.06348 -0.381219 0.971222
v -1.03299 -0.412579 1.01397
v -1.01031 -0.50496 1.01397
v -1.04358 -0.46235 0.971222
v -1.02774 -0.526892 0.971222
v -1.02751 -0.526892 0.971278
v -0.436003 -0.50496 1.01397
v 1.01056 -0.50496 1.01397
v 1.02773 -0.526892 0.971278
v 1.0194 -0.469163 1.01397
v 1.04221 -0.376782 1.01397
v 1.02796 -0.526892 0.971217
v 1.06392 -0.381219 0.971222
v 1.04912 -0.334221 1.01397
v 1.06651 -0.227141 1.01397
v 1.07794 -0.297037 0.971133
v 1.06493 -0.377134 0.971133
v 1.08885 -0.229835 0.971133
v 1.06989 -0.184592 1.01397
v 1.07838 -0.0775338 1.01397
v 1.08925 -0.227359 0.971077
v 1.10105 -0.0784001 0.971082
v 1.07827 -0.0349789 1.01397
v 1.07799 0.0720901 1.01397
v 1.10089 0.00810689 0.971066
v 1.10111 -0.0775673 0.971066
v 1.10072 0.0722298 0.971066
v 1.10065 0.0730626 0.971082
v 1.07445 0.114667 1.01397
v 1.06555 0.221781 1.01397
v 1.09351 0.15886 0.971088
v 1.08825 0.222027 0.971088
v 1.08785 0.224514 0.971138
v 1.05863 0.264386 1.01397
v 1.04121 0.371567 1.01397
v 1.07421 0.308489 0.971138
v 1.06392 0.371813 0.971138
v 1.06293 0.375938 0.971222
v 1.03261 0.407337 1.01397
v 1.04345 0.456962 0.971222
v 1.0279 0.521588 0.971222
v 1.03393 0.529502 0.96916
v 1.07049 0.377458 0.96916
v 1.09519 0.225414 0.96916
v 1.10783 0.07337 0.96916
f 159 12 228 
f 228 18 229 
f 1 26 2 
f 4 28 30 
f 5 30 32 
f 9 38 40 
f 17 47 50 
f 59 94 61 
f 31 66 33 
f 41 72 74 
f 75 106 77 
f 81 111 114 
f 83 118 85 
f 95 126 128 
f 97 132 99 
f 101 132 134 
f 103 138 105 
f 109 112 110 
f 112 170 113 
f 113 166 115 
f 115 161 117 
f 117 157 119 
f 119 225 121 
f 121 220 123 
f 123 215 125 
f 125 209 127 
f 127 205 129 
f 129 200 131 
f 131 196 133 
f 133 193 135 
f 135 188 137 
f 137 184 139 
f 175 112 140 
f 139 179 140 
f 129 126 127 
f 109 108 107 
f 107 77 106 
f 101 98 99 
f 99 96 97 
f 93 94 92 
f 85 86 84 
f 83 84 82 
f 73 74 72 
f 65 66 64 
f 51 47 49 
f 39 40 38 
f 25 26 24 
f 15 12 14 
f 12 163 164 
f 12 164 11 
f 10 168 169 
f 168 11 165 
f 10 172 173 
f 10 173 9 
f 9 176 177 
f 9 177 8 
f 8 177 178 
f 8 181 7 
f 182 7 181 
f 7 186 6 
f 6 186 187 
f 6 190 5 
f 191 5 190 
f 5 195 4 
f 3 198 199 
f 198 4 195 
f 3 203 202 
f 3 202 2 
f 1 207 208 
f 207 2 204 
f 1 212 211 
f 1 211 231 
f 213 231 211 
f 231 217 230 
f 218 230 217 
f 230 222 229 
f 223 229 222 
f 229 226 228 
f 227 228 226 
f 224 156 226 
f 226 156 141 
f 226 141 227 
f 219 155 222 
f 222 155 156 
f 222 156 223 
f 214 154 217 
f 217 154 155 
f 217 155 218 
f 153 211 212 
f 211 154 213 
f 153 208 152 
f 152 208 207 
f 202 151 204 
f 204 151 207 
f 207 151 152 
f 197 193 196 
f 193 200 188 
f 188 200 185 
f 185 200 201 
f 185 201 205 
f 185 205 184 
f 184 205 180 
f 180 205 206 
f 180 206 209 
f 180 209 179 
f 179 209 175 
f 175 209 210 
f 175 210 215 
f 175 215 171 
f 171 215 170 
f 170 215 216 
f 170 216 220 
f 170 220 167 
f 167 220 166 
f 166 220 221 
f 166 221 225 
f 166 225 162 
f 162 225 161 
f 161 225 157 
f 161 157 158 
f 196 193 194 
f 193 188 189 
f 199 150 203 
f 203 150 151 
f 192 149 195 
f 195 149 198 
f 198 149 150 
f 149 190 187 
f 149 187 186 
f 149 186 148 
f 183 148 186 
f 148 182 147 
f 178 146 181 
f 181 146 147 
f 181 147 182 
f 146 176 145 
f 174 145 176 
f 145 173 172 
f 145 172 144 
f 169 144 172 
f 144 168 143 
f 165 143 168 
f 143 164 142 
f 142 164 163 
f 159 141 160 
f 160 141 163 
f 163 141 142 
f 150 148 151 
f 151 148 152 
f 152 148 147 
f 152 147 153 
f 153 147 146 
f 153 146 154 
f 154 146 145 
f 154 145 155 
f 155 145 144 
f 155 144 143 
f 155 143 156 
f 156 143 142 
f 156 142 141 
f 12 159 160 
f 230 229 18 
f 231 230 20 
f 1 231 22 
f 3 2 26 
f 6 5 32 
f 7 6 34 
f 8 7 36 
f 10 9 40 
f 11 10 42 
f 42 13 11 
f 14 13 44 
f 44 16 14 
f 18 228 15 
f 19 17 50 
f 18 20 230 
f 21 19 52 
f 20 22 231 
f 23 21 54 
f 22 24 1 
f 25 23 56 
f 26 1 24 
f 27 25 58 
f 26 28 3 
f 29 27 60 
f 28 4 3 
f 31 29 62 
f 30 5 4 
f 32 34 6 
f 35 33 66 
f 34 36 7 
f 37 35 68 
f 36 38 8 
f 39 37 70 
f 38 9 8 
f 40 42 10 
f 43 41 74 
f 74 45 43 
f 46 45 76 
f 76 48 46 
f 49 48 79 
f 47 17 16 
f 51 49 82 
f 50 52 19 
f 53 51 84 
f 52 54 21 
f 55 53 86 
f 54 56 23 
f 57 55 88 
f 56 58 25 
f 59 57 90 
f 58 60 27 
f 94 59 92 
f 60 62 29 
f 63 61 94 
f 62 64 31 
f 65 63 96 
f 66 31 64 
f 67 65 98 
f 66 68 35 
f 69 67 100 
f 68 70 37 
f 71 69 102 
f 70 72 39 
f 73 71 104 
f 72 41 39 
f 106 75 73 
f 78 77 108 
f 108 80 78 
f 111 81 80 
f 79 82 49 
f 83 81 114 
f 82 84 51 
f 118 83 116 
f 84 86 53 
f 87 85 118 
f 86 88 55 
f 89 87 120 
f 88 90 57 
f 91 89 122 
f 90 92 59 
f 93 91 124 
f 126 95 93 
f 94 96 63 
f 97 95 128 
f 96 98 65 
f 132 97 130 
f 98 100 67 
f 132 101 99 
f 100 102 69 
f 103 101 134 
f 102 104 71 
f 138 103 136 
f 104 106 73 
f 107 105 138 
f 138 109 107 
f 112 109 140 
f 170 112 171 
f 170 167 113 
f 166 113 167 
f 114 116 83 
f 166 162 115 
f 161 115 162 
f 161 158 117 
f 157 117 158 
f 118 120 87 
f 225 119 157 
f 120 122 89 
f 221 121 225 
f 220 121 221 
f 122 124 91 
f 216 123 220 
f 215 123 216 
f 124 126 93 
f 210 125 215 
f 209 125 210 
f 209 206 127 
f 205 127 206 
f 128 130 97 
f 205 201 129 
f 200 129 201 
f 200 197 131 
f 196 131 197 
f 196 194 133 
f 193 133 194 
f 134 136 103 
f 193 189 135 
f 188 135 189 
f 188 185 137 
f 184 137 185 
f 112 175 171 
f 179 175 140 
f 184 180 139 
f 179 139 180 
f 139 140 109 
f 109 138 139 
f 137 139 138 
f 138 136 137 
f 135 137 136 
f 136 134 135 
f 133 135 134 
f 134 132 133 
f 131 133 132 
f 132 130 131 
f 129 131 130 
f 130 128 129 
f 126 129 128 
f 125 127 126 
f 126 124 125 
f 123 125 124 
f 124 122 123 
f 121 123 122 
f 122 120 121 
f 119 121 120 
f 120 118 119 
f 117 119 118 
f 118 116 117 
f 115 117 116 
f 116 114 115 
f 113 115 114 
f 114 111 113 
f 112 113 111 
f 111 110 112 
f 110 111 80 
f 80 108 110 
f 108 109 110 
f 77 107 108 
f 105 107 106 
f 106 104 105 
f 103 105 104 
f 104 102 103 
f 101 103 102 
f 102 100 101 
f 98 101 100 
f 96 99 98 
f 95 97 96 
f 96 94 95 
f 94 93 95 
f 91 93 92 
f 92 90 91 
f 89 91 90 
f 90 88 89 
f 87 89 88 
f 88 86 87 
f 86 85 87 
f 84 83 85 
f 81 83 82 
f 82 79 81 
f 80 81 79 
f 79 78 80 
f 78 79 48 
f 48 76 78 
f 77 78 76 
f 76 75 77 
f 75 76 45 
f 45 74 75 
f 74 73 75 
f 71 73 72 
f 72 70 71 
f 69 71 70 
f 70 68 69 
f 67 69 68 
f 68 66 67 
f 66 65 67 
f 63 65 64 
f 64 62 63 
f 61 63 62 
f 62 60 61 
f 59 61 60 
f 60 58 59 
f 57 59 58 
f 58 56 57 
f 55 57 56 
f 56 54 55 
f 53 55 54 
f 54 52 53 
f 51 53 52 
f 52 50 51 
f 47 51 50 
f 48 49 47 
f 47 46 48 
f 46 47 16 
f 16 44 46 
f 45 46 44 
f 44 43 45 
f 43 44 13 
f 13 42 43 
f 41 43 42 
f 42 40 41 
f 40 39 41 
f 37 39 38 
f 38 36 37 
f 35 37 36 
f 36 34 35 
f 33 35 34 
f 34 32 33 
f 31 33 32 
f 32 30 31 
f 29 31 30 
f 30 28 29 
f 27 29 28 
f 28 26 27 
f 26 25 27 
f 23 25 24 
f 24 22 23 
f 21 23 22 
f 22 20 21 
f 19 21 20 
f 20 18 19 
f 17 19 18 
f 18 15 17 
f 16 17 15 
f 15 14 16 
f 12 15 228 
f 13 14 12 
f 12 11 13 
f 163 12 160 
f 164 165 11 
f 168 10 11 
f 172 10 169 
f 173 174 9 
f 176 9 174 
f 181 8 178 
f 7 182 183 
f 186 7 183 
f 190 6 187 
f 5 191 192 
f 195 5 192 
f 198 3 4 
f 203 3 199 
f 202 204 2 
f 207 1 2 
f 212 1 208 
f 231 213 214 
f 217 231 214 
f 230 218 219 
f 222 230 219 
f 229 223 224 
f 226 229 224 
f 228 227 159 
f 156 224 223 
f 155 219 218 
f 154 214 213 
f 211 153 154 
f 208 153 212 
f 151 202 203 
f 193 197 200 
f 150 199 198 
f 149 192 191 
f 190 149 191 
f 148 183 182 
f 146 178 177 
f 176 146 177 
f 145 174 173 
f 144 169 168 
f 143 165 164 
f 141 159 227 
f 148 150 149 
