# NV = 38 NF = 72
v 1.028 -0.557017 0.224064
v 1.0372 -0.557017 0.224869
v 1.04556 -0.557017 0.228764
v 1.05209 -0.557017 0.235292
v 1.05598 -0.557017 0.243653
v 1.05679 -0.557017 0.252842
v 1.0544 -0.557017 0.261756
v 1.04911 -0.557017 0.269313
v 1.04155 -0.557017 0.274606
v 1.03264 -0.557017 0.276998
v 1.02345 -0.557017 0.276193
v 1.01509 -0.557017 0.272292
v 1.00856 -0.557017 0.265769
v 1.00466 -0.557017 0.257408
v 1.00386 -0.557017 0.248214
v 1.00625 -0.557017 0.239305
v 1.01154 0.544995 0.231749
v 1.0191 0.544995 0.226456
v 1.02801 0.544995 0.224064
v 1.0372 0.544995 0.224869
v 1.04556 0.544995 0.22877
v 1.05209 0.544995 0.235292
v 1.05599 0.544995 0.243653
v 1.05679 0.544995 0.252847
v 1.05441 0.544995 0.261756
v 1.04911 0.544995 0.269318
v 1.04156 0.544995 0.274611
v 1.03264 0.544995 0.276998
v 1.02345 0.544995 0.276193
v 1.01509 0.544995 0.272297
v 1.00857 0.544995 0.265769
v 1.00466 0.544995 0.257408
v 1.00386 0.544995 0.24822
v 1.00625 0.544995 0.239305
v 1.03033 0.544995 0.250534
v 1.03032 -0.557017 0.250528
v 1.01154 -0.557017 0.231743
v 1.0191 -0.557017 0.22645
f 35 17 34 
f 35 34 33 
f 35 33 32 
f 35 32 31 
f 35 31 30 
f 35 30 29 
f 35 29 28 
f 35 28 27 
f 35 27 26 
f 35 26 25 
f 35 25 24 
f 35 24 23 
f 35 23 22 
f 35 22 21 
f 35 21 20 
f 35 20 19 
f 35 19 18 
f 35 18 17 
f 16 17 37 
f 16 34 17 
f 15 34 16 
f 15 33 34 
f 14 33 15 
f 14 32 33 
f 13 32 14 
f 13 31 32 
f 12 31 13 
f 12 30 31 
f 11 30 12 
f 11 29 30 
f 10 29 11 
f 10 28 29 
f 9 28 10 
f 9 27 28 
f 8 27 9 
f 8 26 27 
f 7 26 8 
f 7 25 26 
f 6 25 7 
f 6 24 25 
f 5 24 6 
f 5 23 24 
f 4 23 5 
f 4 22 23 
f 3 22 4 
f 3 21 22 
f 2 21 3 
f 2 20 21 
f 1 20 2 
f 1 19 20 
f 38 19 1 
f 38 18 19 
f 37 18 38 
f 37 17 18 
f 36 16 37 
f 36 15 16 
f 36 14 15 
f 36 13 14 
f 36 12 13 
f 36 11 12 
f 36 10 11 
f 36 9 10 
f 36 8 9 
f 36 7 8 
f 36 6 7 
f 36 5 6 
f 36 4 5 
f 36 3 4 
f 36 2 3 
f 36 1 2 
f 36 38 1 
f 36 37 38 
