# NV = 38 NF = 72
v -1.03149 -0.557017 0.250528
v -1.01271 -0.557017 0.231743
v -1.02026 -0.557017 0.22645
v -1.02917 -0.557017 0.224064
v -1.03837 -0.557017 0.224869
v -1.04673 -0.557017 0.228764
v -1.05326 -0.557017 0.235292
v -1.05715 -0.557017 0.243653
v -1.05796 -0.557017 0.252842
v -1.05557 -0.557017 0.261756
v -1.05028 -0.557017 0.269313
v -1.04272 -0.557017 0.274606
v -1.03381 -0.557017 0.276998
v -1.02462 -0.557017 0.276193
v -1.01626 -0.557017 0.272292
v -1.00973 -0.557017 0.265769
v -1.00583 -0.557017 0.257408
v -1.00503 -0.557017 0.248214
v -1.00741 -0.557017 0.239305
v -1.01271 0.544995 0.231749
v -1.02026 0.544995 0.226456
v -1.02918 0.544995 0.224064
v -1.03837 0.544995 0.224869
v -1.04673 0.544995 0.22877
v -1.05326 0.544995 0.235292
v -1.05716 0.544995 0.243653
v -1.05796 0.544995 0.252847
v -1.05557 0.544995 0.261756
v -1.05028 0.544995 0.269318
v -1.04273 0.544995 0.274611
v -1.03381 0.544995 0.276998
v -1.02462 0.544995 0.276193
v -1.01626 0.544995 0.272297
v -1.00973 0.544995 0.265769
v -1.00583 0.544995 0.257408
v -1.00503 0.544995 0.24822
v -1.00741 0.544995 0.239305
v -1.0315 0.544995 0.250534
f 37 20 38 
f 36 37 38 
f 35 36 38 
f 34 35 38 
f 33 34 38 
f 32 33 38 
f 31 32 38 
f 30 31 38 
f 29 30 38 
f 28 29 38 
f 27 28 38 
f 26 27 38 
f 25 26 38 
f 24 25 38 
f 23 24 38 
f 22 23 38 
f 21 22 38 
f 20 21 38 
f 2 20 19 
f 20 37 19 
f 19 37 18 
f 37 36 18 
f 18 36 17 
f 36 35 17 
f 17 35 16 
f 35 34 16 
f 16 34 15 
f 34 33 15 
f 15 33 14 
f 33 32 14 
f 14 32 13 
f 32 31 13 
f 13 31 12 
f 31 30 12 
f 12 30 11 
f 30 29 11 
f 11 29 10 
f 29 28 10 
f 10 28 9 
f 28 27 9 
f 9 27 8 
f 27 26 8 
f 8 26 7 
f 26 25 7 
f 7 25 6 
f 25 24 6 
f 6 24 5 
f 24 23 5 
f 5 23 4 
f 23 22 4 
f 4 22 3 
f 22 21 3 
f 3 21 2 
f 21 20 2 
f 2 19 1 
f 19 18 1 
f 18 17 1 
f 17 16 1 
f 16 15 1 
f 15 14 1 
f 14 13 1 
f 13 12 1 
f 12 11 1 
f 11 10 1 
f 10 9 1 
f 9 8 1 
f 8 7 1 
f 7 6 1 
f 6 5 1 
f 5 4 1 
f 4 3 1 
f 3 2 1 
