# NV = 264 NF = 524
v 1.0279 0.488557 0.130705
v 1.04165 0.487187 0.127279
v 1.05172 0.483459 0.117928
v 1.05541 0.478362 0.105152
v 1.05172 0.473265 0.0923752
v 1.04165 0.469531 0.0830192
v 1.0279 0.468168 0.0795987
v 1.01415 0.469531 0.0830192
v 1.00408 0.473265 0.0923752
v 1.00039 0.478362 0.105152
v 1.00408 0.483459 0.117928
v 1.01415 0.487187 0.127279
v 1.0279 0.537321 0.110098
v 1.04165 0.535884 0.106706
v 1.05172 0.531967 0.0974277
v 1.05541 0.526612 0.084763
v 1.05172 0.521258 0.0720927
v 1.04165 0.51734 0.0628205
v 1.0279 0.515909 0.0594279
v 1.01415 0.51734 0.0628205
v 1.00408 0.521258 0.0720927
v 1.00039 0.526612 0.084763
v 1.00408 0.531967 0.0974277
v 1.01415 0.535884 0.106706
v 1.0279 -0.550433 0.103978
v 1.04165 -0.548957 0.100597
v 1.05172 -0.544933 0.0913692
v 1.05541 -0.539439 0.0787604
v 1.05172 -0.533945 0.0661571
v 1.04165 -0.529921 0.056924
v 1.0279 -0.528451 0.0535483
v 1.01415 -0.529921 0.056924
v 1.00408 -0.533945 0.0661571
v 1.00039 -0.539439 0.0787604
v 1.00408 -0.544933 0.0913692
v 1.01415 -0.548957 0.100597
v 1.0279 -0.501898 0.125127
v 1.04165 -0.500495 0.121723
v 1.05172 -0.496661 0.112412
v 1.05541 -0.491424 0.0996913
v 1.05172 -0.486181 0.0869707
v 1.04165 -0.482347 0.0776593
v 1.0279 -0.480944 0.0742556
v 1.01415 -0.482347 0.0776593
v 1.00408 -0.486181 0.0869707
v 1.00039 -0.491424 0.0996913
v 1.00408 -0.496661 0.112412
v 1.01415 -0.500495 0.121723
v 1.0279 -0.452083 0.144482
v 1.04165 -0.450819 0.141017
v 1.05172 -0.447365 0.13156
v 1.05541 -0.442643 0.118638
v 1.05172 -0.437926 0.105716
v 1.04165 -0.434472 0.0962596
v 1.0279 -0.433208 0.0927944
v 1.01415 -0.434472 0.0962596
v 1.00408 -0.437926 0.105716
v 1.00039 -0.442643 0.118638
v 1.00408 -0.447365 0.13156
v 1.01415 -0.450819 0.141017
v 1.0279 -0.401552 0.161785
v 1.04165 -0.400429 0.158275
v 1.05172 -0.39736 0.148679
v 1.05541 -0.393169 0.135578
v 1.05172 -0.388977 0.122478
v 1.04165 -0.385908 0.112887
v 1.0279 -0.384785 0.109377
v 1.01415 -0.385908 0.112887
v 1.00408 -0.388977 0.122478
v 1.00039 -0.393169 0.135578
v 1.00408 -0.39736 0.148679
v 1.01415 -0.400429 0.158275
v 1.0279 -0.350373 0.177021
v 1.04165 -0.349395 0.173472
v 1.05172 -0.346718 0.163764
v 1.05541 -0.343057 0.150501
v 1.05172 -0.339402 0.137244
v 1.04165 -0.336719 0.127536
v 1.0279 -0.335741 0.123981
v 1.01415 -0.336719 0.127536
v 1.00408 -0.339402 0.137244
v 1.00039 -0.343057 0.150501
v 1.00408 -0.346718 0.163764
v 1.01415 -0.349395 0.173472
v 1.0279 -0.298613 0.190183
v 1.04165 -0.297775 0.18659
v 1.05172 -0.295495 0.176786
v 1.05541 -0.292376 0.163389
v 1.05172 -0.289257 0.149987
v 1.04165 -0.286971 0.140184
v 1.0279 -0.286139 0.13659
v 1.01415 -0.286971 0.140184
v 1.00408 -0.289257 0.149987
v 1.00039 -0.292376 0.163389
v 1.00408 -0.295495 0.176786
v 1.01415 -0.297775 0.18659
v 1.0279 -0.246322 0.201238
v 1.04165 -0.245635 0.197617
v 1.05172 -0.243752 0.187724
v 1.05541 -0.241181 0.17421
v 1.05172 -0.238604 0.160701
v 1.04165 -0.236721 0.150809
v 1.0279 -0.236033 0.147187
v 1.01415 -0.236721 0.150809
v 1.00408 -0.238604 0.160701
v 1.00039 -0.241181 0.17421
v 1.00408 -0.243752 0.187724
v 1.01415 -0.245635 0.197617
v 1.0279 -0.193579 0.210175
v 1.04165 -0.193037 0.206531
v 1.05172 -0.191556 0.196566
v 1.05541 -0.189532 0.182962
v 1.05172 -0.187509 0.169359
v 1.04165 -0.186028 0.159393
v 1.0279 -0.185486 0.155749
v 1.01415 -0.186028 0.159393
v 1.00408 -0.187509 0.169359
v 1.00039 -0.189532 0.182962
v 1.00408 -0.191556 0.196566
v 1.01415 -0.193037 0.206531
v 1.0279 -0.140511 0.21696
v 1.04165 -0.14012 0.213299
v 1.05172 -0.139047 0.203284
v 1.05541 -0.137577 0.189608
v 1.05172 -0.136107 0.175931
v 1.04165 -0.135028 0.165921
v 1.0279 -0.134637 0.162255
v 1.01415 -0.135028 0.165921
v 1.00408 -0.136107 0.175931
v 1.00039 -0.137577 0.189608
v 1.00408 -0.139047 0.203284
v 1.01415 -0.14012 0.213299
v 1.0279 -0.0872699 0.221588
v 1.04165 -0.087024 0.21791
v 1.05172 -0.0863589 0.207867
v 1.05541 -0.0854423 0.19414
v 1.05172 -0.0845313 0.180414
v 1.04165 -0.0838606 0.170365
v 1.0279 -0.0836203 0.166687
v 1.01415 -0.0838606 0.170365
v 1.00408 -0.0845313 0.180414
v 1.00039 -0.0854423 0.19414
v 1.00408 -0.0863589 0.207867
v 1.01415 -0.087024 0.21791
v 1.0279 -0.033917 0.224053
v 1.04165 -0.033822 0.22037
v 1.05172 -0.0335593 0.210304
v 1.05541 -0.0332016 0.196549
v 1.05172 -0.0328495 0.1828
v 1.04165 -0.0325868 0.172734
v 1.0279 -0.0324918 0.169051
v 1.01415 -0.0325868 0.172734
v 1.00408 -0.0328495 0.1828
v 1.00039 -0.0332016 0.196549
v 1.00408 -0.0335593 0.210304
v 1.01415 -0.033822 0.22037
v 1.0279 0.0194806 0.224355
v 1.04165 0.0194303 0.220666
v 1.05172 0.0192794 0.2106
v 1.05541 0.0190837 0.196845
v 1.05172 0.0188825 0.183091
v 1.04165 0.0187316 0.173025
v 1.0279 0.0186813 0.169336
v 1.01415 0.0187316 0.173025
v 1.00408 0.0188825 0.183091
v 1.00039 0.0190837 0.196845
v 1.00408 0.0192794 0.2106
v 1.01415 0.0194303 0.220666
v 1.0279 0.0728614 0.222488
v 1.04165 0.0726602 0.21881
v 1.05172 0.0721013 0.208756
v 1.05541 0.0713467 0.195023
v 1.05172 0.0705866 0.181286
v 1.04165 0.0700333 0.171231
v 1.0279 0.0698265 0.167553
v 1.01415 0.0700333 0.171231
v 1.00408 0.0705866 0.181286
v 1.00039 0.0713467 0.195023
v 1.00408 0.0721013 0.208756
v 1.01415 0.0726602 0.21881
v 1.0279 0.126153 0.218464
v 1.04165 0.125801 0.214797
v 1.05172 0.124839 0.204771
v 1.05541 0.123526 0.191078
v 1.05172 0.122213 0.177384
v 1.04165 0.121246 0.167363
v 1.0279 0.120893 0.163691
v 1.01415 0.121246 0.167363
v 1.00408 0.122213 0.177384
v 1.00039 0.123526 0.191078
v 1.00408 0.124839 0.204771
v 1.01415 0.125801 0.214797
v 1.0279 0.179293 0.212271
v 1.04165 0.17879 0.208621
v 1.05172 0.177421 0.198645
v 1.05541 0.175554 0.185019
v 1.05172 0.173687 0.171387
v 1.04165 0.172318 0.161411
v 1.0279 0.171815 0.157761
v 1.01415 0.172318 0.161411
v 1.00408 0.173687 0.171387
v 1.00039 0.175554 0.185019
v 1.00408 0.177421 0.198645
v 1.01415 0.17879 0.208621
v 1.0279 0.232132 0.203932
v 1.04165 0.231484 0.200305
v 1.05172 0.229712 0.19039
v 1.05541 0.227297 0.176848
v 1.05172 0.224877 0.163311
v 1.04165 0.223106 0.153396
v 1.0279 0.222457 0.149769
v 1.01415 0.223106 0.153396
v 1.00408 0.224877 0.163311
v 1.00039 0.227297 0.176848
v 1.00408 0.229712 0.19039
v 1.01415 0.231484 0.200305
v 1.0279 0.28454 0.193464
v 1.04165 0.283747 0.189865
v 1.05172 0.281578 0.180034
v 1.05541 0.27861 0.166598
v 1.05172 0.275643 0.153167
v 1.04165 0.273474 0.143336
v 1.0279 0.272675 0.139737
v 1.01415 0.273474 0.143336
v 1.00408 0.275643 0.153167
v 1.00039 0.27861 0.166603
v 1.00408 0.281578 0.180034
v 1.01415 0.283747 0.189865
v 1.0279 0.336451 0.180889
v 1.04165 0.335512 0.177323
v 1.05172 0.332947 0.167587
v 1.05541 0.329437 0.154291
v 1.05172 0.325927 0.140989
v 1.04165 0.323356 0.131253
v 1.0279 0.322417 0.127687
v 1.01415 0.323356 0.131253
v 1.00408 0.325927 0.140989
v 1.00039 0.329437 0.154291
v 1.00408 0.332947 0.167587
v 1.01415 0.335512 0.177323
v 1.0279 0.387798 0.166223
v 1.04165 0.386719 0.162702
v 1.05172 0.383757 0.153078
v 1.05541 0.37971 0.139932
v 1.05172 0.375664 0.126781
v 1.04165 0.372707 0.117157
v 1.0279 0.371623 0.113636
v 1.01415 0.372707 0.117157
v 1.00408 0.375664 0.126781
v 1.00039 0.37971 0.139932
v 1.00408 0.383757 0.153078
v 1.01415 0.386719 0.162702
v 1.0279 0.438524 0.14949
v 1.04165 0.437294 0.146013
v 1.05172 0.433946 0.136517
v 1.05541 0.429374 0.123545
v 1.05172 0.424797 0.110573
v 1.04165 0.421449 0.101077
v 1.0279 0.420225 0.097601
v 1.01415 0.421449 0.101077
v 1.00408 0.424797 0.110573
v 1.00039 0.429374 0.123545
v 1.00408 0.433946 0.136517
v 1.01415 0.437294 0.146013
f 26 38 25 
f 37 25 38 
f 27 39 26 
f 38 26 39 
f 28 40 27 
f 39 27 40 
f 29 41 28 
f 40 28 41 
f 30 42 29 
f 41 29 42 
f 31 43 30 
f 42 30 43 
f 32 44 31 
f 43 31 44 
f 33 45 32 
f 44 32 45 
f 34 46 33 
f 45 33 46 
f 35 47 34 
f 46 34 47 
f 36 48 35 
f 47 35 48 
f 25 37 36 
f 48 36 37 
f 38 50 37 
f 49 37 50 
f 39 51 38 
f 50 38 51 
f 40 52 39 
f 51 39 52 
f 41 53 40 
f 52 40 53 
f 42 54 41 
f 53 41 54 
f 43 55 42 
f 54 42 55 
f 44 56 43 
f 55 43 56 
f 45 57 44 
f 56 44 57 
f 46 58 45 
f 57 45 58 
f 47 59 46 
f 58 46 59 
f 48 60 47 
f 59 47 60 
f 37 49 48 
f 60 48 49 
f 50 62 49 
f 61 49 62 
f 51 63 50 
f 62 50 63 
f 52 64 51 
f 63 51 64 
f 53 65 52 
f 64 52 65 
f 54 66 53 
f 65 53 66 
f 55 67 54 
f 66 54 67 
f 56 68 55 
f 67 55 68 
f 57 69 56 
f 68 56 69 
f 58 70 57 
f 69 57 70 
f 59 71 58 
f 70 58 71 
f 60 72 59 
f 71 59 72 
f 49 61 60 
f 72 60 61 
f 62 74 61 
f 73 61 74 
f 63 75 62 
f 74 62 75 
f 64 76 63 
f 75 63 76 
f 65 77 64 
f 76 64 77 
f 66 78 65 
f 77 65 78 
f 67 79 66 
f 78 66 79 
f 68 80 67 
f 79 67 80 
f 69 81 68 
f 80 68 81 
f 70 82 69 
f 81 69 82 
f 71 83 70 
f 82 70 83 
f 72 84 71 
f 83 71 84 
f 61 73 72 
f 84 72 73 
f 74 86 73 
f 85 73 86 
f 75 87 74 
f 86 74 87 
f 76 88 75 
f 87 75 88 
f 77 89 76 
f 88 76 89 
f 78 90 77 
f 89 77 90 
f 79 91 78 
f 90 78 91 
f 80 92 79 
f 91 79 92 
f 81 93 80 
f 92 80 93 
f 82 94 81 
f 93 81 94 
f 83 95 82 
f 94 82 95 
f 84 96 83 
f 95 83 96 
f 73 85 84 
f 96 84 85 
f 86 98 85 
f 97 85 98 
f 87 99 86 
f 98 86 99 
f 88 100 87 
f 99 87 100 
f 89 101 88 
f 100 88 101 
f 90 102 89 
f 101 89 102 
f 91 103 90 
f 102 90 103 
f 92 104 91 
f 103 91 104 
f 93 105 92 
f 104 92 105 
f 94 106 93 
f 105 93 106 
f 95 107 94 
f 106 94 107 
f 96 108 95 
f 107 95 108 
f 85 97 96 
f 108 96 97 
f 98 110 97 
f 109 97 110 
f 99 111 98 
f 110 98 111 
f 100 112 99 
f 111 99 112 
f 101 113 100 
f 112 100 113 
f 102 114 101 
f 113 101 114 
f 103 115 102 
f 114 102 115 
f 104 116 103 
f 115 103 116 
f 105 117 104 
f 116 104 117 
f 106 118 105 
f 117 105 118 
f 107 119 106 
f 118 106 119 
f 108 120 107 
f 119 107 120 
f 97 109 108 
f 120 108 109 
f 110 122 109 
f 121 109 122 
f 111 123 110 
f 122 110 123 
f 112 124 111 
f 123 111 124 
f 113 125 112 
f 124 112 125 
f 114 126 113 
f 125 113 126 
f 115 127 114 
f 126 114 127 
f 116 128 115 
f 127 115 128 
f 117 129 116 
f 128 116 129 
f 118 130 117 
f 129 117 130 
f 119 131 118 
f 130 118 131 
f 120 132 119 
f 131 119 132 
f 109 121 120 
f 132 120 121 
f 122 134 121 
f 133 121 134 
f 123 135 122 
f 134 122 135 
f 124 136 123 
f 135 123 136 
f 125 137 124 
f 136 124 137 
f 126 138 125 
f 137 125 138 
f 127 139 126 
f 138 126 139 
f 128 140 127 
f 139 127 140 
f 129 141 128 
f 140 128 141 
f 130 142 129 
f 141 129 142 
f 131 143 130 
f 142 130 143 
f 132 144 131 
f 143 131 144 
f 121 133 132 
f 144 132 133 
f 134 146 133 
f 145 133 146 
f 135 147 134 
f 146 134 147 
f 136 148 135 
f 147 135 148 
f 137 149 136 
f 148 136 149 
f 138 150 137 
f 149 137 150 
f 139 151 138 
f 150 138 151 
f 140 152 139 
f 151 139 152 
f 141 153 140 
f 152 140 153 
f 142 154 141 
f 153 141 154 
f 143 155 142 
f 154 142 155 
f 144 156 143 
f 155 143 156 
f 133 145 144 
f 156 144 145 
f 146 158 145 
f 157 145 158 
f 147 159 146 
f 158 146 159 
f 148 160 147 
f 159 147 160 
f 149 161 148 
f 160 148 161 
f 150 162 149 
f 161 149 162 
f 151 163 150 
f 162 150 163 
f 152 164 151 
f 163 151 164 
f 153 165 152 
f 164 152 165 
f 154 166 153 
f 165 153 166 
f 155 167 154 
f 166 154 167 
f 156 168 155 
f 167 155 168 
f 145 157 156 
f 168 156 157 
f 158 170 157 
f 169 157 170 
f 159 171 158 
f 170 158 171 
f 160 172 159 
f 171 159 172 
f 161 173 160 
f 172 160 173 
f 162 174 161 
f 173 161 174 
f 163 175 162 
f 174 162 175 
f 164 176 163 
f 175 163 176 
f 165 177 164 
f 176 164 177 
f 166 178 165 
f 177 165 178 
f 167 179 166 
f 178 166 179 
f 168 180 167 
f 179 167 180 
f 157 169 168 
f 180 168 169 
f 170 182 169 
f 181 169 182 
f 171 183 170 
f 182 170 183 
f 172 184 171 
f 183 171 184 
f 173 185 172 
f 184 172 185 
f 174 186 173 
f 185 173 186 
f 175 187 174 
f 186 174 187 
f 176 188 175 
f 187 175 188 
f 177 189 176 
f 188 176 189 
f 178 190 177 
f 189 177 190 
f 179 191 178 
f 190 178 191 
f 180 192 179 
f 191 179 192 
f 169 181 180 
f 192 180 181 
f 182 194 181 
f 193 181 194 
f 183 195 182 
f 194 182 195 
f 184 196 183 
f 195 183 196 
f 185 197 184 
f 196 184 197 
f 186 198 185 
f 197 185 198 
f 187 199 186 
f 198 186 199 
f 188 200 187 
f 199 187 200 
f 189 201 188 
f 200 188 201 
f 190 202 189 
f 201 189 202 
f 191 203 190 
f 202 190 203 
f 192 204 191 
f 203 191 204 
f 181 193 192 
f 204 192 193 
f 194 206 193 
f 205 193 206 
f 195 207 194 
f 206 194 207 
f 196 208 195 
f 207 195 208 
f 197 209 196 
f 208 196 209 
f 198 210 197 
f 209 197 210 
f 199 211 198 
f 210 198 211 
f 200 212 199 
f 211 199 212 
f 201 213 200 
f 212 200 213 
f 202 214 201 
f 213 201 214 
f 203 215 202 
f 214 202 215 
f 204 216 203 
f 215 203 216 
f 193 205 204 
f 216 204 205 
f 206 218 205 
f 217 205 218 
f 207 219 206 
f 218 206 219 
f 208 220 207 
f 219 207 220 
f 209 221 208 
f 220 208 221 
f 210 222 209 
f 221 209 222 
f 211 223 210 
f 222 210 223 
f 212 224 211 
f 223 211 224 
f 213 225 212 
f 224 212 225 
f 214 226 213 
f 225 213 226 
f 215 227 214 
f 226 214 227 
f 216 228 215 
f 227 215 228 
f 205 217 216 
f 228 216 217 
f 218 230 217 
f 229 217 230 
f 219 231 218 
f 230 218 231 
f 220 232 219 
f 231 219 232 
f 221 233 220 
f 232 220 233 
f 222 234 221 
f 233 221 234 
f 223 235 222 
f 234 222 235 
f 224 236 223 
f 235 223 236 
f 225 237 224 
f 236 224 237 
f 226 238 225 
f 237 225 238 
f 227 239 226 
f 238 226 239 
f 228 240 227 
f 239 227 240 
f 217 229 228 
f 240 228 229 
f 230 242 229 
f 241 229 242 
f 231 243 230 
f 242 230 243 
f 232 244 231 
f 243 231 244 
f 233 245 232 
f 244 232 245 
f 234 246 233 
f 245 233 246 
f 235 247 234 
f 246 234 247 
f 236 248 235 
f 247 235 248 
f 237 249 236 
f 248 236 249 
f 238 250 237 
f 249 237 250 
f 239 251 238 
f 250 238 251 
f 240 252 239 
f 251 239 252 
f 229 241 240 
f 252 240 241 
f 242 254 241 
f 253 241 254 
f 243 255 242 
f 254 242 255 
f 244 256 243 
f 255 243 256 
f 245 257 244 
f 256 244 257 
f 246 258 245 
f 257 245 258 
f 247 259 246 
f 258 246 259 
f 248 260 247 
f 259 247 260 
f 249 261 248 
f 260 248 261 
f 250 262 249 
f 261 249 262 
f 251 263 250 
f 262 250 263 
f 252 264 251 
f 263 251 264 
f 241 253 252 
f 264 252 253 
f 254 2 253 
f 1 253 2 
f 255 3 254 
f 2 254 3 
f 256 4 255 
f 3 255 4 
f 257 5 256 
f 4 256 5 
f 258 6 257 
f 5 257 6 
f 259 7 258 
f 6 258 7 
f 260 8 259 
f 7 259 8 
f 261 9 260 
f 8 260 9 
f 262 10 261 
f 9 261 10 
f 263 11 262 
f 10 262 11 
f 264 12 263 
f 11 263 12 
f 253 1 264 
f 12 264 1 
f 2 14 1 
f 13 1 14 
f 3 15 2 
f 14 2 15 
f 4 16 3 
f 15 3 16 
f 5 17 4 
f 16 4 17 
f 6 18 5 
f 17 5 18 
f 7 19 6 
f 18 6 19 
f 8 20 7 
f 19 7 20 
f 9 21 8 
f 20 8 21 
f 10 22 9 
f 21 9 22 
f 11 23 10 
f 22 10 23 
f 12 24 11 
f 23 11 24 
f 1 13 12 
f 24 12 13 
f 36 35 25 
f 35 34 25 
f 34 33 25 
f 33 32 25 
f 32 31 25 
f 31 30 25 
f 30 29 25 
f 29 28 25 
f 28 27 25 
f 25 27 26 
f 13 14 15 
f 23 13 22 
f 22 13 21 
f 21 13 20 
f 20 13 19 
f 19 13 18 
f 18 13 17 
f 17 13 16 
f 13 15 16 
f 13 23 24 
