# NV = 224 NF = 444
v 0.96733 0.498572 0.0735849
v -0.978893 0.514277 0.0647095
v -0.975836 0.529558 0.065833
v -0.983476 0.526914 0.065274
v 0.964714 0.548493 0.0787995
v 0.971879 0.506073 0.0638488
v 0.988886 0.539333 0.0658385
v 0.993984 0.528434 0.066023
v 0.980123 0.533442 0.0656541
v 0.970057 0.528434 0.0663919
v 0.983303 0.513992 0.066118
v 0.967777 0.514914 0.0663919
v -0.988059 0.514277 0.0647095
v -0.996001 0.51886 0.0647095
v -0.999355 0.531385 0.0647095
v 0.998891 0.51577 0.0720647
v 0.990803 0.502792 0.0685324
v 0.983465 0.501987 0.0667328
v 0.960656 0.515015 0.0609593
v 0.95509 0.523449 0.0663919
v 0.964334 0.536846 0.0625634
v 0.97483 0.541082 0.0655088
v 0.985466 0.542742 0.0678059
v 0.994151 0.538875 0.0697509
v 1.00642 0.537198 0.0663919
v 1.0101 0.523449 0.0837458
v 1.00642 0.509694 0.0815996
v 0.977239 0.501752 0.0811078
v 0.951406 0.502915 0.0695217
v 0.948623 0.510924 0.065302
v 0.95509 0.523449 0.051743
v 0.947438 0.535968 0.0673085
v 0.954559 0.54514 0.0724783
v 0.975188 0.54514 0.0845841
v 1.00642 0.537198 0.0815996
v 0.945795 0.523449 0.120315
v 0.944012 0.509694 0.117084
v 0.939144 0.499628 0.108276
v 0.933482 0.498399 0.0951306
v 0.925188 0.501752 0.0854448
v 0.918778 0.510924 0.078548
v 0.919191 0.523449 0.0721597
v 0.920974 0.537198 0.0753846
v 0.923009 0.54514 0.08668
v 0.930967 0.548493 0.0965558
v 0.939261 0.54514 0.106242
v 0.944012 0.537198 0.117084
v 0.893996 0.523449 0.148109
v 0.89233 0.509694 0.144817
v 0.887787 0.499628 0.13583
v 0.881577 0.49594 0.123556
v 0.875653 0.501752 0.111473
v 0.871511 0.510924 0.103296
v 0.869164 0.523449 0.0990038
v 0.870829 0.537198 0.10229
v 0.875373 0.547269 0.111277
v 0.880845 0.548493 0.122875
v 0.886428 0.54514 0.134075
v 0.89233 0.537198 0.144817
v 0.839972 0.523449 0.173796
v 0.838514 0.509694 0.170409
v 0.834512 0.499628 0.161165
v 0.829051 0.49594 0.148534
v 0.823591 0.499628 0.135903
v 0.819589 0.509694 0.126653
v 0.81813 0.523449 0.123271
v 0.819589 0.537198 0.126653
v 0.823591 0.547269 0.135903
v 0.829051 0.550952 0.148534
v 0.834512 0.547269 0.161165
v 0.838514 0.537198 0.170409
v 0.782931 0.523449 0.196074
v 0.781751 0.509694 0.192581
v 0.778515 0.499628 0.18304
v 0.7741 0.49594 0.170001
v 0.769685 0.499628 0.156962
v 0.766449 0.509694 0.147416
v 0.765264 0.523449 0.143923
v 0.766449 0.537198 0.147416
v 0.769685 0.547269 0.156962
v 0.7741 0.550952 0.170001
v 0.778515 0.547269 0.18304
v 0.781751 0.537198 0.192581
v 0.722122 0.523449 0.213618
v 0.721289 0.509694 0.210019
v 0.71902 0.499628 0.200199
v 0.715918 0.49594 0.18678
v 0.712811 0.499628 0.17336
v 0.710542 0.509694 0.16354
v 0.709709 0.523449 0.159947
v 0.710542 0.537198 0.16354
v 0.712811 0.547269 0.17336
v 0.715918 0.550952 0.18678
v 0.71902 0.547269 0.200199
v 0.721289 0.537198 0.210019
v 0.656881 0.523449 0.225076
v 0.656457 0.509694 0.221409
v 0.655288 0.499628 0.211394
v 0.65369 0.49594 0.197706
v 0.652097 0.499628 0.184024
v 0.650929 0.509694 0.174009
v 0.650504 0.523449 0.170342
v 0.650929 0.537198 0.174009
v 0.652097 0.547269 0.184024
v 0.65369 0.550952 0.197706
v 0.655288 0.547269 0.211394
v 0.656457 0.537198 0.221409
v 0.587421 0.523449 0.229116
v 0.587315 0.509694 0.225433
v 0.587024 0.499628 0.215362
v 0.586622 0.49594 0.201613
v 0.586225 0.499628 0.187858
v 0.585929 0.509694 0.177792
v 0.585822 0.523449 0.174104
v 0.585929 0.537198 0.177792
v 0.586225 0.547269 0.187858
v 0.586622 0.550952 0.201613
v 0.587024 0.547269 0.215362
v 0.587315 0.537198 0.225433
v -0.592663 0.523449 0.229116
v -0.592585 0.509694 0.225433
v -0.592373 0.499628 0.215362
v -0.592088 0.49594 0.201613
v -0.591803 0.499628 0.187858
v -0.59159 0.509694 0.177792
v -0.591512 0.523449 0.174104
v -0.59159 0.537198 0.177792
v -0.591803 0.547264 0.187858
v -0.592088 0.550952 0.201613
v -0.592373 0.547264 0.215362
v -0.592585 0.537198 0.225433
v -0.68813 0.523449 0.225131
v -0.687789 0.509694 0.221459
v -0.686867 0.499628 0.211422
v -0.685603 0.49594 0.197706
v -0.68434 0.499628 0.183996
v -0.683413 0.509694 0.173958
v -0.683077 0.523449 0.170286
v -0.683413 0.537198 0.173958
v -0.68434 0.547264 0.183996
v -0.685603 0.550952 0.197706
v -0.686867 0.547264 0.211422
v -0.687789 0.537198 0.221459
v -0.767611 0.523449 0.213775
v -0.766868 0.509694 0.210158
v -0.764839 0.499628 0.200277
v -0.762061 0.49594 0.18678
v -0.759289 0.499628 0.173282
v -0.75726 0.509694 0.163406
v -0.756517 0.523449 0.15979
v -0.75726 0.537198 0.163406
v -0.759289 0.547264 0.173282
v -0.762061 0.550952 0.18678
v -0.764839 0.547264 0.200277
v -0.766868 0.537198 0.210158
v -0.833282 0.523449 0.196068
v -0.832081 0.509694 0.192575
v -0.8288 0.499628 0.183035
v -0.824318 0.49594 0.170001
v -0.81983 0.499628 0.156962
v -0.816549 0.509694 0.147422
v -0.815347 0.523449 0.143928
v -0.816549 0.537198 0.147422
v -0.81983 0.547264 0.156962
v -0.824318 0.550952 0.170001
v -0.8288 0.547264 0.183035
v -0.832081 0.537198 0.192575
v -0.887585 0.523449 0.173159
v -0.885925 0.509694 0.169862
v -0.881393 0.499628 0.160846
v -0.8752 0.49594 0.148534
v -0.869007 0.499628 0.136221
v -0.864475 0.509694 0.127206
v -0.862815 0.523449 0.123903
v -0.864475 0.537198 0.127206
v -0.869007 0.547264 0.136221
v -0.8752 0.550952 0.148534
v -0.881393 0.547264 0.160846
v -0.885925 0.537198 0.169862
v -0.932801 0.523449 0.146494
v -0.930761 0.509694 0.14342
v -0.925183 0.499628 0.135025
v -0.917559 0.49594 0.123556
v -0.909936 0.499628 0.112082
v -0.904352 0.509694 0.103687
v -0.902312 0.523449 0.100613
v -0.904352 0.537198 0.103687
v -0.909936 0.547264 0.112082
v -0.917559 0.550952 0.123556
v -0.925183 0.547264 0.135025
v -0.930761 0.537198 0.14342
v -0.97132 0.523449 0.1178
v -0.969029 0.509694 0.114916
v -0.962775 0.499628 0.107018
v -0.954229 0.49594 0.0962373
v -0.945683 0.499628 0.0854504
v -0.939429 0.509694 0.0775587
v -0.937143 0.523449 0.0746692
v -0.939429 0.537198 0.0775587
v -0.945683 0.547264 0.0854504
v -0.954229 0.550952 0.0962373
v -0.962775 0.547264 0.107018
v -0.969029 0.537198 0.114916
v -1.01557 0.523449 0.0805433
v -1.01188 0.509694 0.0788274
v -1.00181 0.499628 0.0741438
v -0.988059 0.49594 0.0677444
v -0.97431 0.499628 0.061345
v -0.964244 0.509694 0.0566614
v -0.960556 0.523449 0.0549455
v -0.964244 0.537198 0.0566614
v -0.97431 0.547264 0.061345
v -0.988059 0.550952 0.0677444
v -1.00181 0.547264 0.0741438
v -1.01188 0.537198 0.0788274
v -1.01188 0.509694 0.0663919
v -1.00181 0.499628 0.0663919
v -0.97431 0.499628 0.0663919
v -0.964244 0.509694 0.0663919
v -0.960556 0.523449 0.0663919
v -0.964244 0.537198 0.0663919
v -0.988059 0.550952 0.0663919
v -1.00181 0.547264 0.0663919
v -1.01188 0.537198 0.0663919
f 16 28 17 
f 28 16 27 
f 17 1 18 
f 1 17 28 
f 6 30 19 
f 30 6 29 
f 19 31 20 
f 31 19 30 
f 20 32 21 
f 32 20 31 
f 21 33 22 
f 33 21 32 
f 23 34 24 
f 34 23 5 
f 24 35 25 
f 35 24 34 
f 26 25 35 
f 26 37 27 
f 37 26 36 
f 27 38 28 
f 38 27 37 
f 28 39 1 
f 39 28 38 
f 40 1 39 
f 29 41 30 
f 41 29 40 
f 30 42 31 
f 42 30 41 
f 31 43 32 
f 43 31 42 
f 32 44 33 
f 44 32 43 
f 45 33 44 
f 5 46 34 
f 46 5 45 
f 34 47 35 
f 47 34 46 
f 35 36 26 
f 36 35 47 
f 36 49 37 
f 49 36 48 
f 37 50 38 
f 50 37 49 
f 38 51 39 
f 51 38 50 
f 39 52 40 
f 52 39 51 
f 40 53 41 
f 53 40 52 
f 41 54 42 
f 54 41 53 
f 42 55 43 
f 55 42 54 
f 43 56 44 
f 56 43 55 
f 44 57 45 
f 57 44 56 
f 45 58 46 
f 58 45 57 
f 46 59 47 
f 59 46 58 
f 47 48 36 
f 48 47 59 
f 48 61 49 
f 61 48 60 
f 49 62 50 
f 62 49 61 
f 50 63 51 
f 63 50 62 
f 51 64 52 
f 64 51 63 
f 52 65 53 
f 65 52 64 
f 53 66 54 
f 66 53 65 
f 54 67 55 
f 67 54 66 
f 55 68 56 
f 68 55 67 
f 56 69 57 
f 69 56 68 
f 57 70 58 
f 70 57 69 
f 58 71 59 
f 71 58 70 
f 59 60 48 
f 60 59 71 
f 60 73 61 
f 73 60 72 
f 61 74 62 
f 74 61 73 
f 62 75 63 
f 75 62 74 
f 63 76 64 
f 76 63 75 
f 64 77 65 
f 77 64 76 
f 65 78 66 
f 78 65 77 
f 66 79 67 
f 79 66 78 
f 67 80 68 
f 80 67 79 
f 68 81 69 
f 81 68 80 
f 69 82 70 
f 82 69 81 
f 70 83 71 
f 83 70 82 
f 71 72 60 
f 72 71 83 
f 72 85 73 
f 85 72 84 
f 73 86 74 
f 86 73 85 
f 74 87 75 
f 87 74 86 
f 75 88 76 
f 88 75 87 
f 76 89 77 
f 89 76 88 
f 77 90 78 
f 90 77 89 
f 78 91 79 
f 91 78 90 
f 79 92 80 
f 92 79 91 
f 80 93 81 
f 93 80 92 
f 81 94 82 
f 94 81 93 
f 82 95 83 
f 95 82 94 
f 83 84 72 
f 84 83 95 
f 84 97 85 
f 97 84 96 
f 85 98 86 
f 98 85 97 
f 86 99 87 
f 99 86 98 
f 87 100 88 
f 100 87 99 
f 88 101 89 
f 101 88 100 
f 89 102 90 
f 102 89 101 
f 90 103 91 
f 103 90 102 
f 91 104 92 
f 104 91 103 
f 92 105 93 
f 105 92 104 
f 93 106 94 
f 106 93 105 
f 94 107 95 
f 107 94 106 
f 95 96 84 
f 96 95 107 
f 96 109 97 
f 109 96 108 
f 97 110 98 
f 110 97 109 
f 98 111 99 
f 111 98 110 
f 99 112 100 
f 112 99 111 
f 100 113 101 
f 113 100 112 
f 101 114 102 
f 114 101 113 
f 102 115 103 
f 115 102 114 
f 103 116 104 
f 116 103 115 
f 104 117 105 
f 117 104 116 
f 105 118 106 
f 118 105 117 
f 106 119 107 
f 119 106 118 
f 107 108 96 
f 108 107 119 
f 108 121 109 
f 121 108 120 
f 109 122 110 
f 122 109 121 
f 110 123 111 
f 123 110 122 
f 111 124 112 
f 124 111 123 
f 112 125 113 
f 125 112 124 
f 113 126 114 
f 126 113 125 
f 114 127 115 
f 127 114 126 
f 115 128 116 
f 128 115 127 
f 116 129 117 
f 129 116 128 
f 117 130 118 
f 130 117 129 
f 118 131 119 
f 131 118 130 
f 119 120 108 
f 120 119 131 
f 120 133 121 
f 133 120 132 
f 121 134 122 
f 134 121 133 
f 122 135 123 
f 135 122 134 
f 123 136 124 
f 136 123 135 
f 124 137 125 
f 137 124 136 
f 125 138 126 
f 138 125 137 
f 126 139 127 
f 139 126 138 
f 127 140 128 
f 140 127 139 
f 128 141 129 
f 141 128 140 
f 129 142 130 
f 142 129 141 
f 130 143 131 
f 143 130 142 
f 131 132 120 
f 132 131 143 
f 132 145 133 
f 145 132 144 
f 133 146 134 
f 146 133 145 
f 134 147 135 
f 147 134 146 
f 135 148 136 
f 148 135 147 
f 136 149 137 
f 149 136 148 
f 137 150 138 
f 150 137 149 
f 138 151 139 
f 151 138 150 
f 139 152 140 
f 152 139 151 
f 140 153 141 
f 153 140 152 
f 141 154 142 
f 154 141 153 
f 142 155 143 
f 155 142 154 
f 143 144 132 
f 144 143 155 
f 144 157 145 
f 157 144 156 
f 145 158 146 
f 158 145 157 
f 146 159 147 
f 159 146 158 
f 147 160 148 
f 160 147 159 
f 148 161 149 
f 161 148 160 
f 149 162 150 
f 162 149 161 
f 150 163 151 
f 163 150 162 
f 151 164 152 
f 164 151 163 
f 152 165 153 
f 165 152 164 
f 153 166 154 
f 166 153 165 
f 154 167 155 
f 167 154 166 
f 155 156 144 
f 156 155 167 
f 156 169 157 
f 169 156 168 
f 157 170 158 
f 170 157 169 
f 158 171 159 
f 171 158 170 
f 159 172 160 
f 172 159 171 
f 160 173 161 
f 173 160 172 
f 161 174 162 
f 174 161 173 
f 162 175 163 
f 175 162 174 
f 163 176 164 
f 176 163 175 
f 164 177 165 
f 177 164 176 
f 165 178 166 
f 178 165 177 
f 166 179 167 
f 179 166 178 
f 167 168 156 
f 168 167 179 
f 168 181 169 
f 181 168 180 
f 169 182 170 
f 182 169 181 
f 170 183 171 
f 183 170 182 
f 171 184 172 
f 184 171 183 
f 172 185 173 
f 185 172 184 
f 173 186 174 
f 186 173 185 
f 174 187 175 
f 187 174 186 
f 175 188 176 
f 188 175 187 
f 176 189 177 
f 189 176 188 
f 177 190 178 
f 190 177 189 
f 178 191 179 
f 191 178 190 
f 179 180 168 
f 180 179 191 
f 180 193 181 
f 193 180 192 
f 181 194 182 
f 194 181 193 
f 182 195 183 
f 195 182 194 
f 183 196 184 
f 196 183 195 
f 184 197 185 
f 197 184 196 
f 185 198 186 
f 198 185 197 
f 186 199 187 
f 199 186 198 
f 187 200 188 
f 200 187 199 
f 188 201 189 
f 201 188 200 
f 189 202 190 
f 202 189 201 
f 190 203 191 
f 203 190 202 
f 191 192 180 
f 192 191 203 
f 192 205 193 
f 205 192 204 
f 193 206 194 
f 206 193 205 
f 194 207 195 
f 207 194 206 
f 195 208 196 
f 196 209 197 
f 209 196 208 
f 197 210 198 
f 210 197 209 
f 198 211 199 
f 211 198 210 
f 199 212 200 
f 212 199 211 
f 200 213 201 
f 201 214 202 
f 214 201 213 
f 202 215 203 
f 215 202 214 
f 203 204 192 
f 204 203 215 
f 204 216 205 
f 205 217 206 
f 217 205 216 
f 208 219 209 
f 219 208 218 
f 209 220 210 
f 220 209 219 
f 210 221 211 
f 221 210 220 
f 213 223 214 
f 223 213 222 
f 214 224 215 
f 224 214 223 
f 216 204 15 
f 14 13 217 
f 213 200 212 
f 204 215 15 
f 14 216 15 
f 219 2 220 
f 218 2 219 
f 213 212 222 
f 14 217 216 
f 215 224 15 
f 208 195 207 
f 223 15 224 
f 15 223 222 
f 12 11 6 
f 20 12 19 
f 11 10 9 
f 10 20 21 
f 11 12 10 
f 10 22 9 
f 6 19 12 
f 20 10 12 
f 21 22 10 
f 11 16 17 
f 8 24 25 
f 23 24 7 
f 7 9 23 
f 24 8 7 
f 27 16 26 
f 9 7 8 
f 11 9 8 
f 16 25 26 
f 8 16 11 
f 17 18 11 
f 8 25 16 
f 208 207 218 
f 218 207 13 
f 221 212 211 
f 13 207 217 
f 206 217 207 
f 3 220 2 
f 222 3 15 
f 3 221 220 
f 212 221 3 
f 4 15 3 
f 4 3 2 
f 212 3 222 
f 4 14 15 
f 14 4 13 
f 13 4 2 
f 2 218 13 
f 23 9 22 
f 22 33 5 
f 33 45 5 
f 23 22 5 
f 29 6 1 
f 6 11 18 
f 29 1 40 
f 1 6 18 
